<?xml version="1.0" standalone="no"?>
<!DOCTYPE svg PUBLIC "-//W3C//DTD SVG 1.1//EN" "http://www.w3.org/Graphics/SVG/1.1/DTD/svg11.dtd" >
<svg xmlns="http://www.w3.org/2000/svg">
<metadata>Generated by IcoMoon</metadata>
<defs>
<font id="et-icon" horiz-adv-x="1024">
<font-face units-per-em="1024" ascent="960" descent="-64" />
<missing-glyph horiz-adv-x="1024" />
<glyph unicode="&#x20;" horiz-adv-x="512" d="" />
<glyph unicode="&#xe900;" glyph-name="grid" d="M426.667 853.334h-298.667c-25.6 0-42.667-17.067-42.667-42.667v-298.667c0-25.6 17.067-42.667 42.667-42.667h298.667c25.6 0 42.667 17.067 42.667 42.667v298.667c0 25.6-17.067 42.667-42.667 42.667zM384 554.667h-213.333v213.333h213.333v-213.333zM896 853.334h-298.667c-25.6 0-42.667-17.067-42.667-42.667v-298.667c0-25.6 17.067-42.667 42.667-42.667h298.667c25.6 0 42.667 17.067 42.667 42.667v298.667c0 25.6-17.067 42.667-42.667 42.667zM853.333 554.667h-213.333v213.333h213.333v-213.333zM896 384h-298.667c-25.6 0-42.667-17.067-42.667-42.667v-298.667c0-25.6 17.067-42.667 42.667-42.667h298.667c25.6 0 42.667 17.067 42.667 42.667v298.667c0 25.6-17.067 42.667-42.667 42.667zM853.333 85.334h-213.333v213.333h213.333v-213.333zM426.667 384h-298.667c-25.6 0-42.667-17.067-42.667-42.667v-298.667c0-25.6 17.067-42.667 42.667-42.667h298.667c25.6 0 42.667 17.067 42.667 42.667v298.667c0 25.6-17.067 42.667-42.667 42.667zM384 85.334h-213.333v213.333h213.333v-213.333z" />
<glyph unicode="&#xe901;" glyph-name="list" d="M341.333 640h554.667c25.6 0 42.667 17.067 42.667 42.667s-17.067 42.667-42.667 42.667h-554.667c-25.6 0-42.667-17.067-42.667-42.667s17.067-42.667 42.667-42.667zM896 469.334h-554.667c-25.6 0-42.667-17.067-42.667-42.667s17.067-42.667 42.667-42.667h554.667c25.6 0 42.667 17.067 42.667 42.667s-17.067 42.667-42.667 42.667zM896 213.334h-554.667c-25.6 0-42.667-17.067-42.667-42.667s17.067-42.667 42.667-42.667h554.667c25.6 0 42.667 17.067 42.667 42.667s-17.067 42.667-42.667 42.667zM98.133 712.534c-8.533-8.533-12.8-17.067-12.8-29.867s4.267-21.333 12.8-29.867c8.533-8.533 17.067-12.8 29.867-12.8s21.333 4.267 29.867 12.8c8.533 8.533 12.8 17.067 12.8 29.867s-4.267 21.333-12.8 29.867c-17.067 17.067-42.667 17.067-59.733 0zM98.133 456.534c-8.533-8.533-12.8-17.067-12.8-29.867s4.267-21.333 12.8-29.867c8.533-8.533 17.067-12.8 29.867-12.8s21.333 4.267 29.867 12.8c8.533 8.533 12.8 17.067 12.8 29.867s-4.267 21.333-12.8 29.867c-17.067 17.067-42.667 17.067-59.733 0zM98.133 200.534c-8.533-8.533-12.8-17.067-12.8-29.867s4.267-21.333 12.8-29.867c8.533-8.533 17.067-12.8 29.867-12.8s21.333 4.267 29.867 12.8c8.533 8.533 12.8 17.067 12.8 29.867s-4.267 21.333-12.8 29.867c-17.067 17.067-42.667 17.067-59.733 0z" />
<glyph unicode="&#xe902;" glyph-name="twitter" horiz-adv-x="951" d="M925.714 717.714c-25.143-36.571-56.571-69.143-92.571-95.429 0.571-8 0.571-16 0.571-24 0-244-185.714-525.143-525.143-525.143-104.571 0-201.714 30.286-283.429 82.857 14.857-1.714 29.143-2.286 44.571-2.286 86.286 0 165.714 29.143 229.143 78.857-81.143 1.714-149.143 54.857-172.571 128 11.429-1.714 22.857-2.857 34.857-2.857 16.571 0 33.143 2.286 48.571 6.286-84.571 17.143-148 91.429-148 181.143v2.286c24.571-13.714 53.143-22.286 83.429-23.429-49.714 33.143-82.286 89.714-82.286 153.714 0 34.286 9.143 65.714 25.143 93.143 90.857-112 227.429-185.143 380.571-193.143-2.857 13.714-4.571 28-4.571 42.286 0 101.714 82.286 184.571 184.571 184.571 53.143 0 101.143-22.286 134.857-58.286 41.714 8 81.714 23.429 117.143 44.571-13.714-42.857-42.857-78.857-81.143-101.714 37.143 4 73.143 14.286 106.286 28.571z" />
<glyph unicode="&#xe903;" glyph-name="facebook" horiz-adv-x="602" d="M548 944v-150.857h-89.714c-70.286 0-83.429-33.714-83.429-82.286v-108h167.429l-22.286-169.143h-145.143v-433.714h-174.857v433.714h-145.714v169.143h145.714v124.571c0 144.571 88.571 223.429 217.714 223.429 61.714 0 114.857-4.571 130.286-6.857z" />
<glyph unicode="&#xe904;" glyph-name="pinterest" horiz-adv-x="878" d="M877.714 438.857c0-242.286-196.571-438.857-438.857-438.857-43.429 0-84.571 6.286-124.571 18.286 16.571 26.286 35.429 60 44.571 93.714 0 0 5.143 19.429 30.857 120.571 14.857-29.143 59.429-54.857 106.857-54.857 141.143 0 237.143 128.571 237.143 301.143 0 129.714-110.286 251.429-278.286 251.429-208 0-313.143-149.714-313.143-274.286 0-75.429 28.571-142.857 89.714-168 9.714-4 18.857 0 21.714 11.429 2.286 7.429 6.857 26.857 9.143 34.857 2.857 11.429 1.714 14.857-6.286 24.571-17.714 21.143-29.143 48-29.143 86.286 0 110.857 82.857 210.286 216 210.286 117.714 0 182.857-72 182.857-168.571 0-126.286-56-233.143-139.429-233.143-45.714 0-80 37.714-69.143 84.571 13.143 55.429 38.857 115.429 38.857 155.429 0 36-19.429 66.286-59.429 66.286-46.857 0-84.571-48.571-84.571-113.714 0 0 0-41.714 14.286-69.714-48-203.429-56.571-238.857-56.571-238.857-8-33.143-8.571-70.286-7.429-101.143-154.857 68-262.857 222.286-262.857 402.286 0 242.286 196.571 438.857 438.857 438.857s438.857-196.571 438.857-438.857z" />
<glyph unicode="&#xe905;" glyph-name="instagram" horiz-adv-x="878" d="M585.143 438.857c0 80.571-65.714 146.286-146.286 146.286s-146.286-65.714-146.286-146.286 65.714-146.286 146.286-146.286 146.286 65.714 146.286 146.286zM664 438.857c0-124.571-100.571-225.143-225.143-225.143s-225.143 100.571-225.143 225.143 100.571 225.143 225.143 225.143 225.143-100.571 225.143-225.143zM725.714 673.143c0-29.143-23.429-52.571-52.571-52.571s-52.571 23.429-52.571 52.571 23.429 52.571 52.571 52.571 52.571-23.429 52.571-52.571zM438.857 798.857c-64 0-201.143 5.143-258.857-17.714-20-8-34.857-17.714-50.286-33.143s-25.143-30.286-33.143-50.286c-22.857-57.714-17.714-194.857-17.714-258.857s-5.143-201.143 17.714-258.857c8-20 17.714-34.857 33.143-50.286s30.286-25.143 50.286-33.143c57.714-22.857 194.857-17.714 258.857-17.714s201.143-5.143 258.857 17.714c20 8 34.857 17.714 50.286 33.143s25.143 30.286 33.143 50.286c22.857 57.714 17.714 194.857 17.714 258.857s5.143 201.143-17.714 258.857c-8 20-17.714 34.857-33.143 50.286s-30.286 25.143-50.286 33.143c-57.714 22.857-194.857 17.714-258.857 17.714zM877.714 438.857c0-60.571 0.571-120.571-2.857-181.143-3.429-70.286-19.429-132.571-70.857-184s-113.714-67.429-184-70.857c-60.571-3.429-120.571-2.857-181.143-2.857s-120.571-0.571-181.143 2.857c-70.286 3.429-132.571 19.429-184 70.857s-67.429 113.714-70.857 184c-3.429 60.571-2.857 120.571-2.857 181.143s-0.571 120.571 2.857 181.143c3.429 70.286 19.429 132.571 70.857 184s113.714 67.429 184 70.857c60.571 3.429 120.571 2.857 181.143 2.857s120.571 0.571 181.143-2.857c70.286-3.429 132.571-19.429 184-70.857s67.429-113.714 70.857-184c3.429-60.571 2.857-120.571 2.857-181.143z" />
<glyph unicode="&#xe906;" glyph-name="linkedin" horiz-adv-x="878" d="M199.429 593.714v-566.286h-188.571v566.286h188.571zM211.429 768.571c0.571-54.286-40.571-97.714-106.286-97.714v0h-1.143c-63.429 0-104 43.429-104 97.714 0 55.429 42.286 97.714 106.286 97.714 64.571 0 104.571-42.286 105.143-97.714zM877.714 352v-324.571h-188v302.857c0 76-27.429 128-95.429 128-52 0-82.857-34.857-96.571-68.571-4.571-12.571-6.286-29.143-6.286-46.286v-316h-188c2.286 513.143 0 566.286 0 566.286h188v-82.286h-1.143c24.571 38.857 69.143 95.429 170.857 95.429 124 0 216.571-81.143 216.571-254.857z" />
<glyph unicode="&#xe907;" glyph-name="google" horiz-adv-x="860" d="M438.857 501.714h414.286c4-22.286 6.857-44 6.857-73.143 0-250.286-168-428.571-421.143-428.571-242.857 0-438.857 196-438.857 438.857s196 438.857 438.857 438.857c118.286 0 217.714-43.429 294.286-114.857l-119.429-114.857c-32.571 31.429-89.714 68-174.857 68-149.714 0-272-124-272-277.143s122.286-277.143 272-277.143c173.714 0 238.857 124.571 249.143 189.143h-249.143v150.857z" />
<glyph unicode="&#xe908;" glyph-name="flickr" horiz-adv-x="878" d="M713.143 877.714c90.857 0 164.571-73.714 164.571-164.571v-548.571c0-90.857-73.714-164.571-164.571-164.571h-548.571c-90.857 0-164.571 73.714-164.571 164.571v548.571c0 90.857 73.714 164.571 164.571 164.571h548.571zM398.857 438.857c0 66.857-54.286 121.143-121.143 121.143s-121.143-54.286-121.143-121.143 54.286-121.143 121.143-121.143 121.143 54.286 121.143 121.143zM721.143 438.857c0 66.857-54.286 121.143-121.143 121.143s-121.143-54.286-121.143-121.143 54.286-121.143 121.143-121.143 121.143 54.286 121.143 121.143z" />
<glyph unicode="&#xe909;" glyph-name="snapchat" horiz-adv-x="951" d="M484.571 877.714c102.857 1.143 188-56.571 230.857-149.143 13.143-28 15.429-71.429 15.429-102.286 0-36.571-2.857-72.571-5.143-109.143 4.571-2.286 10.857-4 16-4 20.571 0 37.714 15.429 58.286 15.429 19.429 0 47.429-13.714 47.429-36.571 0-54.857-114.857-44.571-114.857-92.571 0-8.571 3.429-16.571 6.857-24.571 27.429-60 79.429-117.714 141.143-143.429 14.857-6.286 29.714-9.714 45.714-13.143 10.286-2.286 16-9.714 16-20 0-38.857-98.857-54.857-125.143-58.857-11.429-17.714-2.857-59.429-33.143-59.429-23.429 0-46.857 7.429-72 7.429-12 0-24-0.571-35.429-2.857-68-11.429-90.857-84.571-202.286-84.571-107.429 0-133.143 73.143-199.429 84.571-12 2.286-24 2.857-36 2.857-25.714 0-50.286-8.571-70.857-8.571-32 0-22.286 42.286-34.286 60.571-26.286 4-125.143 20-125.143 58.857 0 10.286 5.714 17.714 16 20 16 3.429 30.857 6.857 45.714 13.143 61.143 25.143 114.286 83.429 141.143 143.429 3.429 8 6.857 16 6.857 24.571 0 48-115.429 38.857-115.429 92 0 22.286 26.286 36.571 46.286 36.571 17.714 0 35.429-14.857 57.714-14.857 6.286 0 12.571 1.143 18.286 4-2.286 36-5.143 72-5.143 108.571 0 30.857 2.286 74.857 15.429 102.857 50.286 108.571 135.429 148 249.143 149.143z" />
<glyph unicode="&#xe90a;" glyph-name="behance" horiz-adv-x="1170" d="M1056 757.143h-292v-70.857h292v70.857zM912 513.714c-68.571 0-114.286-42.857-118.857-111.429h233.143c-6.286 69.143-42.286 111.429-114.286 111.429zM921.143 179.428c43.429 0 99.429 23.429 113.143 68h126.286c-38.857-119.429-119.429-175.429-244-175.429-164.571 0-266.857 111.429-266.857 273.714 0 156.571 108 276 266.857 276 163.429 0 253.714-128.571 253.714-282.857 0-9.143-0.571-18.286-1.143-26.857h-376c0-83.429 44-132.571 128-132.571zM158.286 208h169.143c64.571 0 117.143 22.857 117.143 95.429 0 73.714-44 102.857-113.714 102.857h-172.571v-198.286zM158.286 514.857h160.571c56.571 0 96.571 24.571 96.571 85.714 0 66.286-51.429 82.286-108.571 82.286h-148.571v-168zM0 805.714h339.429c123.429 0 230.286-34.857 230.286-178.286 0-72.571-33.714-119.429-98.286-150.286 88.571-25.143 131.429-92 131.429-182.286 0-146.286-122.857-209.143-253.714-209.143h-349.143v720z" />
<glyph unicode="&#xe90b;" glyph-name="dribbble" horiz-adv-x="878" d="M585.143 93.714c-5.714 33.143-27.429 147.429-80 284.571-0.571 0-1.714-0.571-2.286-0.571 0 0-222.286-77.714-294.286-234.286-3.429 2.857-8.571 6.286-8.571 6.286 65.143-53.143 148-85.714 238.857-85.714 52 0 101.143 10.857 146.286 29.714zM479.429 440.571c-9.143 21.143-19.429 42.286-30.286 63.429-193.143-57.714-378.286-53.143-384.571-53.143-0.571-4-0.571-8-0.571-12 0-96 36.571-184 96-250.286v0c102.286 182.286 304.571 247.429 304.571 247.429 5.143 1.714 10.286 2.857 14.857 4.571zM418.286 561.714c-65.143 115.429-134.286 209.143-139.429 216-104.571-49.143-182.286-145.714-206.857-261.714 9.714 0 166.286-1.714 346.286 45.714zM809.143 379.428c-8 2.286-112.571 35.429-233.714 16.571 49.143-135.429 69.143-245.714 73.143-268 84 56.571 143.429 146.857 160.571 251.429zM349.143 802.857c-0.571 0-0.571 0-1.143-0.571 0 0 0.571 0.571 1.143 0.571zM686.286 720c-65.714 58.286-152.571 93.714-247.429 93.714-30.286 0-60-4-88.571-10.857 5.714-7.429 76.571-100.571 140.571-218.286 141.143 52.571 194.286 133.714 195.429 135.429zM813.714 442.857c-1.143 88.571-32.571 170.286-85.143 234.286-1.143-1.143-61.143-88-209.143-148.571 8.571-17.714 17.143-36 25.143-54.286 2.857-6.286 5.143-13.143 8-19.429 129.143 16.571 256.571-11.429 261.143-12zM877.714 438.857c0-242.286-196.571-438.857-438.857-438.857s-438.857 196.571-438.857 438.857 196.571 438.857 438.857 438.857 438.857-196.571 438.857-438.857z" />
<glyph unicode="&#xe90c;" glyph-name="tumblr" horiz-adv-x="624" d="M539.429 191.428l45.714-135.429c-17.143-25.714-94.857-54.857-164.571-56-207.429-3.429-285.714 147.429-285.714 253.714v310.857h-96v122.857c144 52 178.857 182.286 186.857 256.571 0.571 4.571 4.571 6.857 6.857 6.857h139.429v-242.286h190.286v-144h-190.857v-296c0-40 14.857-95.429 91.429-93.714 25.143 0.571 58.857 8 76.571 16.571z" />
<glyph unicode="&#xe90d;" glyph-name="vimeo" horiz-adv-x="1029" d="M976.571 654.857c-4-90.286-67.429-214.286-189.714-372-126.857-164-233.143-246.286-321.143-246.286-54.286 0-100 50.286-137.143 150.286-25.143 91.429-50.286 183.429-75.429 275.429-27.429 100-57.714 149.714-89.714 149.714-6.857 0-30.857-14.286-72.571-43.429l-44 56c45.714 40.571 90.857 81.714 136 121.143 60.571 53.714 106.857 80.571 137.714 83.429 72.571 6.857 116.571-42.286 133.714-148 17.714-114.286 30.857-185.714 37.714-213.143 21.143-94.857 43.429-142.286 68.571-142.286 19.429 0 48.571 30.286 88 92 38.857 61.714 59.429 108.571 62.286 140.571 5.143 53.143-15.429 79.429-62.286 79.429-22.286 0-45.143-5.143-69.143-14.857 45.714 149.714 133.143 222.286 262.286 218.286 95.429-2.857 140.571-65.143 134.857-186.286z" />
<glyph unicode="&#xe90e;" glyph-name="vk" horiz-adv-x="1119" d="M1095.429 653.714c8.571-23.429-18.286-78.286-85.714-168-110.857-147.429-122.857-133.714-31.429-218.857 88-81.714 106.286-121.143 109.143-126.286 0 0 36.571-64-40.571-64.571l-146.286-2.286c-31.429-6.286-73.143 22.286-73.143 22.286-54.857 37.714-106.286 135.429-146.286 122.857 0 0-41.143-13.143-40-101.143 0.571-18.857-8.571-29.143-8.571-29.143s-10.286-10.857-30.286-12.571h-65.714c-144.571-9.143-272 124-272 124s-139.429 144-261.714 431.429c-8 18.857 0.571 28 0.571 28s8.571 10.857 32.571 10.857l156.571 1.143c14.857-2.286 25.143-10.286 25.143-10.286s9.143-6.286 13.714-18.286c25.714-64 58.857-122.286 58.857-122.286 57.143-117.714 96-137.714 118.286-125.714 0 0 29.143 17.714 22.857 160-2.286 51.429-16.571 74.857-16.571 74.857-13.143 17.714-37.714 22.857-48.571 24.571-8.571 1.143 5.714 21.714 24.571 30.857 28 13.714 77.714 14.286 136.571 13.714 46.286-0.571 59.429-3.429 77.143-7.429 54.286-13.143 36-63.429 36-184.571 0-38.857-7.429-93.143 20.571-110.857 12-8 41.714-1.143 114.857 123.429 0 0 34.286 59.429 61.143 128.571 4.571 12.571 14.286 17.714 14.286 17.714s9.143 5.143 21.714 3.429l164.571 1.143c49.714 6.286 57.714-16.571 57.714-16.571z" />
<glyph unicode="&#xe90f;" glyph-name="youtube" d="M406.286 306.286l276.571 142.857-276.571 144.571v-287.429zM512 798.857c215.429 0 358.286-10.286 358.286-10.286 20-2.286 64-2.286 102.857-43.429 0 0 31.429-30.857 40.571-101.714 10.857-82.857 10.286-165.714 10.286-165.714v-77.714s0.571-82.857-10.286-165.714c-9.143-70.286-40.571-101.714-40.571-101.714-38.857-40.571-82.857-40.571-102.857-42.857 0 0-142.857-10.857-358.286-10.857v0c-266.286 2.286-348 10.286-348 10.286-22.857 4-74.286 2.857-113.143 43.429 0 0-31.429 31.429-40.571 101.714-10.857 82.857-10.286 165.714-10.286 165.714v77.714s-0.571 82.857 10.286 165.714c9.143 70.857 40.571 101.714 40.571 101.714 38.857 41.143 82.857 41.143 102.857 43.429 0 0 142.857 10.286 358.286 10.286v0z" />
<glyph unicode="&#xe910;" glyph-name="weibo" horiz-adv-x="1039" d="M385.714 217.143c16 26.286 7.429 56.571-19.429 68-25.714 10.857-60-0.571-76-25.714-16.571-25.714-8.571-56 17.143-68 26.286-12 61.714-0.571 78.286 25.714zM439.429 286.286c5.714 10.286 2.286 21.714-8 25.714-10.286 3.429-22.857-1.143-28.571-10.857-5.714-10.286-2.857-21.143 7.429-25.714 10.286-4 23.429 0.571 29.143 10.857zM538.857 225.143c-34.286-77.714-133.714-120-218.286-92.571-81.714 26.286-116 106.857-80.571 179.429 35.429 70.857 126.286 110.857 206.857 90.286 84-21.714 126.286-100.571 92-177.143zM717.143 316.571c-10.857 111.429-157.143 188-326.857 171.429-169.714-17.143-297.714-120.571-286.857-232s157.143-188 326.857-171.429c169.714 17.143 297.714 120.571 286.857 232zM893.143 314.286c0-128.571-185.143-290.286-463.429-290.286-212.571 0-429.714 102.857-429.714 272.571 0 88.571 56 190.857 152.571 287.429 129.143 129.143 279.429 187.429 336 130.857 25.143-24.571 27.429-68 11.429-119.429-8-26.286 24.571-11.429 24.571-12 104 44 194.857 46.286 228-1.143 17.714-25.143 16-60.571 0-101.714-7.429-18.857 2.286-21.714 16.571-26.286 58.857-18.286 124-62.286 124-140zM850.857 670.857c32.571-36 41.714-85.714 27.429-129.143-5.714-17.714-24.571-27.429-42.286-21.714s-27.429 24.571-21.714 42.286v0c6.857 21.714 2.286 45.714-13.714 63.429s-39.429 24.571-61.143 20v0c-18.286-4-36.571 7.429-40 25.714-4 18.286 7.429 36 25.714 40 44.571 9.714 93.143-4 125.714-40.571zM954.286 764c67.429-74.286 85.143-176 56.571-265.143v0c-6.857-20.571-28.571-32-49.143-25.143s-32 28.571-25.714 49.143v0c20.571 63.429 8 136-40 188.571-48 53.143-118.286 73.143-183.429 59.429-21.143-4.571-42.286 9.143-46.857 30.286s9.143 41.714 30.286 46.286v0c92 19.429 190.857-8.571 258.286-83.429z" />
<glyph unicode="&#xe911;" glyph-name="whatsapp" horiz-adv-x="878" d="M562.857 394.286c9.714 0 102.857-48.571 106.857-55.429 1.143-2.857 1.143-6.286 1.143-8.571 0-14.286-4.571-30.286-9.714-43.429-13.143-32-66.286-52.571-98.857-52.571-27.429 0-84 24-108.571 35.429-81.714 37.143-132.571 100.571-181.714 173.143-21.714 32-41.143 71.429-40.571 110.857v4.571c1.143 37.714 14.857 64.571 42.286 90.286 8.571 8 17.714 12.571 29.714 12.571 6.857 0 13.714-1.714 21.143-1.714 15.429 0 18.286-4.571 24-19.429 4-9.714 33.143-87.429 33.143-93.143 0-21.714-39.429-46.286-39.429-59.429 0-2.857 1.143-5.714 2.857-8.571 12.571-26.857 36.571-57.714 58.286-78.286 26.286-25.143 54.286-41.714 86.286-57.714 4-2.286 8-4 12.571-4 17.143 0 45.714 55.429 60.571 55.429zM446.857 91.428c197.714 0 358.857 161.143 358.857 358.857s-161.143 358.857-358.857 358.857-358.857-161.143-358.857-358.857c0-75.429 24-149.143 68.571-210.286l-45.143-133.143 138.286 44c58.286-38.286 127.429-59.429 197.143-59.429zM446.857 881.143c237.714 0 430.857-193.143 430.857-430.857s-193.143-430.857-430.857-430.857c-72.571 0-144.571 18.286-208.571 53.714l-238.286-76.571 77.714 231.429c-40.571 66.857-61.714 144-61.714 222.286 0 237.714 193.143 430.857 430.857 430.857z" />
<glyph unicode="&#xe912;" glyph-name="soundcloud" horiz-adv-x="1317" d="M448 166.857l9.143 137.714-9.143 298.857c-0.571 7.429-6.286 13.714-13.714 13.714-6.857 0-13.143-6.286-13.143-13.714l-8-298.857 8-137.714c0.571-7.429 6.286-13.143 13.143-13.143 7.429 0 13.143 5.714 13.714 13.143zM617.143 183.428l6.286 120.571-6.857 334.857c0 5.714-2.857 10.857-7.429 13.714-2.857 1.714-5.714 2.857-9.143 2.857s-6.286-1.143-9.143-2.857c-4.571-2.857-7.429-8-7.429-13.714l-0.571-3.429-5.714-330.857s0-0.571 6.286-134.857v-0.571c0-3.429 1.143-6.857 3.429-9.714 3.429-4 8-6.286 13.143-6.286 4.571 0 8.571 2.286 11.429 5.143 3.429 2.857 5.143 6.857 5.143 11.429zM20 377.714l11.429-73.143-11.429-72c-0.571-2.857-2.286-5.143-5.143-5.143s-4.571 2.286-5.143 5.143l-9.714 72 9.714 73.143c0.571 2.857 2.286 5.143 5.143 5.143s4.571-2.286 5.143-5.143zM69.143 422.857l14.857-118.286-14.857-116c-0.571-2.857-2.857-5.143-5.714-5.143s-5.143 2.286-5.143 5.714l-13.143 115.429 13.143 118.286c0 2.857 2.286 5.143 5.143 5.143s5.143-2.286 5.714-5.143zM229.143 164v0 0zM121.714 444.571l14.286-140-14.286-135.429c0-3.429-2.857-6.286-6.286-6.286s-6.286 2.857-6.857 6.286l-12 135.429 12 140c0.571 4 3.429 6.857 6.857 6.857s6.286-2.857 6.286-6.857zM175.429 448.571l13.143-144-13.143-139.429c-0.571-4.571-4-7.429-8-7.429s-7.429 2.857-7.429 7.429l-12 139.429 12 144c0 4.571 3.429 7.429 7.429 7.429s7.429-2.857 8-7.429zM229.143 438.286l12-133.714-12-140.571c-0.571-5.143-4.571-9.143-9.143-9.143s-8.571 4-8.571 9.143l-11.429 140.571 11.429 133.714c0 4.571 4 8.571 8.571 8.571s8.571-4 9.143-8.571zM448 166.857v0 0zM282.857 521.714l12-217.143-12-140.571c0-5.714-4.571-10.286-9.714-10.286-5.714 0-9.714 4.571-10.286 10.286l-10.286 140.571 10.286 217.143c0.571 5.714 4.571 10.286 10.286 10.286 5.143 0 9.714-4.571 9.714-10.286zM336.571 570.857l10.857-267.429-10.857-139.429c0-6.286-5.143-10.857-10.857-10.857-6.286 0-10.857 4.571-11.429 10.857l-9.143 139.429 9.143 267.429c0.571 6.286 5.143 10.857 11.429 10.857 5.714 0 10.857-4.571 10.857-10.857zM392.571 593.714l10.286-289.143-10.286-138.286c-0.571-6.857-5.714-12-12.571-12-6.286 0-11.429 5.143-12 12l-9.143 138.286 9.143 289.143c0 6.857 5.714 12.571 12 12.571 6.857 0 12-5.714 12.571-12.571zM616.571 169.714v0 0 0 0 0 0zM503.429 596l8.571-291.429-8.571-136.571c0-8-6.286-14.286-14.286-14.286s-13.714 6.286-14.286 14.286l-8 136.571 8 291.429c0 8 6.286 14.286 14.286 14.286s14.286-6.286 14.286-14.286zM560 585.143l8-281.143-8-134.857c0-8.571-6.857-15.429-15.429-15.429s-15.429 6.857-16 15.429l-6.857 134.857 6.857 281.143c0.571 9.143 7.429 16 16 16s14.857-6.857 15.429-16zM681.143 304l-8-132c0-9.714-8-17.714-17.714-17.714s-17.714 8-18.286 17.714l-3.429 65.143-3.429 66.857 6.857 363.429v1.714c0.571 5.143 2.857 10.286 6.857 13.714 2.857 2.286 6.857 4 11.429 4 2.857 0 6.286-1.143 8.571-2.857 5.143-2.857 8.571-8.571 9.143-14.857zM1316.571 314.857c0-89.143-72.571-161.143-161.714-161.143h-449.143c-9.714 1.143-17.714 8.571-17.714 18.857v513.714c0 9.714 3.429 14.286 16 18.857 31.429 12.571 66.857 19.429 103.429 19.429 149.143 0 271.429-114.286 284.571-260 19.429 8 40.571 12.571 62.857 12.571 89.143 0 161.714-72.571 161.714-162.286z" />
<glyph unicode="&#xe913;" glyph-name="email, envelope-o" d="M950.857 91.428v438.857c-12-13.714-25.143-26.286-39.429-37.714-81.714-62.857-164-126.857-243.429-193.143-42.857-36-96-80-155.429-80h-1.143c-59.429 0-112.571 44-155.429 80-79.429 66.286-161.714 130.286-243.429 193.143-14.286 11.429-27.429 24-39.429 37.714v-438.857c0-9.714 8.571-18.286 18.286-18.286h841.143c9.714 0 18.286 8.571 18.286 18.286zM950.857 692c0 14.286 3.429 39.429-18.286 39.429h-841.143c-9.714 0-18.286-8.571-18.286-18.286 0-65.143 32.571-121.714 84-162.286 76.571-60 153.143-120.571 229.143-181.143 30.286-24.571 85.143-77.143 125.143-77.143h1.143c40 0 94.857 52.571 125.143 77.143 76 60.571 152.571 121.143 229.143 181.143 37.143 29.143 84 92.571 84 141.143zM1024 713.143v-621.714c0-50.286-41.143-91.429-91.429-91.429h-841.143c-50.286 0-91.429 41.143-91.429 91.429v621.714c0 50.286 41.143 91.429 91.429 91.429h841.143c50.286 0 91.429-41.143 91.429-91.429z" />
<glyph unicode="&#xe914;" glyph-name="minus" d="M810.667 469.334h-597.333c-25.6 0-42.667-17.067-42.667-42.667s17.067-42.667 42.667-42.667h597.333c25.6 0 42.667 17.067 42.667 42.667s-17.067 42.667-42.667 42.667z" />
<glyph unicode="&#xe915;" glyph-name="sliders" d="M170.667 469.334c25.6 0 42.667 17.067 42.667 42.667v298.667c0 25.6-17.067 42.667-42.667 42.667s-42.667-17.067-42.667-42.667v-298.667c0-25.6 17.067-42.667 42.667-42.667zM512 469.334c-25.6 0-42.667-17.067-42.667-42.667v-384c0-25.6 17.067-42.667 42.667-42.667s42.667 17.067 42.667 42.667v384c0 25.6-17.067 42.667-42.667 42.667zM853.333 384c25.6 0 42.667 17.067 42.667 42.667v384c0 25.6-17.067 42.667-42.667 42.667s-42.667-17.067-42.667-42.667v-384c0-25.6 17.067-42.667 42.667-42.667zM298.667 384h-256c-25.6 0-42.667-17.067-42.667-42.667s17.067-42.667 42.667-42.667h85.333v-256c0-25.6 17.067-42.667 42.667-42.667s42.667 17.067 42.667 42.667v256h85.333c25.6 0 42.667 17.067 42.667 42.667s-17.067 42.667-42.667 42.667zM640 640h-85.333v170.667c0 25.6-17.067 42.667-42.667 42.667s-42.667-17.067-42.667-42.667v-170.667h-85.333c-25.6 0-42.667-17.067-42.667-42.667s17.067-42.667 42.667-42.667h256c25.6 0 42.667 17.067 42.667 42.667s-17.067 42.667-42.667 42.667zM981.333 298.667h-256c-25.6 0-42.667-17.067-42.667-42.667s17.067-42.667 42.667-42.667h85.333v-170.667c0-25.6 17.067-42.667 42.667-42.667s42.667 17.067 42.667 42.667v170.667h85.333c25.6 0 42.667 17.067 42.667 42.667s-17.067 42.667-42.667 42.667z" />
<glyph unicode="&#xe916;" glyph-name="play" d="M832 460.8l-597.333 384c-12.8 8.533-29.867 8.533-42.667 0-12.8-4.267-21.333-17.067-21.333-34.133v-768c0-17.067 8.533-29.867 21.333-38.4 8.533-4.267 12.8-4.267 21.333-4.267s17.067 4.267 21.333 8.533l597.333 384c12.8 8.533 21.333 21.333 21.333 34.133s-8.533 29.867-21.333 34.133zM256 119.467v614.4l477.867-307.2-477.867-307.2z" />
<glyph unicode="&#xe917;" glyph-name="maximize-2" d="M934.4 827.734c-4.267 8.533-12.8 17.067-21.333 21.333-4.267 4.267-12.8 4.267-17.067 4.267h-256c-25.6 0-42.667-17.067-42.667-42.667s17.067-42.667 42.667-42.667h153.6l-226.133-226.133c-17.067-17.067-17.067-42.667 0-59.733 8.533-8.533 21.333-12.8 29.867-12.8s21.333 4.267 29.867 12.8l226.133 226.133v-153.6c0-25.6 17.067-42.667 42.667-42.667s42.667 17.067 42.667 42.667v256c0 4.267 0 12.8-4.267 17.067zM396.8 371.2l-226.133-226.133v153.6c0 25.6-17.067 42.667-42.667 42.667s-42.667-17.067-42.667-42.667v-256c0-4.267 0-12.8 4.267-17.067 4.267-8.533 12.8-17.067 21.333-21.333 4.267-4.267 12.8-4.267 17.067-4.267h256c25.6 0 42.667 17.067 42.667 42.667s-17.067 42.667-42.667 42.667h-153.6l226.133 226.133c17.067 17.067 17.067 42.667 0 59.733s-42.667 17.067-59.733 0z" />
<glyph unicode="&#xe918;" glyph-name="maximize" d="M341.333 85.334h-128c-25.6 0-42.667 17.067-42.667 42.667v128c0 25.6-17.067 42.667-42.667 42.667s-42.667-17.067-42.667-42.667v-128c0-72.533 55.467-128 128-128h128c25.6 0 42.667 17.067 42.667 42.667s-17.067 42.667-42.667 42.667zM341.333 853.334h-128c-72.533 0-128-55.467-128-128v-128c0-25.6 17.067-42.667 42.667-42.667s42.667 17.067 42.667 42.667v128c0 25.6 17.067 42.667 42.667 42.667h128c25.6 0 42.667 17.067 42.667 42.667s-17.067 42.667-42.667 42.667zM810.667 853.334h-128c-25.6 0-42.667-17.067-42.667-42.667s17.067-42.667 42.667-42.667h128c25.6 0 42.667-17.067 42.667-42.667v-128c0-25.6 17.067-42.667 42.667-42.667s42.667 17.067 42.667 42.667v128c0 72.533-55.467 128-128 128zM896 298.667c-25.6 0-42.667-17.067-42.667-42.667v-128c0-25.6-17.067-42.667-42.667-42.667h-128c-25.6 0-42.667-17.067-42.667-42.667s17.067-42.667 42.667-42.667h128c72.533 0 128 55.467 128 128v128c0 25.6-17.067 42.667-42.667 42.667z" />
<glyph unicode="&#xe919;" glyph-name="user" d="M682.667 341.334h-341.333c-119.467 0-213.333-93.867-213.333-213.333v-85.333c0-25.6 17.067-42.667 42.667-42.667s42.667 17.067 42.667 42.667v85.333c0 72.533 55.467 128 128 128h341.333c72.533 0 128-55.467 128-128v-85.333c0-25.6 17.067-42.667 42.667-42.667s42.667 17.067 42.667 42.667v85.333c0 119.467-93.867 213.333-213.333 213.333zM512 426.667c119.467 0 213.333 93.867 213.333 213.333s-93.867 213.333-213.333 213.333-213.333-93.867-213.333-213.333 93.867-213.333 213.333-213.333zM512 768c72.533 0 128-55.467 128-128s-55.467-128-128-128-128 55.467-128 128 55.467 128 128 128z" />
<glyph unicode="&#xe91a;" glyph-name="shopping-bag" d="M934.4 699.734c0 0 0 4.267-4.267 4.267 0 0 0 4.267-4.267 4.267l-128 170.667c-4.267 12.8-17.067 17.067-29.867 17.067h-512c-12.8 0-25.6-4.267-34.133-17.067l-128-170.667c0 0 0-4.267-4.267-4.267 0 0 0-4.267-4.267-4.267 0-8.533 0-12.8 0-17.067v-597.333c0-72.533 55.467-128 128-128h597.333c72.533 0 128 55.467 128 128v597.333c0 4.267 0 8.533-4.267 17.067zM277.333 810.667h469.333l64-85.333h-597.333l64 85.333zM810.667 42.667h-597.333c-25.6 0-42.667 17.067-42.667 42.667v554.667h682.667v-554.667c0-25.6-17.067-42.667-42.667-42.667zM682.667 554.667c-25.6 0-42.667-17.067-42.667-42.667 0-72.533-55.467-128-128-128s-128 55.467-128 128c0 25.6-17.067 42.667-42.667 42.667s-42.667-17.067-42.667-42.667c0-119.467 93.867-213.333 213.333-213.333s213.333 93.867 213.333 213.333c0 25.6-17.067 42.667-42.667 42.667z" />
<glyph unicode="&#xe91b;" glyph-name="shopping-cart" d="M469.333 42.667c0-47.128-38.205-85.333-85.333-85.333s-85.333 38.205-85.333 85.333c0 47.128 38.205 85.333 85.333 85.333s85.333-38.205 85.333-85.333zM938.667 42.667c0-47.128-38.205-85.333-85.333-85.333s-85.333 38.205-85.333 85.333c0 47.128 38.205 85.333 85.333 85.333s85.333-38.205 85.333-85.333zM1015.467 708.267c-8.533 12.8-21.333 17.067-34.133 17.067h-691.2l-34.133 179.2c-4.267 21.333-21.333 34.133-42.667 34.133h-170.667c-25.6 0-42.667-17.067-42.667-42.667s17.067-42.667 42.667-42.667h136.533l34.133-179.2c0 0 0-4.267 0-4.267l72.533-354.133c12.8-59.733 64-102.4 123.733-102.4 0 0 0 0 4.267 0h413.867c64 0 115.2 42.667 128 102.4l68.267 358.4c0 12.8 0 25.6-8.533 34.133zM870.4 332.8c-4.267-21.333-21.333-34.133-42.667-34.133h-413.867c-21.333 0-38.4 12.8-42.667 34.133l-64 307.2h622.933l-59.733-307.2z" />
<glyph unicode="&#xe91c;" glyph-name="heart-fill" d="M512 0c-9.143 0-18.286 3.429-25.143 10.286l-356.571 344c-4.571 4-130.286 118.857-130.286 256 0 167.429 102.286 267.429 273.143 267.429 100 0 193.714-78.857 238.857-123.429 45.143 44.571 138.857 123.429 238.857 123.429 170.857 0 273.143-100 273.143-267.429 0-137.143-125.714-252-130.857-257.143l-356-342.857c-6.857-6.857-16-10.286-25.143-10.286z" />
<glyph unicode="&#xe91d;" glyph-name="share" d="M853.333 469.334c-25.6 0-42.667-17.067-42.667-42.667v-341.333c0-25.6-17.067-42.667-42.667-42.667h-512c-25.6 0-42.667 17.067-42.667 42.667v341.333c0 25.6-17.067 42.667-42.667 42.667s-42.667-17.067-42.667-42.667v-341.333c0-72.533 55.467-128 128-128h512c72.533 0 128 55.467 128 128v341.333c0 25.6-17.067 42.667-42.667 42.667zM371.2 652.8l98.133 98.133v-452.267c0-25.6 17.067-42.667 42.667-42.667s42.667 17.067 42.667 42.667v452.267l98.133-98.133c8.533-8.533 17.067-12.8 29.867-12.8s21.333 4.267 29.867 12.8c17.067 17.067 17.067 42.667 0 59.733l-170.667 170.667c-4.267 4.267-8.533 8.533-12.8 8.533-8.533 4.267-21.333 4.267-34.133 0-4.267-4.267-8.533-4.267-12.8-8.533l-170.667-170.667c-17.067-17.067-17.067-42.667 0-59.733s42.667-17.067 59.733 0z" />
<glyph unicode="&#xe91e;" glyph-name="search" d="M925.867 72.534l-157.867 157.867c51.2 64 85.333 149.333 85.333 238.933 0 213.333-170.667 384-384 384s-384-170.667-384-384c0-213.333 170.667-384 384-384 89.6 0 174.933 29.867 238.933 85.333l157.867-157.867c8.533-8.533 21.333-12.8 29.867-12.8s21.333 4.267 29.867 12.8c17.067 17.067 17.067 42.667 0 59.733zM170.667 469.334c0 166.4 132.267 298.667 298.667 298.667s298.667-132.267 298.667-298.667c0-81.067-34.133-157.867-85.333-209.067 0 0 0 0 0 0s0 0 0 0c-55.467-55.467-128-85.333-209.067-85.333-170.667-4.267-302.933 128-302.933 294.4z" />
<glyph unicode="&#xe91f;" glyph-name="message-square" d="M810.667 853.334h-597.333c-72.533 0-128-55.467-128-128v-682.667c0-17.067 8.533-34.133 25.6-38.4 4.267-4.267 12.8-4.267 17.067-4.267 12.8 0 21.333 4.267 29.867 12.8l157.867 157.867h494.933c72.533 0 128 55.467 128 128v426.667c0 72.533-55.467 128-128 128zM853.333 298.667c0-25.6-17.067-42.667-42.667-42.667h-512c-12.8 0-21.333-4.267-29.867-12.8l-98.133-98.133v580.267c0 25.6 17.067 42.667 42.667 42.667h597.333c25.6 0 42.667-17.067 42.667-42.667v-426.667z" />
<glyph unicode="&#xe920;" glyph-name="plus" d="M810.667 469.334h-256v256c0 25.6-17.067 42.667-42.667 42.667s-42.667-17.067-42.667-42.667v-256h-256c-25.6 0-42.667-17.067-42.667-42.667s17.067-42.667 42.667-42.667h256v-256c0-25.6 17.067-42.667 42.667-42.667s42.667 17.067 42.667 42.667v256h256c25.6 0 42.667 17.067 42.667 42.667s-17.067 42.667-42.667 42.667z" />
<glyph unicode="&#xe921;" glyph-name="menu" d="M896 469.334h-768c-25.6 0-42.667-17.067-42.667-42.667s17.067-42.667 42.667-42.667h768c25.6 0 42.667 17.067 42.667 42.667s-17.067 42.667-42.667 42.667zM128 640h768c25.6 0 42.667 17.067 42.667 42.667s-17.067 42.667-42.667 42.667h-768c-25.6 0-42.667-17.067-42.667-42.667s17.067-42.667 42.667-42.667zM896 213.334h-768c-25.6 0-42.667-17.067-42.667-42.667s17.067-42.667 42.667-42.667h768c25.6 0 42.667 17.067 42.667 42.667s-17.067 42.667-42.667 42.667z" />
<glyph unicode="&#xe922;" glyph-name="tag" d="M908.8 516.267l-366.933 366.933c-8.533 8.533-17.067 12.8-29.867 12.8h-426.667c-25.6 0-42.667-17.067-42.667-42.667v-426.667c0-12.8 4.267-21.333 12.8-29.867l366.933-366.933c25.6-25.6 59.733-38.4 89.6-38.4 34.133 0 64 12.8 89.6 38.4l307.2 307.2c0 0 0 0 0 0 51.2 51.2 51.2 128 0 179.2zM849.067 396.8l-307.2-307.2c-17.067-17.067-42.667-17.067-59.733 0l-354.133 354.133v366.933h366.933l354.133-354.133c17.067-17.067 17.067-42.667 0-59.733zM268.8 669.867c-8.533-8.533-12.8-17.067-12.8-29.867s4.267-21.333 12.8-29.867c8.533-8.533 17.067-12.8 29.867-12.8s21.333 4.267 29.867 12.8c8.533 8.533 12.8 17.067 12.8 29.867s-4.267 21.333-12.8 29.867c-17.067 17.067-42.667 17.067-59.733 0z" />
<glyph unicode="&#xe923;" glyph-name="chevron-right" d="M669.867 456.534l-256 256c-17.067 17.067-42.667 17.067-59.733 0s-17.067-42.667 0-59.733l226.133-226.133-226.133-226.133c-17.067-17.067-17.067-42.667 0-59.733 8.533-8.533 17.067-12.8 29.867-12.8s21.333 4.267 29.867 12.8l256 256c17.067 17.067 17.067 42.667 0 59.733z" />
<glyph unicode="&#xe924;" glyph-name="chevron-left" d="M443.733 426.667l226.133 226.133c17.067 17.067 17.067 42.667 0 59.733s-42.667 17.067-59.733 0l-256-256c-17.067-17.067-17.067-42.667 0-59.733l256-256c8.533-8.533 21.333-12.8 29.867-12.8s21.333 4.267 29.867 12.8c17.067 17.067 17.067 42.667 0 59.733l-226.133 226.133z" />
<glyph unicode="&#xe925;" glyph-name="chevron-down" d="M797.867 584.534c-17.067 17.067-42.667 17.067-59.733 0l-226.133-226.133-226.133 226.133c-17.067 17.067-42.667 17.067-59.733 0s-17.067-42.667 0-59.733l256-256c8.533-8.533 21.333-12.8 29.867-12.8s21.333 4.267 29.867 12.8l256 256c17.067 17.067 17.067 42.667 0 59.733z" />
<glyph unicode="&#xe926;" glyph-name="chevron-up" d="M797.867 328.534l-256 256c-17.067 17.067-42.667 17.067-59.733 0l-256-256c-17.067-17.067-17.067-42.667 0-59.733s42.667-17.067 59.733 0l226.133 226.133 226.133-226.133c8.533-8.533 21.333-12.8 29.867-12.8s21.333 4.267 29.867 12.8c17.067 17.067 17.067 42.667 0 59.733z" />
<glyph unicode="&#xe927;" glyph-name="x-circle" d="M512 896c-260.267 0-469.333-209.067-469.333-469.333s209.067-469.333 469.333-469.333 469.333 209.067 469.333 469.333-209.067 469.333-469.333 469.333zM512 42.667c-213.333 0-384 170.667-384 384s170.667 384 384 384c213.333 0 384-170.667 384-384s-170.667-384-384-384zM669.867 584.534c-17.067 17.067-42.667 17.067-59.733 0l-98.133-98.133-98.133 98.133c-17.067 17.067-42.667 17.067-59.733 0s-17.067-42.667 0-59.733l98.133-98.133-98.133-98.133c-17.067-17.067-17.067-42.667 0-59.733 8.533-8.533 17.067-12.8 29.867-12.8s21.333 4.267 29.867 12.8l98.133 98.133 98.133-98.133c8.533-8.533 21.333-12.8 29.867-12.8s21.333 4.267 29.867 12.8c17.067 17.067 17.067 42.667 0 59.733l-98.133 98.133 98.133 98.133c17.067 17.067 17.067 42.667 0 59.733z" />
<glyph unicode="&#xe928;" glyph-name="x-close" d="M571.733 426.667l226.133 226.133c17.067 17.067 17.067 42.667 0 59.733s-42.667 17.067-59.733 0l-226.133-226.133-226.133 226.133c-17.067 17.067-42.667 17.067-59.733 0s-17.067-42.667 0-59.733l226.133-226.133-226.133-226.133c-17.067-17.067-17.067-42.667 0-59.733 8.533-8.533 17.067-12.8 29.867-12.8s21.333 4.267 29.867 12.8l226.133 226.133 226.133-226.133c8.533-8.533 21.333-12.8 29.867-12.8s21.333 4.267 29.867 12.8c17.067 17.067 17.067 42.667 0 59.733l-226.133 226.133z" />
<glyph unicode="&#xe929;" glyph-name="alert-triangle" d="M981.333 192l-358.4 605.867c-17.067 29.867-46.933 51.2-81.067 59.733s-68.267 4.267-98.133-12.8c-17.067-8.533-34.133-25.6-42.667-42.667 0 0 0 0 0 0l-358.4-610.133c-34.133-59.733-12.8-140.8 46.933-174.933 17.067-12.8 38.4-17.067 59.733-17.067h725.333c34.133 0 68.267 12.8 89.6 38.4 25.6 25.6 38.4 55.467 38.4 89.6-4.267 21.333-8.533 46.933-21.333 64zM904.533 98.134c-8.533-8.533-21.333-12.8-29.867-12.8h-725.333c-8.533 0-12.8 0-21.333 4.267-21.333 12.8-25.6 38.4-17.067 59.733l362.667 601.6c4.267 4.267 8.533 12.8 12.8 12.8 21.333 12.8 46.933 4.267 59.733-12.8l362.667-601.6c4.267-4.267 4.267-12.8 4.267-21.333 4.267-12.8-4.267-21.333-8.533-29.867zM512 597.334c-25.6 0-42.667-17.067-42.667-42.667v-170.667c0-25.6 17.067-42.667 42.667-42.667s42.667 17.067 42.667 42.667v170.667c0 25.6-17.067 42.667-42.667 42.667zM482.133 243.2c-8.533-8.533-12.8-17.067-12.8-29.867s4.267-21.333 12.8-29.867c8.533-8.533 17.067-12.8 29.867-12.8s21.333 4.267 29.867 12.8c8.533 8.533 12.8 21.333 12.8 29.867s-4.267 21.333-12.8 29.867c-17.067 17.067-42.667 17.067-59.733 0z" />
<glyph unicode="&#xe92a;" glyph-name="help-circle" d="M512 896c-260.267 0-469.333-209.067-469.333-469.333s209.067-469.333 469.333-469.333 469.333 209.067 469.333 469.333-209.067 469.333-469.333 469.333zM512 42.667c-213.333 0-384 170.667-384 384s170.667 384 384 384c213.333 0 384-170.667 384-384s-170.667-384-384-384zM563.2 674.134c-89.6 29.867-187.733-17.067-217.6-102.4-4.267-25.6 4.267-51.2 29.867-55.467 21.333-8.533 46.933 4.267 55.467 25.6 17.067 42.667 64 68.267 110.933 51.2 34.133-12.8 55.467-42.667 55.467-81.067 0-42.667-72.533-76.8-98.133-89.6-21.333-8.533-34.133-29.867-25.6-55.467 4.267-17.067 21.333-29.867 38.4-29.867 4.267 0 8.533 0 12.8 4.267 17.067 4.267 157.867 55.467 157.867 166.4-4.267 76.8-51.2 140.8-119.467 166.4zM482.133 243.2c-8.533-8.533-12.8-17.067-12.8-29.867s4.267-21.333 12.8-29.867c8.533-8.533 17.067-12.8 29.867-12.8s21.333 4.267 29.867 12.8c8.533 8.533 12.8 21.333 12.8 29.867s-4.267 21.333-12.8 29.867c-17.067 17.067-42.667 17.067-59.733 0z" />
<glyph unicode="&#xe92b;" glyph-name="alert-circle" d="M512 896c-260.267 0-469.333-209.067-469.333-469.333s209.067-469.333 469.333-469.333 469.333 209.067 469.333 469.333-209.067 469.333-469.333 469.333zM512 42.667c-213.333 0-384 170.667-384 384s170.667 384 384 384c213.333 0 384-170.667 384-384s-170.667-384-384-384zM512 640c-25.6 0-42.667-17.067-42.667-42.667v-170.667c0-25.6 17.067-42.667 42.667-42.667s42.667 17.067 42.667 42.667v170.667c0 25.6-17.067 42.667-42.667 42.667zM482.133 285.867c-8.533-8.533-12.8-17.067-12.8-29.867s4.267-21.333 12.8-29.867c8.533-8.533 17.067-12.8 29.867-12.8s21.333 4.267 29.867 12.8c8.533 8.533 12.8 21.333 12.8 29.867s-4.267 21.333-12.8 29.867c-17.067 17.067-42.667 17.067-59.733 0z" />
<glyph unicode="&#xe92c;" glyph-name="check" d="M883.2 712.534c-17.067 17.067-42.667 17.067-59.733 0l-439.467-439.467-183.467 183.467c-17.067 17.067-42.667 17.067-59.733 0s-17.067-42.667 0-59.733l213.333-213.333c8.533-8.533 17.067-12.8 29.867-12.8s21.333 4.267 29.867 12.8l469.333 469.333c17.067 17.067 17.067 42.667 0 59.733z" />
<glyph unicode="&#xe92d;" glyph-name="map-pin" d="M512 938.667c-234.667 0-426.667-192-426.667-426.667 0-315.733 388.267-580.267 401.067-588.8 8.533-4.267 17.067-8.533 25.6-8.533s17.067 4.267 25.6 8.533c12.8 8.533 401.067 273.067 401.067 588.8 0 234.667-192 426.667-426.667 426.667zM512 8.534c-81.067 59.733-341.333 273.067-341.333 503.467 0 187.733 153.6 341.333 341.333 341.333s341.333-153.6 341.333-341.333c0-230.4-260.267-443.733-341.333-503.467zM512 682.667c-93.867 0-170.667-76.8-170.667-170.667s76.8-170.667 170.667-170.667c93.867 0 170.667 76.8 170.667 170.667s-76.8 170.667-170.667 170.667zM512 426.667c-46.933 0-85.333 38.4-85.333 85.333s38.4 85.333 85.333 85.333c46.933 0 85.333-38.4 85.333-85.333s-38.4-85.333-85.333-85.333z" />
<glyph unicode="&#xe92e;" glyph-name="star" d="M512 202.667l-264-160 70 300-232 202 306 26 120 282 120-282 306-26-232-202 70-300z" />
<glyph unicode="&#xe92f;" glyph-name="download" d="M853.333 298.667v-170.667c0-11.776-4.736-22.4-12.501-30.165s-18.389-12.501-30.165-12.501h-597.333c-11.776 0-22.4 4.736-30.165 12.501s-12.501 18.389-12.501 30.165v170.667c0 23.552-19.115 42.667-42.667 42.667s-42.667-19.115-42.667-42.667v-170.667c0-35.328 14.379-67.413 37.504-90.496s55.168-37.504 90.496-37.504h597.333c35.328 0 67.413 14.379 90.496 37.504s37.504 55.168 37.504 90.496v170.667c0 23.552-19.115 42.667-42.667 42.667s-42.667-19.115-42.667-42.667zM554.667 401.664v409.003c0 23.552-19.115 42.667-42.667 42.667s-42.667-19.115-42.667-42.667v-409.003l-140.501 140.501c-16.683 16.683-43.691 16.683-60.331 0s-16.683-43.691 0-60.331l213.333-213.333c3.925-3.925 8.619-7.083 13.824-9.259s10.795-3.243 16.341-3.243c10.923 0 21.845 4.181 30.165 12.501l213.333 213.333c16.683 16.683 16.683 43.691 0 60.331s-43.691 16.683-60.331 0z" />
<glyph unicode="&#xe930;" glyph-name="refresh-cw" d="M189.995 540.416c31.445 88.875 95.872 156.544 174.763 194.219s172.032 45.184 260.864 13.739c50.603-17.92 94.123-46.421 127.275-80.213l120.747-113.493h-148.309c-23.552 0-42.667-19.115-42.667-42.667s19.115-42.667 42.667-42.667h255.872c0.213 0 0.384 0 0.597 0 5.845 0.043 11.435 1.323 16.469 3.499 5.077 2.176 9.771 5.376 13.824 9.6 0.512 0.555 1.024 1.109 1.536 1.664 3.2 3.712 5.675 7.808 7.381 12.16s2.731 9.003 2.944 13.909c0.043 0.64 0.043 1.237 0.043 1.835v256c0 23.552-19.115 42.667-42.667 42.667s-42.667-19.115-42.667-42.667v-157.397l-124.843 117.291c-42.325 43.093-96.896 78.635-159.701 100.864-111.061 39.296-227.627 29.824-326.101-17.152s-179.157-131.669-218.453-242.731c-7.893-22.187 3.755-46.549 25.941-54.443s46.592 3.755 54.443 25.984zM85.333 242.688l126.080-118.485c82.304-82.389 191.573-124.075 300.715-124.117s218.411 41.6 301.739 124.885c47.104 47.104 81.109 102.699 100.736 159.787 7.68 22.272-4.181 46.549-26.496 54.229s-46.549-4.181-54.229-26.496c-15.403-44.8-42.368-89.216-80.341-127.189-66.688-66.645-153.984-99.925-241.365-99.925s-174.677 33.365-242.304 100.949l-119.467 112.341h148.267c23.552 0 42.667 19.115 42.667 42.667s-19.115 42.667-42.667 42.667h-255.872c-0.213 0-0.384 0-0.597 0-5.845-0.043-11.435-1.323-16.469-3.499-5.077-2.176-9.771-5.376-13.824-9.6-0.512-0.555-1.024-1.109-1.536-1.664-3.2-3.712-5.675-7.808-7.381-12.16s-2.731-9.003-2.944-13.909c-0.043-0.64-0.043-1.237-0.043-1.835v-256c0-23.552 19.115-42.667 42.667-42.667s42.667 19.115 42.667 42.667z" />
<glyph unicode="&#xe931;" glyph-name="zoom-out" d="M684.416 262.144c-1.451-1.109-2.859-2.347-4.224-3.712s-2.56-2.731-3.712-4.224c-53.675-51.755-126.677-83.541-207.147-83.541-82.475 0-157.099 33.365-211.2 87.467s-87.467 128.725-87.467 211.2 33.365 157.099 87.467 211.2 128.725 87.467 211.2 87.467 157.099-33.365 211.2-87.467 87.467-128.725 87.467-211.2c0-80.469-31.787-153.472-83.584-207.189zM926.165 72.832l-156.8 156.8c52.523 65.707 83.968 149.035 83.968 239.701 0 106.027-43.008 202.069-112.469 271.531s-165.504 112.469-271.531 112.469-202.069-43.008-271.531-112.469-112.469-165.504-112.469-271.531 43.008-202.069 112.469-271.531 165.504-112.469 271.531-112.469c90.667 0 173.995 31.445 239.701 83.968l156.8-156.8c16.683-16.683 43.691-16.683 60.331 0s16.683 43.691 0 60.331zM341.333 426.667h256c23.552 0 42.667 19.115 42.667 42.667s-19.115 42.667-42.667 42.667h-256c-23.552 0-42.667-19.115-42.667-42.667s19.115-42.667 42.667-42.667z" />
<glyph unicode="&#xe932;" glyph-name="arrow-right" d="M481.835 695.168l225.835-225.835h-494.336c-23.552 0-42.667-19.115-42.667-42.667s19.115-42.667 42.667-42.667h494.336l-225.835-225.835c-16.683-16.683-16.683-43.691 0-60.331s43.691-16.683 60.331 0l298.667 298.667c3.925 3.925 7.083 8.619 9.259 13.824 4.309 10.453 4.309 22.229 0 32.683-2.091 5.035-5.163 9.728-9.259 13.824l-298.667 298.667c-16.683 16.683-43.691 16.683-60.331 0s-16.683-43.691 0-60.331z" />
<glyph unicode="&#xe933;" glyph-name="arrow-left" d="M542.165 158.166l-225.835 225.835h494.336c23.552 0 42.667 19.115 42.667 42.667s-19.115 42.667-42.667 42.667h-494.336l225.835 225.835c16.683 16.683 16.683 43.691 0 60.331s-43.691 16.683-60.331 0l-298.667-298.667c-4.096-4.096-7.168-8.789-9.259-13.824-2.176-5.205-3.243-10.795-3.243-16.341 0-10.923 4.181-21.845 12.501-30.165l298.667-298.667c16.683-16.683 43.691-16.683 60.331 0s16.683 43.691 0 60.331z" />
<glyph unicode="&#xe934;" glyph-name="arrow-down" d="M780.501 456.832l-225.835-225.835v494.336c0 23.552-19.115 42.667-42.667 42.667s-42.667-19.115-42.667-42.667v-494.336l-225.835 225.835c-16.683 16.683-43.691 16.683-60.331 0s-16.683-43.691 0-60.331l298.667-298.667c3.925-3.925 8.619-7.083 13.824-9.259 10.453-4.309 22.229-4.309 32.683 0 5.035 2.091 9.728 5.163 13.824 9.259l298.667 298.667c16.683 16.683 16.683 43.691 0 60.331s-43.691 16.683-60.331 0z" />
<glyph unicode="&#xe935;" glyph-name="arrow-up" d="M243.499 396.502l225.835 225.835v-494.336c0-23.552 19.115-42.667 42.667-42.667s42.667 19.115 42.667 42.667v494.336l225.835-225.835c16.683-16.683 43.691-16.683 60.331 0s16.683 43.691 0 60.331l-298.667 298.667c-3.925 3.925-8.619 7.083-13.824 9.259s-10.795 3.243-16.341 3.243c-10.923 0-21.845-4.181-30.165-12.501l-298.667-298.667c-16.683-16.683-16.683-43.691 0-60.331s43.691-16.683 60.331 0z" />
<glyph unicode="&#xe936;" glyph-name="log-out" d="M384 85.334h-170.667c-11.776 0-22.4 4.736-30.165 12.501s-12.501 18.389-12.501 30.165v597.333c0 11.776 4.736 22.4 12.501 30.165s18.389 12.501 30.165 12.501h170.667c23.552 0 42.667 19.115 42.667 42.667s-19.115 42.667-42.667 42.667h-170.667c-35.328 0-67.413-14.379-90.496-37.504s-37.504-55.168-37.504-90.496v-597.333c0-35.328 14.379-67.413 37.504-90.496s55.168-37.504 90.496-37.504h170.667c23.552 0 42.667 19.115 42.667 42.667s-19.115 42.667-42.667 42.667zM793.003 469.334h-409.003c-23.552 0-42.667-19.115-42.667-42.667s19.115-42.667 42.667-42.667h409.003l-140.501-140.501c-16.683-16.683-16.683-43.691 0-60.331s43.691-16.683 60.331 0l213.333 213.333c3.925 3.925 7.083 8.619 9.259 13.824 6.4 15.445 3.328 33.92-9.259 46.507l-213.333 213.333c-16.683 16.683-43.691 16.683-60.331 0s-16.683-43.691 0-60.331z" />
<glyph unicode="&#xe937;" glyph-name="log-in" d="M640 768h170.667c11.776 0 22.4-4.736 30.165-12.501s12.501-18.389 12.501-30.165v-597.333c0-11.776-4.736-22.4-12.501-30.165s-18.389-12.501-30.165-12.501h-170.667c-23.552 0-42.667-19.115-42.667-42.667s19.115-42.667 42.667-42.667h170.667c35.328 0 67.413 14.379 90.496 37.504s37.504 55.168 37.504 90.496v597.333c0 35.328-14.379 67.413-37.504 90.496s-55.168 37.504-90.496 37.504h-170.667c-23.552 0-42.667-19.115-42.667-42.667s19.115-42.667 42.667-42.667zM537.003 469.334h-409.003c-23.552 0-42.667-19.115-42.667-42.667s19.115-42.667 42.667-42.667h409.003l-140.501-140.501c-16.683-16.683-16.683-43.691 0-60.331s43.691-16.683 60.331 0l213.333 213.333c4.096 4.096 7.168 8.789 9.259 13.824s3.243 10.539 3.243 16.341c0 5.547-1.067 11.136-3.243 16.341-2.091 5.035-5.163 9.728-9.259 13.824l-213.333 213.333c-16.683 16.683-43.691 16.683-60.331 0s-16.683-43.691 0-60.331z" />
<glyph unicode="&#xe938;" glyph-name="gift" d="M469.333 384v-341.333h-256v341.333zM554.667 42.667v341.333h256v-341.333zM320 682.667c-17.664 0-33.621 7.125-45.269 18.731s-18.731 27.605-18.731 45.269 7.125 33.621 18.731 45.269 27.605 18.731 45.269 18.731c26.837 0 48.725-9.515 67.584-25.003 16.043-13.141 29.909-30.677 41.643-50.219 10.283-17.109 18.475-35.029 24.747-51.328zM569.429 682.667c6.869 17.749 15.061 35.669 25.301 52.779 11.733 19.584 25.643 37.077 41.643 50.219 18.901 15.488 40.789 25.003 67.627 25.003 17.664 0 33.621-7.125 45.269-18.731s18.731-27.605 18.731-45.269-7.125-33.621-18.731-45.269-27.605-18.731-45.269-18.731zM469.333 597.334v-128h-341.333v128h192zM838.955 682.667c9.216 19.413 14.379 41.088 14.379 64 0 41.216-16.768 78.635-43.733 105.6s-64.384 43.733-105.6 43.733c-49.493 0-89.984-18.347-121.685-44.331-25.728-21.077-45.568-47.061-60.715-72.277-3.413-5.675-6.613-11.349-9.6-16.981-2.987 5.632-6.187 11.307-9.6 16.981-15.147 25.216-34.987 51.2-60.715 72.277-31.701 25.984-72.192 44.331-121.685 44.331-41.216 0-78.635-16.768-105.6-43.733s-43.733-64.384-43.733-105.6c0-22.912 5.163-44.587 14.379-64h-99.712c-23.552 0-42.667-19.115-42.667-42.667v-213.333c0-23.552 19.115-42.667 42.667-42.667h42.667v-384c0-23.552 19.115-42.667 42.667-42.667h682.667c23.552 0 42.667 19.115 42.667 42.667v384h42.667c23.552 0 42.667 19.115 42.667 42.667v213.333c0 23.552-19.115 42.667-42.667 42.667zM554.667 597.334h341.333v-128h-341.333z" />
<glyph unicode="&#xe939;" glyph-name="zoom-in" d="M684.416 262.144c-1.451-1.109-2.859-2.347-4.224-3.712s-2.56-2.731-3.712-4.224c-53.675-51.755-126.677-83.541-207.147-83.541-82.475 0-157.099 33.365-211.2 87.467s-87.467 128.725-87.467 211.2 33.365 157.099 87.467 211.2 128.725 87.467 211.2 87.467 157.099-33.365 211.2-87.467 87.467-128.725 87.467-211.2c0-80.469-31.787-153.472-83.584-207.189zM926.165 72.832l-156.8 156.8c52.523 65.707 83.968 149.035 83.968 239.701 0 106.027-43.008 202.069-112.469 271.531s-165.504 112.469-271.531 112.469-202.069-43.008-271.531-112.469-112.469-165.504-112.469-271.531 43.008-202.069 112.469-271.531 165.504-112.469 271.531-112.469c90.667 0 173.995 31.445 239.701 83.968l156.8-156.8c16.683-16.683 43.691-16.683 60.331 0s16.683 43.691 0 60.331zM341.333 426.667h85.333v-85.333c0-23.552 19.115-42.667 42.667-42.667s42.667 19.115 42.667 42.667v85.333h85.333c23.552 0 42.667 19.115 42.667 42.667s-19.115 42.667-42.667 42.667h-85.333v85.333c0 23.552-19.115 42.667-42.667 42.667s-42.667-19.115-42.667-42.667v-85.333h-85.333c-23.552 0-42.667-19.115-42.667-42.667s19.115-42.667 42.667-42.667z" />
<glyph unicode="&#xe93a;" glyph-name="clock" d="M981.333 426.667c0 129.579-52.565 246.997-137.472 331.861s-202.283 137.472-331.861 137.472-246.997-52.565-331.861-137.472-137.472-202.283-137.472-331.861 52.565-246.997 137.472-331.861 202.283-137.472 331.861-137.472 246.997 52.565 331.861 137.472 137.472 202.283 137.472 331.861zM896 426.667c0-106.069-42.923-201.984-112.469-271.531s-165.461-112.469-271.531-112.469-201.984 42.923-271.531 112.469-112.469 165.461-112.469 271.531 42.923 201.984 112.469 271.531 165.461 112.469 271.531 112.469 201.984-42.923 271.531-112.469 112.469-165.461 112.469-271.531zM469.333 682.667v-256c0-16.597 9.472-31.019 23.595-38.144l170.667-85.333c21.077-10.539 46.72-2.005 57.259 19.072s2.005 46.72-19.072 57.259l-147.115 73.515v229.632c0 23.552-19.115 42.667-42.667 42.667s-42.667-19.115-42.667-42.667z" />
<glyph unicode="&#xe93b;" glyph-name="calendar" d="M298.667 853.334v-42.667h-85.333c-35.328 0-67.413-14.379-90.496-37.504s-37.504-55.168-37.504-90.496v-597.333c0-35.328 14.379-67.413 37.504-90.496s55.168-37.504 90.496-37.504h597.333c35.328 0 67.413 14.379 90.496 37.504s37.504 55.168 37.504 90.496v597.333c0 35.328-14.379 67.413-37.504 90.496s-55.168 37.504-90.496 37.504h-85.333v42.667c0 23.552-19.115 42.667-42.667 42.667s-42.667-19.115-42.667-42.667v-42.667h-256v42.667c0 23.552-19.115 42.667-42.667 42.667s-42.667-19.115-42.667-42.667zM853.333 554.667h-682.667v128c0 11.776 4.736 22.4 12.501 30.165s18.389 12.501 30.165 12.501h85.333v-42.667c0-23.552 19.115-42.667 42.667-42.667s42.667 19.115 42.667 42.667v42.667h256v-42.667c0-23.552 19.115-42.667 42.667-42.667s42.667 19.115 42.667 42.667v42.667h85.333c11.776 0 22.4-4.736 30.165-12.501s12.501-18.389 12.501-30.165zM170.667 469.334h682.667v-384c0-11.776-4.736-22.4-12.501-30.165s-18.389-12.501-30.165-12.501h-597.333c-11.776 0-22.4 4.736-30.165 12.501s-12.501 18.389-12.501 30.165z" />
<glyph unicode="&#xe93c;" glyph-name="link" d="M392.491 358.443c42.325-56.619 103.68-90.709 168.448-100.053s133.248 6.059 189.867 48.384c10.197 7.637 19.84 16 27.947 24.235l127.787 127.787c49.621 51.371 73.472 117.376 72.363 182.827s-27.264 130.603-78.123 179.669c-50.005 48.299-114.688 72.192-179.157 71.808-63.659-0.341-127.317-24.363-176.512-71.808l-73.856-73.429c-16.725-16.597-16.811-43.648-0.171-60.331s43.648-16.811 60.331-0.171l72.917 72.491c32.853 31.659 75.221 47.659 117.76 47.915 43.051 0.256 86.016-15.659 119.381-47.872 33.92-32.768 51.328-76.075 52.096-119.808s-15.147-87.637-47.36-121.003l-128.213-128.213c-4.864-4.949-11.221-10.539-18.261-15.787-37.76-28.245-83.285-38.485-126.592-32.256s-84.096 28.928-112.299 66.688c-14.123 18.859-40.832 22.741-59.733 8.619s-22.741-40.832-8.619-59.733zM631.509 494.891c-42.325 56.619-103.68 90.709-168.448 100.053s-133.291-6.059-189.909-48.384c-10.197-7.637-19.797-16-27.947-24.235l-127.787-127.787c-49.621-51.371-73.472-117.376-72.363-182.827s27.264-130.603 78.123-179.669c50.005-48.299 114.688-72.192 179.157-71.808 63.659 0.341 127.317 24.363 176.512 71.808l73.515 73.515c16.683 16.683 16.683 43.691 0 60.331s-43.691 16.683-60.331 0l-72.363-72.448c-32.853-31.659-75.221-47.659-117.76-47.915-43.051-0.256-86.016 15.659-119.381 47.872-33.92 32.768-51.328 76.075-52.096 119.808s15.147 87.637 47.36 121.003l128.213 128.213c4.864 4.949 11.221 10.539 18.261 15.787 37.76 28.245 83.285 38.485 126.592 32.256s84.096-28.928 112.299-66.688c14.123-18.859 40.832-22.741 59.733-8.619s22.741 40.832 8.619 59.733z" />
<glyph unicode="&#xe93d;" glyph-name="trash" d="M768 640v-554.667c0-11.776-4.736-22.4-12.501-30.165s-18.389-12.501-30.165-12.501h-426.667c-11.776 0-22.4 4.736-30.165 12.501s-12.501 18.389-12.501 30.165v554.667zM725.333 725.334v42.667c0 35.328-14.379 67.413-37.504 90.496s-55.168 37.504-90.496 37.504h-170.667c-35.328 0-67.413-14.379-90.496-37.504s-37.504-55.168-37.504-90.496v-42.667h-170.667c-23.552 0-42.667-19.115-42.667-42.667s19.115-42.667 42.667-42.667h42.667v-554.667c0-35.328 14.379-67.413 37.504-90.496s55.168-37.504 90.496-37.504h426.667c35.328 0 67.413 14.379 90.496 37.504s37.504 55.168 37.504 90.496v554.667h42.667c23.552 0 42.667 19.115 42.667 42.667s-19.115 42.667-42.667 42.667zM384 725.334v42.667c0 11.776 4.736 22.4 12.501 30.165s18.389 12.501 30.165 12.501h170.667c11.776 0 22.4-4.736 30.165-12.501s12.501-18.389 12.501-30.165v-42.667z" />
<glyph unicode="&#xe93e;" glyph-name="credit-card" d="M128 810.667c-35.328 0-67.413-14.379-90.496-37.504s-37.504-55.168-37.504-90.496v-512c0-35.328 14.379-67.413 37.504-90.496s55.168-37.504 90.496-37.504h768c35.328 0 67.413 14.379 90.496 37.504s37.504 55.168 37.504 90.496v512c0 35.328-14.379 67.413-37.504 90.496s-55.168 37.504-90.496 37.504zM938.667 554.667h-853.333v128c0 11.776 4.736 22.4 12.501 30.165s18.389 12.501 30.165 12.501h768c11.776 0 22.4-4.736 30.165-12.501s12.501-18.389 12.501-30.165zM85.333 469.334h853.333v-298.667c0-11.776-4.736-22.4-12.501-30.165s-18.389-12.501-30.165-12.501h-768c-11.776 0-22.4 4.736-30.165 12.501s-12.501 18.389-12.501 30.165z" />
<glyph unicode="&#xe93f;" glyph-name="package" d="M618.965 537.387l-106.965-61.867-297.003 171.819 107.136 61.227zM809.003 647.339l-104.789-60.629-296.277 170.88 82.517 47.147c4.779 2.731 9.899 4.48 15.147 5.291 9.301 1.451 18.987-0.128 27.904-5.291zM491.776-41.002c6.016-3.243 12.928-5.077 20.224-5.077 7.381 0 14.336 1.877 20.395 5.163 15.189 2.475 29.909 7.68 43.392 15.36l298.709 170.709c26.368 15.232 45.227 38.272 55.424 64.597 5.675 14.592 8.619 30.165 8.747 46.251v341.333c0 20.395-4.821 39.723-13.397 56.917-0.939 3.029-2.219 5.973-3.883 8.832-1.963 3.371-4.267 6.357-6.912 8.96-1.323 1.835-2.731 3.669-4.139 5.419-9.813 12.203-21.845 22.528-35.456 30.507l-299.051 170.88c-26.027 15.019-55.467 19.84-83.371 15.531-15.488-2.432-30.507-7.637-44.245-15.488l-136.491-77.995c-8.96-1.749-17.323-6.4-23.595-13.483l-138.624-79.232c-16.341-9.429-29.824-21.888-40.149-36.267-2.56-2.56-4.864-5.547-6.784-8.832-1.664-2.901-2.987-5.888-3.925-8.96-1.707-3.413-3.243-6.955-4.608-10.496-5.632-14.635-8.576-30.208-8.704-45.995v-341.632c0.043-30.293 10.581-58.155 28.331-80.128 9.813-12.203 21.845-22.528 35.456-30.507l299.051-170.88c13.824-7.979 28.587-13.099 43.605-15.445zM469.333 401.622v-340.949l-277.12 158.336c-4.736 2.773-8.832 6.315-12.16 10.453-5.931 7.339-9.387 16.469-9.387 26.539v318.379zM554.667 60.672v340.949l298.667 172.757v-318.379c-0.043-5.163-1.067-10.496-2.987-15.445-3.413-8.789-9.6-16.384-18.176-21.333z" />
<glyph unicode="&#xe940;" glyph-name="bookmark" d="M785.877 7.936c6.869-4.949 15.488-7.936 24.789-7.936 23.552 0 42.667 19.115 42.667 42.667v682.667c0 35.328-14.379 67.413-37.504 90.496s-55.168 37.504-90.496 37.504h-426.667c-35.328 0-67.413-14.379-90.496-37.504s-37.504-55.168-37.504-90.496v-682.667c-0.043-8.491 2.56-17.237 7.936-24.789 13.696-19.157 40.363-23.637 59.52-9.899l273.877 195.584zM768 125.568l-231.211 165.163c-15.147 10.837-34.944 10.325-49.579 0l-231.211-165.163v599.765c0 11.776 4.736 22.4 12.501 30.165s18.389 12.501 30.165 12.501h426.667c11.776 0 22.4-4.736 30.165-12.501s12.501-18.389 12.501-30.165z" />
<glyph unicode="&#xe941;" glyph-name="grid-small" d="M854 596.667v172h-172v-172h172zM854 340.667v172h-172v-172h172zM854 84.667v172h-172v-172h172zM598 596.667v172h-172v-172h172zM598 340.667v172h-172v-172h172zM598 84.667v172h-172v-172h172zM342 596.667v172h-172v-172h172zM342 340.667v172h-172v-172h172zM342 84.667v172h-172v-172h172zM854 852.667q34 0 59-25t25-59v-684q0-34-25-59t-59-25h-684q-34 0-59 25t-25 59v684q0 34 25 59t59 25h684z" />
<glyph unicode="&#xe942;" glyph-name="sort" d="M128 384.667v84h512v-84h-512zM128 682.667h768v-86h-768v86zM128 170.667v86h256v-86h-256z" />
<glyph unicode="&#xe943;" glyph-name="telegram" d="M679.429 204l84 396c7.429 34.857-12.571 48.571-35.429 40l-493.714-190.286c-33.714-13.143-33.143-32-5.714-40.571l126.286-39.429 293.143 184.571c13.714 9.143 26.286 4 16-5.143l-237.143-214.286-9.143-130.286c13.143 0 18.857 5.714 25.714 12.571l61.714 59.429 128-94.286c23.429-13.143 40-6.286 46.286 21.714zM1024 438.857c0-282.857-229.143-512-512-512s-512 229.143-512 512 229.143 512 512 512 512-229.143 512-512z" />
<glyph unicode="&#xe944;" glyph-name="tiktok" d="M534.613 959.147c55.893 0.853 111.36 0.427 166.827 0.853 3.413-65.28 26.88-131.84 74.667-177.92 47.787-47.36 115.2-69.12 180.907-76.373v-171.947c-61.44 2.133-123.307 14.933-179.2 41.387-24.32 11.093-46.933 25.173-69.12 39.68-0.427-124.587 0.427-249.173-0.853-373.333-3.413-59.733-23.040-119.040-57.6-168.107-55.893-81.92-152.747-135.253-252.16-136.96-61.013-3.413-122.027 13.227-174.080 43.947-86.187 50.773-146.773 143.787-155.733 243.627-0.853 21.333-1.28 42.667-0.427 63.573 7.68 81.067 47.787 158.72 110.080 211.627 70.827 61.44 169.813 90.88 262.4 73.387 0.853-63.147-1.707-126.293-1.707-189.44-42.24 13.653-91.733 9.813-128.853-15.787-26.88-17.493-47.36-44.373-58.027-74.667-8.96-21.76-6.4-45.653-5.973-68.693 10.24-69.973 77.653-128.853 149.333-122.453 47.787 0.427 93.44 28.16 118.187 68.693 8.107 14.080 17.067 28.587 17.493 45.227 4.267 76.373 2.56 152.32 2.987 228.693 0.427 171.947-0.427 343.467 0.853 514.987z" />
<glyph unicode="&#xe945;" glyph-name="phone" horiz-adv-x="805" d="M804.571 242.286c0-20.571-9.143-60.571-17.714-79.429-12-28-44-46.286-69.714-60.571-33.714-18.286-68-29.143-106.286-29.143-53.143 0-101.143 21.714-149.714 39.429-34.857 12.571-68.571 28-100 47.429-97.143 60-214.286 177.143-274.286 274.286-19.429 31.429-34.857 65.143-47.429 100-17.714 48.571-39.429 96.571-39.429 149.714 0 38.286 10.857 72.571 29.143 106.286 14.286 25.714 32.571 57.714 60.571 69.714 18.857 8.571 58.857 17.714 79.429 17.714 4 0 8 0 12-1.714 12-4 24.571-32 30.286-43.429 18.286-32.571 36-65.714 54.857-97.714 9.143-14.857 26.286-33.143 26.286-50.857 0-34.857-103.429-85.714-103.429-116.571 0-15.429 14.286-35.429 22.286-49.143 57.714-104 129.714-176 233.714-233.714 13.714-8 33.714-22.286 49.143-22.286 30.857 0 81.714 103.429 116.571 103.429 17.714 0 36-17.143 50.857-26.286 32-18.857 65.143-36.571 97.714-54.857 11.429-5.714 39.429-18.286 43.429-30.286 1.714-4 1.714-8 1.714-12z" />
<glyph unicode="&#xe946;" glyph-name="heart" d="M950.857 610.286c0 160.571-108.571 194.286-200 194.286-85.143 0-181.143-92-210.857-127.429-13.714-16.571-42.286-16.571-56 0-29.714 35.429-125.714 127.429-210.857 127.429-91.429 0-200-33.714-200-194.286 0-104.571 105.714-201.714 106.857-202.857l332-320 331.429 319.429c1.714 1.714 107.429 98.857 107.429 203.429zM1024 610.286c0-137.143-125.714-252-130.857-257.143l-356-342.857c-6.857-6.857-16-10.286-25.143-10.286s-18.286 3.429-25.143 10.286l-356.571 344c-4.571 4-130.286 118.857-130.286 256 0 167.429 102.286 267.429 273.143 267.429 100 0 193.714-78.857 238.857-123.429 45.143 44.571 138.857 123.429 238.857 123.429 170.857 0 273.143-100 273.143-267.429z" />
<glyph unicode="&#xe947;" glyph-name="map-marker" horiz-adv-x="585" d="M438.857 585.143c0 80.571-65.714 146.286-146.286 146.286s-146.286-65.714-146.286-146.286 65.714-146.286 146.286-146.286 146.286 65.714 146.286 146.286zM585.143 585.143c0-34.857-4-70.857-18.857-102.286l-208-442.286c-12-25.143-38.286-40.571-65.714-40.571s-53.714 15.429-65.143 40.571l-208.571 442.286c-14.857 31.429-18.857 67.429-18.857 102.286 0 161.714 130.857 292.571 292.571 292.571s292.571-130.857 292.571-292.571z" />
<glyph unicode="&#xe948;" glyph-name="spotify" horiz-adv-x="878" d="M644 259.428c0 16-6.286 22.286-17.143 29.143-73.714 44-159.429 65.714-255.429 65.714-56 0-109.714-7.429-164-19.429-13.143-2.857-24-11.429-24-29.714 0-14.286 10.857-28 28-28 5.143 0 14.286 2.857 21.143 4.571 44.571 9.143 91.429 15.429 138.857 15.429 84 0 163.429-20.571 226.857-58.857 6.857-4 11.429-6.286 18.857-6.286 14.286 0 26.857 11.429 26.857 27.429zM698.857 382.286c0 15.429-5.714 26.286-20 34.857-87.429 52-198.286 80.571-313.143 80.571-73.714 0-124-10.286-173.143-24-18.286-5.143-27.429-17.714-27.429-36.571s15.429-34.286 34.286-34.286c8 0 12.571 2.286 21.143 4.571 40 10.857 88 18.857 143.429 18.857 108.571 0 207.429-28.571 278.857-70.857 6.286-3.429 12.571-7.429 21.714-7.429 19.429 0 34.286 15.429 34.286 34.286zM760.571 524c0 21.143-9.143 32-22.857 40-98.857 57.714-234.286 84.571-363.429 84.571-76 0-145.714-8.571-208-26.857-16-4.571-30.857-18.286-30.857-42.286 0-23.429 17.714-41.714 41.143-41.714 8.571 0 16.571 2.857 22.857 4.571 55.429 15.429 115.429 21.143 175.429 21.143 118.857 0 242.286-26.286 321.714-73.714 8-4.571 13.714-6.857 22.857-6.857 21.714 0 41.143 17.143 41.143 41.143zM877.714 438.857c0-242.286-196.571-438.857-438.857-438.857s-438.857 196.571-438.857 438.857 196.571 438.857 438.857 438.857 438.857-196.571 438.857-438.857z" />
<glyph unicode="&#xe949;" glyph-name="x" d="M778.411 864h141.141l-308.352-352.427 362.752-479.573h-284.032l-222.464 290.859-254.549-290.859h-141.227l329.813 376.96-347.989 455.040h291.243l201.088-265.856zM728.875 116.48h78.208l-504.832 667.477h-83.925z" />
<glyph unicode="&#xe94a;" glyph-name="info" d="M981.333 426.667c0 129.579-52.565 246.997-137.472 331.861s-202.283 137.472-331.861 137.472-246.997-52.565-331.861-137.472-137.472-202.283-137.472-331.861 52.565-246.997 137.472-331.861 202.283-137.472 331.861-137.472 246.997 52.565 331.861 137.472 137.472 202.283 137.472 331.861zM896 426.667c0-106.069-42.923-201.984-112.469-271.531s-165.461-112.469-271.531-112.469-201.984 42.923-271.531 112.469-112.469 165.461-112.469 271.531 42.923 201.984 112.469 271.531 165.461 112.469 271.531 112.469 201.984-42.923 271.531-112.469 112.469-165.461 112.469-271.531zM554.667 256v170.667c0 23.552-19.115 42.667-42.667 42.667s-42.667-19.115-42.667-42.667v-170.667c0-23.552 19.115-42.667 42.667-42.667s42.667 19.115 42.667 42.667zM512 554.667c23.552 0 42.667 19.115 42.667 42.667s-19.115 42.667-42.667 42.667-42.667-19.115-42.667-42.667 19.115-42.667 42.667-42.667z" />
</font></defs></svg>