"Rodrigo Ardisana",,2023-07-31T22:24:30,,rodrick83@gmail.com,2,49875.47,24937.74,AR,Bernal,B,1876
"JULIAN QUIROGA",,2023-07-31T22:05:18,,,1,24100.00,24100.00,AR,CABA,,
"JUAN ANDRADE",,2023-07-31T22:02:06,,JUANDIEGOANDRADE40@GMAIL.COM,1,43900.00,43900.00,AR,CABA,,
"CHIARA HELMAN",,2023-07-31T21:54:23,,CHIARA.HELMAN@GMAIL.COM,1,17100.00,17100.00,AR,CABA,,
"Facundo Liempe",,2023-07-31T21:26:27,,bravojoaquin5@gmail.com,1,34200.00,34200.00,AR,"Cinco Saltos",R,4303
"Hernan Fontana",,2023-07-31T18:43:49,,herfont_14@hotmail.com,1,34200.00,34200.00,AR,"25 de Mayo",N,3363
"Flavio Nicolás Mauro",,2023-07-31T16:02:53,,flavionicolasmauro1989@gmail.com,1,18201.00,18201.00,AR,"San Miguel de Tucumán",T,4000
"Franco Ciarrapico",,2023-07-31T15:14:38,,franco.ciarrapico@outlook.com,0,0.00,0.00,AR,Morón,C,1712
"Bruno Bassani",,2023-07-31T12:29:50,,brunobassani.bb@gmail.com,1,34200.00,34200.00,AR,Argentina,C,1177
"Mateo Boasso",,2023-07-30T22:49:25,,mateoboasso115@gmail.com,1,48355.00,48355.00,AR,Córdoba,X,X500
"Lucas Alarcon",,2023-07-30T14:35:50,,lucasrodrigo_alarcon@yahoo.com.ar,2,88564.00,44282.00,AR,"25 de mayo",L,8201
"Juan Martín Contreras",,2023-07-30T01:59:51,,martincontrerasokulovich@gmail.com,1,26257.74,26257.74,AR,"Villa Carlosnpaz Paz",X,5152
"Agustin De leon",,2023-07-30T01:07:52,,madeleonmacre@gmail.com,1,28996.88,28996.88,AR,"Bahía BLanca",B,8000
"Santiago Lezcano",,2023-07-29T23:46:23,,s_lezcano@hotmail.com,2,87400.00,43700.00,AR,"Villa sarmiento",B,1707
"TOMAS PETTITI",,2023-07-29T21:33:33,,TOMASPETTITI@GMAIL.COM,1,22895.00,22895.00,AR,CABA,,
"PABLO ZARATE",,2023-07-29T21:15:52,,PBLZRT@GMAIL.COM,1,17100.00,17100.00,AR,CABA,,
"BARTOLOMEO SANTOS",,2023-07-29T21:14:22,,,1,15390.00,15390.00,AR,CABA,,
"NAHUEL CANTEROS",,2023-07-29T21:12:32,,NAUCANTEROS73@GMAIL.COM,1,24100.00,24100.00,AR,CABA,,
"JOAQUIN DRUGUERI",,2023-07-29T21:10:15,,JDRUGUERI@GMAIL.COM,1,17100.00,17100.00,AR,CABA,,
"MAXIMO JAREZ",,2023-07-29T21:08:21,,,1,24100.00,24100.00,AR,CABA,,
"FACUNDO CHIAPPE",,2023-07-29T21:05:49,,CHIAPPEFJ@GMAIL.COM,1,64100.00,64100.00,AR,CABA,,
"NICOLAS HERSOVICH",,2023-07-29T21:01:17,,NHERSCOVICH@HOTMAIL.COM,1,17100.00,17100.00,AR,CABA,,
"LUCIANO FABRIZIO",,2023-07-29T20:58:35,,LUCIANOFABRIZIO@GMAIL.COM,1,35640.00,35640.00,AR,CABA,,
"JAVIER CARREIRA",,2023-07-29T20:54:13,,JAVIERCARREIRA1983@GMAIL.COM,1,149800.00,149800.00,AR,CABA,,
"TERESA PARODI",,2023-07-29T20:49:59,,,1,17100.00,17100.00,AR,CABA,,
"GABRIEL BECERRA",,2023-07-29T20:47:04,,BECERRAG.SIGNAL@GMAIL.COM,1,34200.00,34200.00,AR,CABA,,
"FRANCO DAMATO",,2023-07-29T19:00:42,,franco.damato@hotmail.com,1,17101.00,17101.00,AR,CABA,C,1426
"NICOLAS JAUREGUI",,2023-07-28T21:47:12,,JAUREGUILORDA.NICOLAS@GMAIL.COM,1,27810.00,27810.00,AR,,,
"AGUSTIN PIZARRO",,2023-07-28T20:54:28,,DAGUSTIN.PIZARRO@GMAIL.COM,1,17100.00,17100.00,AR,CABA,,
"Ronny Weter",,2023-07-28T20:43:01,,ra.wetergallardo@gmail.com,2,35900.00,17950.00,AR,palermo,C,1425
"Mariano Possemato",,2023-07-28T17:47:31,,mspossemato1@gmail.com,1,25701.00,25701.00,AR,"Punta Alta",B,8109
"Mariano Acuña",,2023-07-28T15:10:49,,marianoacunalepez@gmail.com,1,17195.00,17195.00,AR,"Villa Luro",C,1407
"Ariel Saavedra",,2023-07-28T14:44:43,,bariels@gmail.com,1,61750.00,61750.00,AR,"Salta Capital",A,4400
"Leandro Ortega",,2023-07-28T00:11:13,,leisor@gmail.com,1,10162.04,10162.04,AR,Córdoba,X,5000
"GASTON MENDOZA",,2023-07-27T22:04:30,,GASTON.MENDOZA.190@GMAIL.COM,1,25460.00,25460.00,AR,CABA,,
"MIRTHA BARREYRO",,2023-07-27T21:37:51,,MIRTHABARREYRO@YAHOO.COM.AR,1,17100.00,17100.00,AR,CABA,,
"Carla Dercye",,2023-07-27T15:23:37,,curdercye@gmail.com,1,18240.00,18240.00,AR,"Ciudad Autonoma Buenos Aires",C,1414
"Maricel Moya Brizuela",,2023-07-27T15:16:24,,maricelmoya88@gmail.com,1,28224.46,28224.46,AR,Capital,K,4700
"Luciano Forti",,2023-07-27T14:45:49,,fortiluciano@hotmail.com,2,38759.56,19379.78,AR,"La plata",B,1900
"Pablo Maffezini",,2023-07-27T10:55:03,,pablomaffezini@gmail.com,1,18100.00,18100.00,AR,CABA,C,1425
"Juan Francisco Larumbe",,2023-07-26T22:10:51,,fran_larumbe@hotmail.com,1,28976.81,28976.81,AR,Mercedes,B,6600
"LUCAS SANCHEZ",,2023-07-26T21:53:43,,SANCHEZLUCAS90@GMAIL.COM,1,17100.00,17100.00,AR,CABA,,
"ANGEL DABOIN",,2023-07-26T21:50:53,,ANGELDABOIN88@GMAIL.COM,1,26800.00,26800.00,AR,CABA,,
"MARCOS FARIAS",,2023-07-26T21:47:10,,PORMARQUITOS@GMAIL.COM,1,8075.00,8075.00,AR,,,
"JUAN BONURA",,2023-07-26T21:44:51,,JC.BONURA@GMAIL.COM,2,54881.00,27440.50,AR,CABA,,
"Nicolás Vassallo",,2023-07-26T20:47:36,,nvass08@gmail.com,1,25601.00,25601.00,AR,"Villa crespo",C,1416
"Julián Dieguez",,2023-07-26T12:57:10,,juliandieguez9@gmail.com,1,16245.95,16245.95,AR,"Capital Federal",C,1186
"Gianfranco Ritegno",,2023-07-26T03:15:11,,gritegno@gmail.com,0,0.00,0.00,AR,Saavedra,C,1429
"ÑUSTA YAMBERLA",,2023-07-25T21:48:28,,YAMBERLANUSTA2@GMAIL.COM,1,15390.00,15390.00,AR,CABA,,
"SANTIAGO CAPILLA",,2023-07-25T21:40:27,,,1,30780.00,30780.00,AR,CABA,,
"Jotsuha Castro",,2023-07-24T23:47:41,,acesino25@hotmail.com,1,34200.00,34200.00,AR,"San Fernando del Valle de Catamarca",K,K470
"Franco Dopazo",,2023-07-24T23:05:19,,francogyej@hotmail.com,1,18578.28,18578.28,AR,Ezeiza,B,1804
"MARCELO MANTOVANI",,2023-07-24T21:46:04,,MARCELOMANTOVANI@MOVISTARARENA.COM.AR,1,62550.00,62550.00,AR,CABA,,
"David alejandro Medina",,2023-07-24T18:20:33,,dino0137@gmail.com,2,52287.74,26143.87,AR,"San Miguel de tucuman",T,4000
"Luciano Cosentino",,2023-07-24T01:15:49,,luchocos1@gmail.com,1,39140.00,39140.00,AR,Canning,B,1804
"German Calocero",,2023-07-23T23:24:24,,germancalocero22@gmail.com,0,0.00,0.00,AR,"La tablada",B,1766
"Matias Lopez",,2023-07-23T18:00:04,,mati.lop.27@gmail.com,1,28827.62,28827.62,AR,Cerrillos,A,4403
"Mauro Contreras",,2023-07-22T22:26:52,,maurocontreras01@gmail.com,3,45498.29,15166.10,AR,Argentina,W,3450
"JUAN TARGIZE",,2023-07-22T21:26:26,,JUANTARGIZE@GMAIL.COM,2,49701.00,24850.50,AR,,,
"LEANDRO OLIVO",,2023-07-22T20:23:15,,LEANDRO.OLIVO92@GMAIL.COM,1,51300.00,51300.00,AR,,,
"SEBASTIAN GUAYARE",,2023-07-22T18:48:23,,SEBASTIANGUAYARE@HOTMAIL.COM,3,74035.00,24678.33,AR,,,
"JUAN VALDEZ",,2023-07-22T18:39:15,,ARQ.VALDEZJUAN@GMAIL.COM,1,15390.00,15390.00,AR,,,
"NICOLAS LEJTMAN",,2023-07-22T18:29:59,,NLEJTMAN@YAHOO.COM.AR,1,59800.00,59800.00,AR,,,
"CARLOS MALLA",,2023-07-21T22:09:32,,MALLACARLOS.AA@GMAIL.COM,1,59580.00,59580.00,AR,CABA,,
"DARWIN VALERO",,2023-07-21T22:06:52,,DARWINVALERO92@GMAIL.COM,1,57690.00,57690.00,AR,CABA,,
"TOMAS CIFONE",,2023-07-21T22:02:15,,TOMASCIFONE@GMAIL.COM,1,24320.00,24320.00,AR,CABA,,
"AQUILES CRISTIANI",,2023-07-21T21:59:29,,AQUILESCRISTIANI@GMAIL.COM,1,34200.00,34200.00,AR,CABA,,
"facundo luquet",,2023-07-21T18:38:05,,harrytmik@gmail.co,1,18075.47,18075.47,AR,"ciudadela, tres de febrero",B,1702
"NICOLAS JASMINOY",,2023-07-20T22:07:33,,NICOJAS@GMAIL.COM,1,17100.00,17100.00,AR,,,
"XUXA RAPACHI",,2023-07-20T22:04:14,,AGUSRAPACHI@GMAIL.COM,1,65100.00,65100.00,AR,CABA,,
"DIEGO VIÑOLO",,2023-07-20T21:56:49,,,1,32490.00,32490.00,AR,CABA,,
"RICARDO TOLEDO",,2023-07-20T21:54:17,,,1,7400.00,7400.00,AR,CABA,,
"Alex Nahuelquin",,2023-07-20T09:36:13,,alexjoel2096@gmail.com,0,0.00,0.00,AR,"Caleta Olivia",Z,9011
"Agustin Herrera",,2023-07-19T23:41:26,,herreraagustin755@gmail.com,0,0.00,0.00,AR,Embalse,X,5856
"AGUSTIN GIOVANNINI",,2023-07-19T22:03:08,,AGUSTINGIOVANNINI96@GMAIL.COM,1,15390.00,15390.00,AR,CABA,,
"LUCIANO GIGLIA",,2023-07-19T22:01:47,,,1,17100.00,17100.00,AR,CABA,,
"MALENA BILBAO",,2023-07-19T22:00:08,,MALENA.BILBAO.ROO@GMAIL.COM,1,18200.00,18200.00,AR,CABA,,
"IGNACIO CALDINI",,2023-07-19T21:54:05,,IGNACIO_CALDINI@HOTMAIL.COM,1,12800.00,12800.00,AR,CABA,,
"MANUEL MUÑOZ",,2023-07-19T21:49:10,,MANUEL.ALEJANDRO.MUNOZ.VASQUEZ@GMAIL.COM,1,16380.00,16380.00,AR,CABA,,
"Kevin Arrigone",,2023-07-19T13:47:44,,kevinarrigone@gmail.com,1,43900.00,43900.00,AR,"General Pico",L,6360
"Luciano Giglio",,2023-07-19T12:35:21,,lucianogiglio@hotmail.com,0,0.00,0.00,AR,"Ciudad Autonoma Buenos Aires",C,1425
"Ivan Torres",,2023-07-18T22:39:33,,it494467@gmail.com,1,9317.16,9317.16,AR,"Barrio foshwrton",S,2000
"TERESITA SOTELINO",,2023-07-18T21:59:30,,,1,25700.00,25700.00,AR,CABA,,
"MATIAS SALGADO",,2023-07-18T21:56:39,,MATIASSALGADO9@MI.UNC.EDU.AR,1,23130.00,23130.00,AR,CABA,,
"MAXIMILIANO ARGENIO",,2023-07-18T21:51:11,,MAXIMILIANO.ARGENIO@HOTMAIL.COM,2,31700.00,15850.00,AR,,,
"JOSE IRAZOQUI",,2023-07-18T21:39:48,,TOMAS.IRAZOQUI@LIVE.COM,1,17100.00,17100.00,AR,CABA,,
"Amilcar Alonso",,2023-07-18T21:32:29,,doctorfango@gmail.com,1,34200.00,34200.00,AR,"Capital Federal",C,1428
"EMANUEL FERNANDEZ",,2023-07-18T21:31:46,,EMANUELFERNANDEZ333@GMAIL.COM,1,40700.00,40700.00,AR,CABA,,
"JOAQUIN MENDIGE",,2023-07-18T21:29:15,,JOAQUINMENGIDE@GMAIL.COM,1,34200.00,34200.00,AR,CABA,,
"Karen Brett",,2023-07-18T20:44:50,,karenbrett89@gmail.com,1,28321.25,28321.25,AR,"ramos mejia",B,1704
"MATIAS VERA",,2023-07-18T20:24:21,,vmatiasalberto@gmail.com,2,21376.00,10688.00,AR,,,
"Maximiliano Daniel Rotger",,2023-07-18T19:56:53,,maxi_rotger17@hotmail.com,1,26296.88,26296.88,AR,"San Miguel de Tucuman",T,4000
"Ezequiel Cornejo",,2023-07-18T15:24:33,,ezec1987@gmail.com,0,0.00,0.00,AR,"Ciudad Autonoma Buenos Aires",C,C1405ANN
"Julio Estaba",,2023-07-18T14:38:46,,cesarion19021@gmail.com,1,33100.00,33100.00,AR,Boulogne,B,1609
"Martina Cantamessa",,2023-07-18T13:53:41,,martina.cantamessa@gmail.com,0,0.00,0.00,AR,"Ciudad Autonoma Buenos Aires",C,C1199ACK
"Franco Granzotto",,2023-07-18T12:16:17,,fmgranzotto@gmail.com,1,41705.00,41705.00,AR,"Ciudad Autonoma Buenos Aires",C,C1439BQB
"Gonzalo Rossello",,2023-07-18T01:12:05,,gonzalo.rossello@gmail.com,1,7335.88,7335.88,AR,Lujan,B,6700
"NOEL MORRONI",,2023-07-17T21:11:56,,noel_pakxiro@hotmail.com,1,28321.25,28321.25,AR,"San isidro",B,1642
"Marcelo Mangini",,2023-07-17T20:57:33,,manginimarcelo@hotmail.com,1,6301.00,6301.00,AR,Chacarita,C,1427
"Matias Martínez Sabino",,2023-07-17T16:26:01,,mmartinezsabino@gmail.com,2,34800.00,17400.00,AR,Caba,C,1408
"Julian Gabriel Galindez",,2023-07-17T14:57:28,,juliangalindez27@gmail.com,1,18100.00,18100.00,AR,Flores,C,1406
"Silvina Farfán",,2023-07-17T12:59:26,,vsilfarfan@gmail.com,1,34200.00,34200.00,AR,SALTA,A,4400
"Natan Kotas",,2023-07-17T04:39:12,,natan.ekotas@gmail.com,0,0.00,0.00,AR,"CIUDAD DE BUENOS AIRES - BALVANERA",B,1026
"Rodrigo Gamboa",,2023-07-17T01:43:42,,rodrigamboa_56@hotmail.com,1,35300.00,35300.00,AR,"San Justo",S,3040
"Melisa Capielo",,2023-07-17T00:52:04,,melisacapielo@gmail.com,0,0.00,0.00,AR,"Lanus oeste",B,1824
"Marina Goldenberg",,2023-07-16T22:00:33,,mg@gontovnikas.com,1,36400.00,36400.00,AR,"Buenos Aires",C,1428
"Roberto Sosa",,2023-07-16T15:54:17,,roberto.osmarsosa@gmail.com,0,0.00,0.00,AR,"San Francisco",X,2400
"Ezequiel Cardenas",,2023-07-16T12:59:38,,ezequiel.cradenasind9@gmail.com,1,24101.00,24101.00,AR,"Cordoba capital",X,5000
"Leonardo Morelli",,2023-07-15T11:54:12,,morellileonardo156@gmail.com,2,26885.95,13442.98,AR,Retiro,C,1058
"Emiliano Pesoa",,2023-07-14T18:40:35,,emilianopesoa@gmail.com,1,30400.00,30400.00,AR,Chajarí,E,3228
"Lais Menegati",,2023-07-14T13:53:59,,lais.menegati46@gmail.com,0,0.00,0.00,AR,Rosario,S,2000
"Francis Gae Rodriguez",,2023-07-14T05:02:50,,os_rore@hotmail.com,1,39300.00,39300.00,AR,"Córdoba- Capital",X,5004
"Manuel Perez Delgado",,2023-07-13T18:46:17,,perezdelgadomanuel8@gmail.com,1,17307.04,17307.04,AR,Rosario,S,2000
"Juan Calo",,2023-07-13T14:11:48,,calo.juan89@gmail.com,2,51216.93,25608.47,AR,"Villa La Angostura",Q,8407
"Lucas Ismael Neira",,2023-07-13T01:13:44,,ismaelneira23@gmail.com,1,20061.33,20061.33,AR,"San Luis",D,5700
"Francisco Marzullo",,2023-07-13T00:34:07,,marzullofran97@gmail.com,2,38807.00,19403.50,AR,"Monte Grande",B,1842
"Martina Pitté",,2023-07-12T19:23:44,,martinapitte@gmail.com,1,17649.37,17649.37,AR,1035,B,1900
"Sergio Barreto",,2023-07-12T11:17:05,,sebarreto@abc.gob.ar,1,18075.47,18075.47,AR,"San Francisco Solano",B,1881
"Jose Damian Masso",,2023-07-11T21:05:51,,joshdam@hotmail.com,2,64410.00,32205.00,AR,"Villa urquiza",C,1431
"Mariano Carena",,2023-07-11T00:51:59,,carenamariano4@gmail.com,1,18100.00,18100.00,AR,Liniers,C,1408
"Federico Arabia",,2023-07-10T23:41:51,,fedearabia@hotmail.com,1,17101.00,17101.00,AR,C,C,1414
"Martin Mikolajewski",,2023-07-10T16:20:52,,Mikolajewski24@gmail.com,1,15901.00,15901.00,AR,Caba,C,1006
"ORNELLA SGRILETTI",,2023-07-10T16:03:03,,orne_lp90@hotmail.com,1,39500.00,39500.00,AR,"LISANDRO OLMOS",C,1901
"Manuel Rodríguez",,2023-07-10T15:33:59,,manucorodrigues85@gmail.com,0,0.00,0.00,AR,Caba,C,1186
"Juan Francisco Aparicio",,2023-07-10T13:51:49,,jfaparicio15@gmail.com,4,50227.95,12556.99,AR,CABA,C,1414
"Bruno Rios",,2023-07-10T04:20:01,,Bruno29.rios@gmail.com,1,24816.93,24816.93,AR,Esquel,U,9200
"Ramiro Goya",,2023-07-10T02:48:00,,goyaramiro@gmail.com,1,17378.28,17378.28,AR,"La Plata",B,1900
"Manuel Sanchez Yorgovan",,2023-07-10T00:54:03,,manuel.syo@gmail.com,0,0.00,0.00,AR,?,C,1128
"DIEGO GALEOTE",,2023-07-09T23:48:52,,DIEGOGALEOTE26@GMAIL.COM,2,23402.00,11701.00,AR,"VILLA CRESPO",C,1414
"Giuliano Guidi",,2023-07-09T21:53:59,,giulioguidi10@gmail.com,0,0.00,0.00,AR,?,B,1704
"Manuel Curia",,2023-07-09T19:58:28,,manuelcuria99@gmail.com,1,16055.00,16055.00,AR,Caballito,C,1416
"Gabriela r Rojas",,2023-07-09T15:39:06,,gabriela.rojas.legislatura@gmail.com,0,0.00,0.00,AR,Castelar,B,1712
"Rocío Malatesta",,2023-07-09T10:15:15,,malatesta92@gmail.com,1,17817.16,17817.16,AR,Lujan,B,6700
"Juan Ignacio Trombetta",,2023-07-09T01:42:02,,juani_trombetta@hotmail.com,1,16900.00,16900.00,AR,CABA,C,1426
"Pamela Castro",,2023-07-08T20:05:45,,pame.ca1@hotmail.com,1,16055.00,16055.00,AR,Caba,C,1427
"Alexis Toledo",,2023-07-08T13:24:32,,alexistoledo066@gmail.com,1,16509.37,16509.37,AR,"Grand bourg",B,1615
"Rocio Bosñak",,2023-07-07T13:58:47,,robosnak011@gmail.com,1,23523.20,23523.20,AR,Caseros,B,1678
"Joaquin Cicetti",,2023-07-06T20:29:42,,joaquincicetti@gmail.com,1,18830.66,18830.66,AR,Rosario,S,2000
"Lourdes Langella",,2023-07-06T18:39:59,,lourdeslangella2208@gmail.com,2,35791.74,17895.87,AR,"San Miguel de Tucumán",T,4000
"Facundo Vega",,2023-07-06T16:26:45,,facundovega@yahoo.com.ar,2,34100.47,17050.24,AR,"Villa Elisa",B,1894
"Javier Fernandez Diaz",,2023-07-06T15:25:48,,jalefd@gmail.com,4,73005.00,18251.25,AR,CABA,C,1426
"Facundo Gentile",,2023-07-05T22:13:09,,Facundongentile@gmail.com,1,16900.00,16900.00,AR,"Villa Crepo",C,1414
"Alessandro Calomino",,2023-07-05T18:04:23,,acalominogil@gmail.com,1,16926.30,16926.30,AR,Pergamino,B,2700
"FRANCISCO MAINELLA",,2023-07-05T14:22:50,,franciscomainella84@gmail.com,2,20802.00,10401.00,AR,Caba,B,1124
"Alejandro Nicolas Yaryura Martinez",,2023-07-04T22:30:12,,alejandroyaryura1@gmail.com,1,30210.00,30210.00,AR,"La Rioja",F,5300
"Leandro Nicolau",,2023-07-04T15:02:02,,nicolau.leandro@hotmail.com,3,89961.20,29987.07,AR,Guaymallen,C,5519
"JUAN FERNANDEZ",,2023-07-04T14:23:05,,jfernandezla@yahoo.com,2,51250.00,25625.00,AR,CABA,C,1425
"Daniel Ramirez",,2023-07-04T14:09:42,,Danirami8806@gmail.com,1,31800.00,31800.00,AR,"San francisco solano",B,1881
"Felipe Moreno",,2023-07-04T03:37:30,,Anfemori@gmail.com,1,39500.00,39500.00,AR,"Mar del Plata",B,7600
"Lucas Di Bernardo",,2023-07-03T23:13:38,,lucas_dibernardo@hotmail.com,1,25800.00,25800.00,AR,CABA,C,1424
"Test Test",,2023-07-03T21:24:37,,prueba@gmail.com,0,0.00,0.00,AR,CABA,B,1414
"Sergio Navarro",,2023-07-03T15:45:48,,sergiognavarro@yahoo.com,1,17378.28,17378.28,AR,Quilmes,B,1878
"Francisco Russo",,2023-07-03T14:57:51,,russofrancisco11@gmail.com,1,64600.00,64600.00,AR,Temperley,B,1834
"Davi Peixoto de moura",,2023-07-03T09:45:41,,moura.dvi@gmail.com,1,34000.00,34000.00,AR,"La Rioja",F,5300
"Omar PEREIRA",,2023-07-03T02:36:50,,omar@omarpereira.com.ar,2,52901.00,26450.50,AR,Recoleta,C,1014
"Andres Bertoni",,2023-07-02T21:26:03,,its.me.psico@gmail.com,1,17817.16,17817.16,AR,Rosario,S,2000
"Alejandro Israel Morales",,2023-07-02T16:44:06,,alejandroisraelm9@gmail.com,1,29062.33,29062.33,AR,"San luis",D,5700
"Lucas Bonzi",,2023-07-02T06:31:09,,lucasbonzin@gmail.com,2,25652.00,12826.00,AR,Longchamps,B,1854
"Franco Mazzei",,2023-07-02T01:14:42,,franco.gmazzei@gmail.com,1,16167.04,16167.04,AR,"Mar del Plata",B,7600
"CRISTIAN MANSILLA",,2023-07-01T21:33:13,,CMANSILLA427@GMAIL.COM,1,30210.00,30210.00,AR,CABA,C,1121
"FABIANA BENITEZ",,2023-07-01T21:29:34,,FABIANAZALAZAR@ME.COM,1,15105.95,15105.95,AR,CABA,C,1121
"LUCAS TOLOSA",,2023-07-01T21:28:19,,LUCAS.TOLOSO92@GMAIL.COM,1,15106.00,15106.00,AR,CABA,C,1121
"NICOLAS CARNEVALE",,2023-07-01T21:26:51,,NICOLASRODRIGO110@GMAIL.COM,1,26411.00,26411.00,AR,CABA,C,1121
"NOEL ZAPATER",,2023-07-01T21:21:20,,NOELZAPATER@YAHOO.COM,1,15106.00,15106.00,AR,CABA,C,1121
"GASTON LOIDI",,2023-07-01T21:19:48,,GASTONLOIDI@YAHOO.COM,1,54300.00,54300.00,AR,CABA,C,1121
"FRANCISCO GUILLEN",,2023-07-01T21:17:01,,GUILLEN40036@GMAIL.COM,1,31800.00,31800.00,AR,CABA,C,1121
"VANINA DUBOIS",,2023-07-01T21:13:51,,VANINADUBOIS@GMAIL.COM,1,14311.00,14311.00,AR,CABA,C,1121
