"Melisa Appugliese",,2023-06-30T22:24:25,,melisa.appugliese@gmail.com,1,17378.28,17378.28,AR,Florida,B,1602
"RAMIRO NICOLAS PERRI",,2023-06-30T19:03:12,,perriramiro@gmail.com,2,31445.45,15722.73,AR,"Lomas de Zamora",B,1832
"Gaston Aguirre",,2023-06-30T16:17:04,,egasagui@gmail.com,1,17378.28,17378.28,AR,Ensenada,B,1925
"Mateo Belgrano",,2023-06-30T13:07:23,,belgranomateo@gmail.com,1,7901.00,7901.00,AR,"CIUDAD DE BUENOS AIRES - PALERMO",B,1425
"Brandon De Lima Sklepek",,2023-06-30T11:43:40,,delimasklepekbrandon@gmail.com,0,0.00,0.00,AR,"Villa astolfi",C,1633
"Juan José Domato",,2023-06-30T02:46:09,,juanjosedomato@gmail.com,0,0.00,0.00,AR,"Monte grande",B,1842
"Pablo Pinto",,2023-06-29T20:33:58,,pablopinto87@gmail.com,1,16167.04,16167.04,AR,"Villa Allende",X,5105
"Sebastián Fraysse",,2023-06-29T16:48:38,,sebafraysse68@gmail.com,1,16031.70,16031.70,AR,"La Plata",B,1900
"Ivan Eduardo Carrizo",,2023-06-29T00:44:16,,ivancarrizo2892@gmail.com,0,0.00,0.00,AR,"Rio gallegos",Z,9400
"Marcos German Martin",,2023-06-28T21:10:24,,holabuzon@gmail.com,4,50774.39,12693.60,AR,"Tafí Viejo",T,4103
"Amelie julieta chris Glize",,2023-06-28T19:55:19,,cglize@hotmail.com,4,149000.00,37250.00,AR,Trevelin,U,9203
"Hector REGUEIRO",,2023-06-28T19:13:23,,hectorabel.r@live.com,0,0.00,0.00,AR,Local,B,1836
"Felix Pachano",,2023-06-28T15:42:30,,felixpachano@gmail.com,2,38936.07,19468.04,AR,"La plata",B,1900
"Juan Francisco Barbieri",,2023-06-28T09:39:19,,juan.francisco.barbieri@gmail.com,3,36454.75,12151.58,AR,Burzaco,B,1852
"Joaquin Fornes",,2023-06-27T18:36:30,,joaquinfornes@gmail.com,1,18031.95,18031.95,AR,"Burzaco, almirante brown",B,1852
"Constanza Salazar",,2023-06-27T18:25:07,,conielefante@gmail.com,1,17203.00,17203.00,AR,Martínez,B,1640
"Jorge Luis Gomez",,2023-06-27T16:38:09,,g.jorgomez@gmail.com,1,31800.00,31800.00,AR,Temperley,B,1834
"Horacio Zuvi",,2023-06-27T01:35:22,,horacio.zuvi@gmail.com,3,90695.00,30231.67,AR,"San Andrés",B,1638
"Sebastian Sawczuk",,2023-06-27T00:58:50,,jaguarelibre88@gmail.com,1,25001.00,25001.00,AR,"Lomas de zamora",B,1832
"Franco Barros",,2023-06-26T21:23:36,,francobarros@icloud.com,0,0.00,0.00,AR,"Corrienres Capital",W,3400
"Emanuel Fernández",,2023-06-26T03:35:54,,emanuelpsico5@gmail.com,1,45315.00,45315.00,AR,"General Pico",L,6360
"Jonatan Rico",,2023-06-25T23:45:23,,jhonrico990@gmail.com,0,0.00,0.00,AR,Junín,B,6000
"Didier Berg",,2023-06-23T16:19:49,,bebyberg@gmail.com,1,26680.75,26680.75,AR,Cordoba,X,5003
"Lucas Duette",,2023-06-23T13:14:27,,lucasd_93@outlook.com,2,55865.00,27932.50,AR,CABA,C,1424
"Roman Ruiz",,2023-06-22T23:43:58,,romanrubenruiz@gmail.com,1,8300.00,8300.00,AR,Mataderos,C,1440
"Alan Vater",,2023-06-22T22:05:56,,alanvater@gmail.com,1,25800.00,25800.00,AR,"Capital Federal",C,1429
"Cinthia vanesa Aguilar",,2023-06-22T14:30:06,,Vane89152@gmail.com,2,28132.35,14066.18,AR,"La rioja capital",F,5300
"Manu Godard Castillo",,2023-06-22T02:20:41,,emmanuelgodard28@gmail.com,2,39752.75,19876.38,AR,Rosario,S,2000
"Emanuel Moyano",,2023-06-22T01:42:07,,emafmoyano@gmail.com,1,17904.00,17904.00,AR,Pilar,B,1629
"Sebastian Rodriguez Prior",,2023-06-21T00:02:27,,srodriguezprior@gmail.com,1,30210.00,30210.00,AR,"Mar del Plata",B,7600
"Alejandro Williams",,2023-06-20T22:31:33,,alew792@gmail.com,1,30600.00,30600.00,AR,"Rio gallegos",Z,9400
"Santiago Portugal Barella",,2023-06-20T16:38:19,,santiportugal@hotmail.com,1,8150.00,8150.00,AR,"Capital Federal",C,1429
"Tiago Macchi",,2023-06-20T14:16:24,,tiagomacchi99@gmail.com,1,18651.00,18651.00,AR,Córdoba,X,5021
"Renzo Miletti",,2023-06-20T01:04:29,,renzomiletti@hotmail.com,1,19617.00,19617.00,AR,"San Lorenzo",S,2200
"Tomas Castillo",,2023-06-19T00:12:55,,tomcastillo7394@gmail.com,1,15901.00,15901.00,AR,"Capital Federal",C,1141
"Christian Ledesma",,2023-06-17T19:13:12,,chrisll2d@hotmail.com,0,0.00,0.00,AR,Llavallol,C,1836
"Marína Goldenberg",,2023-06-17T16:59:47,,mg@gontovnikas.co,1,34000.00,34000.00,AR,Belgrano,C,1428
"Roman Ruiz",,2023-06-17T15:18:18,,romannrruiz@outlook.com,1,16700.00,16700.00,AR,Mataderos,C,1440
"Adrian Marcelo Robaina",,2023-06-17T03:34:39,,hator46@gmail.com,1,32000.00,32000.00,AR,Carcaraña,S,2138
"Virginia Fernández",,2023-06-17T02:12:05,,fernandez.virginia@gmail.com,4,51728.00,12932.00,AR,Rosario,S,S2000
"Fatima Benitez",,2023-06-16T18:19:44,,fatimabenitez@live.com,0,0.00,0.00,AR,"Lomas de zamora",B,1834
"santiago enzo nisi",,2023-06-16T17:07:22,,santiagonisi5@gmail.com,2,45540.00,22770.00,AR,argentina,B,2900
"Martín PEREZ COLL",,2023-06-16T15:48:32,,martinperezcoll@gmail.com,1,32015.00,32015.00,AR,Neuquen,Q,8300
"Fernando Espindola",,2023-06-16T05:23:56,,motoesp444@gmail.com,1,28095.00,28095.00,AR,"San Miguel de Tucumán",T,4000
"Maxi Garrido",,2023-06-15T21:32:08,,maxifgarrido1919@gmail.com,0,0.00,0.00,AR,Balcarce,C,7620
"octavio martino",,2023-06-15T19:16:28,,octaviomartino@gmail.com,0,0.00,0.00,AR,"Cordoba Capital",X,5000
"Lucas fernando Buso elorza",,2023-06-15T13:39:29,,lucasbusoelorza@gmail.com,1,18657.05,18657.05,AR,Cordoba,X,5000
"Leandro Soria",,2023-06-14T15:24:05,,leandrosoria@hotmail.com,1,19532.00,19532.00,AR,Rosario,S,2000
"Jano Gaillour",,2023-06-14T02:55:26,,jano11@live.com.ar,1,18583.00,18583.00,AR,"Mar del plata",B,7600
"Martin Zaccaria",,2023-06-14T01:46:58,,martin.zacariaa@gmail.com,2,30785.00,15392.50,AR,"Vicente López",B,1602
"Lucas Emmanuel Cobo",,2023-06-13T14:26:24,,cobolucas@gmail.com,3,47920.50,15973.50,AR,"La Plata",B,1900
"Santiago Torrente",,2023-06-13T12:19:59,,storrenteprieto@gmail.com,0,0.00,0.00,AR,Chacarita,C,1427
"Gustavo Alderete",,2023-06-13T03:02:21,,gus.alderette@gmail.com,1,16700.00,16700.00,AR,"Ciudad autónoma de Buenos Aires",C,1197
"Maximiliano Gayo",,2023-06-12T16:33:03,,maxgayo@gmail.com,1,15105.95,15105.95,AR,Balbanera,C,C1215AAB
"Juan esteban Rodriguez",,2023-06-12T13:24:55,,juanesteban.rod88@gmail.com,2,30975.00,15487.50,AR,Lujan,B,6700
"Fernando Fonseca Vieira",,2023-06-12T01:51:48,,ffernandovieira019@gmail.com,1,15901.00,15901.00,AR,"Capital Federal",C,1080
"German Nicolas Jacob",,2023-06-12T01:10:06,,geenejota@gmail.com,2,24989.00,12494.50,AR,"Santa Fe",S,3000
"Esteban Dominguez",,2023-06-12T00:44:24,,esteban.dominguez@live.com.ar,1,26609.50,26609.50,AR,Rosario,S,2000
"Juan Falivene",,2023-06-11T14:40:56,,betofalivene@gmail.com,1,27801.00,27801.00,AR,Caba,C,1407
"Matias Alaniz",,2023-06-11T02:42:08,,mati.alaniz.89@gmail.com,1,36100.00,36100.00,AR,"Bahia Blanca",C,8000
"Pedro Tamborindeguy",,2023-06-11T00:25:45,,pftambo@gmail.com,1,25800.00,25800.00,AR,"Capital Federal",C,1430
"Gabriel Cimaomo",,2023-06-10T22:59:04,,gabrielcimaomo@gmail.com,0,0.00,0.00,AR,"Santa Fe",S,3000
"Matias Sales",,2023-06-10T22:09:03,,matiassales@gmail.com,1,18713.00,18713.00,AR,"Las Compuertas, Luján de Cuyo",M,5549
"Paula Santana",,2023-06-10T17:08:42,,santanapau@gmail.com,1,17800.00,17800.00,AR,Caba,C,1428
"luciano tiscornia",,2023-06-09T23:26:51,,lucianotiscornia@gmail.com,2,126600.00,63300.00,AR,"Buenos Aires",C,C1426
"Cristian Gutierrez",,2023-06-09T21:19:24,,churix110990@gmail.com,1,25595.00,25595.00,AR,Salta,A,4400
"Manuel Agostinho",,2023-06-09T20:53:36,,magostin3107@gmail.com,1,17671.90,17671.90,AR,1,B,1842
"Agustin Oliveto",,2023-06-09T13:25:43,,agustin_oliveto@yahoo.com.ar,1,16150.95,16150.95,AR,CABA,C,1406
"Clara González",,2023-06-08T18:07:14,,claragonzalez420@gmail.com,1,26754.85,26754.85,AR,Neuquén,Q,8300
"Emilio Diaz",,2023-06-08T17:56:14,,emilio.uba.diaz@hotmail.com,1,16600.00,16600.00,AR,"Capital Federal",C,1176
"Paulina Frangi",,2023-06-08T17:43:00,,pauli_tenis_09@hotmail.com,0,0.00,0.00,AR,Rosario,C,S2000BTA
"Gabriel Montiel",,2023-06-08T15:26:57,,gabihmontiel@gmail.com,1,7458.00,7458.00,AR,"Rincón de Milberg, Tigre",B,1648
"Gaston Moran",,2023-06-08T13:15:32,,gastondufau1@gmail.com,0,0.00,0.00,AR,"San miguel",B,1663
"Aureliano Gentile",,2023-06-08T12:31:48,,aurelianogentile5@gmail.com,1,15901.00,15901.00,AR,"Ciudad Autonoma Buenos Aires",C,C1428CXH
"Noelia Soledad Márquez",,2023-06-08T03:21:55,,marqueznoelia1986@gmail.com,1,38855.00,38855.00,AR,"MAR DEL PLATA",B,7600
"Jorge Amaolo",,2023-06-07T22:15:03,,jorgeammaolo@gmail.com,2,72200.00,36100.00,AR,"General Roca",R,8332
"sebastian mattheus",,2023-06-07T20:23:47,,sebamattheus@gmail.com,1,18555.40,18555.40,AR,rosario,S,2000
"Rodrigo Tabarez",,2023-06-07T03:29:19,,tabarezrodrigo8@gmail.com,1,17875.00,17875.00,AR,Haedo,B,1706
"Alfredo Martin Dominguez",,2023-06-07T01:15:09,,martin_22doz@hotmail.com,2,19677.00,9838.50,AR,Concaran,D,5770
"Federico Mozzon",,2023-06-07T01:12:51,,MOZZONFEDERICO@GMAIL.COM,1,17008.80,17008.80,AR,"La Plata",B,1900
"José Ramos",,2023-06-07T01:11:19,,joseramos_ok@outlook.com,0,0.00,0.00,AR,Salta,A,4400
"Manuel Vilchez",,2023-06-07T00:50:28,,manue.alevilch@gmail.com,1,19063.00,19063.00,AR,Neuquén,Q,8300
"Fabio Campagnale",,2023-06-06T22:59:59,,fabiocampagnale@gmail.com,2,21402.00,10701.00,AR,Almagro,C,1202
"Gonzalo Javier Vilches",,2023-06-05T23:06:00,,gonjvilches@gmail.com,1,15105.95,15105.95,AR,Lanus,B,1826
"Rodrigo Agustín Giglio Tos",,2023-06-05T05:15:52,,rgigliotos@gmail.com,0,0.00,0.00,AR,Roldán,S,2134
"Augusto Ureña Rodríguez",,2023-06-05T02:00:58,,josyurena@hotmail.com,2,97450.00,48725.00,AR,Recoleta,C,1425
"Martín Aranciva",,2023-06-03T21:31:38,,martinaranciva.5@gmail.com,1,16700.00,16700.00,AR,Belgrano,C,1428
"Emanuel Cilia",,2023-06-03T18:51:01,,emanuel.cilia.86@gmail.com,0,0.00,0.00,AR,"Luis Guillon",C,1838
"Lucas Saravia",,2023-06-02T02:33:23,,lucas_saravia_97@hotmail.com,2,31800.00,15900.00,AR,"Buenos Aires",C,1407
"Gabriel Villalba",,2023-06-01T23:33:42,,rootsboy47@hotmail.com,1,5681.95,5681.95,AR,Hurlingham,B,1686
"Juan Pablo Giuseppetti",,2023-06-01T22:22:47,,jpgiuseppetti@gmail.com,1,25800.00,25800.00,AR,Argentina,C,1425
"Natalia Valle",,2023-06-01T20:59:58,,nataliagvalle@gmail.com,0,0.00,0.00,AR,Almagro,C,1185
"Matias Azar",,2023-06-01T17:10:26,,dimatiasazar@gmail.com,2,31760.40,15880.20,AR,"Alta Cordoba",X,5001
"Martin Gonzalez",,2023-06-01T14:06:11,,martine.gonzalez@hotmail.com,0,0.00,0.00,AR,CABA,C,1060
