"2023-04-28 22:00:26",11938,"$18,137.00",completed,"Enrique omar Peña",new,"1× Jean Polet - 36",1,,15900
"2023-04-30 20:35:06",11937,"$26,665.00",completed,"Maximiliano Gallardo",returning,"1× Campera Milat Blue - Talle 3",1,,25000
"2023-04-30 15:29:33",11934,"$15,901.00",completed,"José Gramajo",new,"1× Jean Pekur - 36",1,,15900
"2023-04-30 01:40:29",11931,"$26,300.00",completed,"Nahuel Hreczynski",new,"1× Camisa Goet - Talle 2",1,,25500
"2023-04-28 19:03:17",11927,"$14,227.00",completed,"Martin Orihuela",new,"1× Parka Troyat Gris - Talle 1",1,,12900
"2023-04-25 16:24:44",11903,"$12,001.00",completed,"Alvaro Godoy",new,"1× Piloto Yofle",1,,12000
"2023-04-28 12:48:35",11924,"$20,425.95",completed,"Tomas Toni",new,"1× Pantalón Egipto - Talle 2",1,,20424.95
"2023-04-26 21:13:59",11916,"$23,091.65",completed,"Diego Calvo",new,"1× Campera Milat Blue - Talle 1",1,,20584.65
"2023-04-28 02:31:21",11920,"$13,289.55",completed,"Aron L Medina",new,"1× Dollman Negro - Talle 1",1,,11800.55
"2023-04-28 02:33:00",11921,"$45,400.00",completed,"Josue David Grenz Beckerle",returning,"1× Pantalón Zelik Negro - 36, 1× Remerón Baggy Negro - Talle 1, 1× Media Polera Blanca - Talle 1, 1× Remeron Gris - Talle 1",4,,45400
"2023-04-27 20:17:28",11918,"$15,700.00",completed,"Ignacio Damian Cepeda",returning,"1× Jean Pekur - 34",1,,14900
"2023-04-26 20:23:46",11915,"$15,700.00",completed,"Facundo Bellone",new,"1× Pantalón Zelik Haba - 32",1,,14900
"2023-04-27 09:29:17",11917,"$23,465.00",completed,"Juan Cruz Barrionuevo",new,"1× Campera Milat Blue - Talle 1",1,,21800
"2023-04-26 17:38:17",11914,"$44,700.00",completed,"Cristian Costa",new,"1× Jean Jufré - 38, 1× Jean Kabú - 38, 1× Jean Frenú - 38",3,,44700
"2023-04-26 15:26:44",11909,"$14,901.00",completed,"Julian Nahuel Zarza",new,"1× Jean Potkat - 36",1,,14900
"2023-04-24 23:00:12",11896,"$23,091.65",completed,"Cindi Beltramone",returning,"1× Campera Milat Blue - Talle 1",1,,20584.65
"2023-04-26 00:47:25",11906,"$20,710.95",completed,"Lucas Ambrogio",new,"1× Campera Milat Blue - Talle 2",1,,20709.95
"2023-04-25 21:06:30",11905,"$32,361.00",completed,"Mauro Pandolfo",new,"1× Pantalón Zelik Haba - 36, 1× Pantalón Zelik Negro - 36",2,,29800
"2023-04-25 20:13:05",11904,"$41,900.00",completed,"Angel Augusto Pasquale",returning,"1× Pantalón Zelik Pardo - 30, 1× Media Polera Gris - Talle 1, 1× Media Polera Blanca - Talle 1",3,,41900
"2023-04-25 15:42:20",11902,"$17,137.00",completed,"Juan cruz Camacho",new,"1× Jean Jufré - 30",1,,14900
"2023-04-25 14:43:33",11901,"$24,307.00",completed,"Matias Broglia",new,"1× Campera Milat Black - Talle 1",1,,21800
"2023-04-25 00:40:38",11898,"$31,492.00",completed,"ANDRES FULLE",returning,"1× Jean Jufré - 30, 1× Jean Potkat - 32",2,,29800
"2023-04-24 16:39:06",11894,"$14,901.00",completed,"Josue David Grenz Beckerle",new,"1× Jean Pekur - 34",1,,14900
"2023-04-24 16:36:19",11893,"$36,700.00 $0.00",refunded,"Lucas Saravia",new,"1× Jean Kamba - 36, 1× Campera Milat Black - Talle 1",2,,36700
"2023-04-24 10:22:50",11887,"$23,235.00",completed,"José Francisco Filipas",new,"1× Campera Milat Blue - Talle 3",1,,21800
"2023-04-22 12:36:53",11884,"$15,690.20",completed,"Cristian Lizarraga",returning,"1× Pantalón Zelik Negro - 32",1,,14074.2
"2023-04-22 12:12:47",11883,"$21,801.00",completed,"Maria Anchorena",returning,"1× Campera Milat Black - Talle 3",1,,21800
"2023-04-21 22:27:19",11882,"$14,901.00",completed,"Erwin Gonzalez",new,"1× Jean Potkat - 30",1,,14900
"2023-04-21 12:30:08",11881,"$16,225.00",completed,"Santiago Bonardi",new,"1× Jean Pekur - 38",1,,14900
"2023-04-21 10:36:06",11880,"$11,875.95",completed,"Alejo Petrucci",returning,"1× Dollman Negro - Talle 2",1,,11874.95
"2023-04-20 21:09:50",11878,"$17,901.00",completed,"Franco Escobar",returning,"1× Campera Malai - Talle 3",1,,17900
"2023-04-20 19:27:20",11875,"$26,821.00",completed,"Comprador Showroom",returning,"1× Jean Kamba - 36, 1× Jean Kabú - 36",2,efectivo,26820
"2023-04-20 19:30:25",11876,"$29,801.00",completed,"Comprador Showroom",returning,"1× Jean Pekur - 30, 1× Jean Kabú - 30",2,tc-showroom,29800
"2023-04-20 19:32:20",11877,"$29,801.00",completed,"Comprador Showroom",returning,"1× Jean Pekur - 36, 1× Jean Jufré - 36",2,tc-showroom,29800
"2023-04-19 17:41:20",11870,"$13,411.00",completed,"Comprador Showroom",returning,"1× Jean Pecat - 30",1,efectivo,13410
"2023-04-19 17:43:15",11871,"$24,511.00",completed,"Comprador Showroom",returning,"1× Babucha Sozna Negra - 32, 1× Jean Pekur - 36",2,transferencia,24510
"2023-04-19 17:48:15",11873,"$11,501.00",completed,"Comprador Showroom",returning,"1× Remera Lino Verde - Talle 1",1,tc-showroom,11500
"2023-04-19 17:46:05",11872,"$27,566.00",completed,"Comprador Showroom",returning,"1× Jean Pekur - 30, 1× Jean Pecat - 30",2,transferencia,27565
"2023-04-19 17:49:52",11874,"$9,811.00",completed,"Comprador Showroom",returning,"1× Babucha Sozna Negra - 32",1,efectivo,9810
"2023-04-20 15:46:17",11868,"$29,801.00",completed,"Gustavo Adolfo Alderete",new,"1× Jean Jufré - 30, 1× Pantalón Zelik Negro - 28",2,,29800
"2023-04-19 13:13:53",11855,"$14,155.95",completed,"Nahuel Peredo",new,"1× Jean Bilek - 32",1,,14154.95
"2023-04-20 11:19:59",11858,"$9,533.25",completed,"Pablo Cabezuelo",new,"1× Remeron Negro - Talle 2",1,,7398.25
"2023-04-20 10:55:05",11857,"$24,307.00",completed,"Sergio Losano",new,"1× Campera Milat Blue - Talle 3",1,,21800
"2023-04-18 16:43:32",11856,"$31,140.00",completed,"Agustina Rapachi",returning,"1× Túnica Perséfone Negra, 1× Remerón Baggy Negro - Talle 1",2,efectivo,31140
"2023-04-17 13:58:20",11814,"$9,355.60",completed,"Jeremias Clerici",new,"1× Musculosa Itka Negra - Talle 3",1,,6707.6
"2023-04-18 18:04:07",11854,"$30,600.00",completed,"Graciela Degrazia Giacomini",returning,"1× Pantalón Zelik Haba - 28, 1× Jean Kuma - 28",2,,29800
"2023-04-17 19:39:20",11824,"$66,150.00",completed,"Comprador Showroom",returning,"1× Pantalón Zelik Limón - 30, 1× Pantalón Zelik Haba - 30, 1× Pantalón Zelik Lavanda - 30, 1× Pantalón Zelik Negro - 30, 1× Camisa Índigo - Talle 1",5,efectivo,66150
"2023-04-17 19:41:40",11825,"$29,801.00",completed,"Comprador Showroom",returning,"1× Jean Kamba - 26, 1× Jean Kuma - 26",2,tc-showroom,29800
"2023-04-17 11:44:27",11787,"$14,901.00",completed,"Julian Quiroga",returning,"1× Pantalón Zelik Haba - 28",1,,14900
"2023-04-14 19:07:45",11771,"$15,667.40",completed,"Ignacio Izaguirre",new,"1× Jean Jufré - 32",1,,14075.4
"2023-04-15 20:26:21",11785,"$14,155.95",completed,"Comprador Showroom",returning,"1× Jean Kamba - 28",1,,14154.95
"2023-04-15 20:25:02",11784,"$22,801.00",completed,"Comprador Showroom",returning,"1× Jean Jufré - 32, 1× Remeron Negro - Talle 2",2,tc-showroom,22800
"2023-04-15 20:17:14",11781,"$21,801.00",completed,"Comprador Showroom",returning,"1× Jean Kabú - 30, 1× Buzo Wolek Grafito - Talle 1",2,tc-showroom,21800
"2023-04-15 20:19:21",11782,"$22,801.00",completed,"Comprador Showroom",returning,"1× Remeron Negro - Talle 1, 1× Jean Potkat - 30",2,tc-showroom,22800
"2023-04-15 20:22:54",11783,"$29,801.00",completed,"Comprador Showroom",returning,"1× Jean Pekur - 32, 1× Jean Polet - 32",2,tc-showroom,29800
"2023-04-15 20:10:59",11779,"$89,400.00",completed,"Comprador Showroom",returning,"1× Jean Jufré - 26, 1× Jean Kuma - 26, 1× Jean Melok - 26, 1× Jean Pukof - 32, 1× Jean Kabú - 32, 1× Jean Jufré - 32",6,tc-showroom,89400
"2023-04-15 20:15:12",11780,"$51,500.00",completed,"Comprador Showroom",returning,"1× Campera Milat Blue - Talle 2, 1× Buzo Wolek Grafito - Talle 2, 1× Jean Frenú - 32, 1× Remeron Negro - Talle 1",4,tc-showroom,51500
"2023-04-15 20:02:23",11778,"$14,901.00",completed,"Comprador Showroom",returning,"1× Jean Potkat - 30",1,tc-showroom,14900
"2023-04-15 20:28:04",11786,"$13,411.00",completed,"Comprador Showroom",returning,"1× Jean Pekur - 30",1,efectivo,13410
"2023-04-15 10:43:28",11777,"$15,700.00",completed,"Milagros Morsella",returning,"1× Jean Kabú - 30",1,,14900
"2023-04-15 01:31:58",11775,"$15,137.00",completed,"Francis Gae Rodriguez",new,"1× Parka Troyat Gris - Talle 2",1,,12900
"2023-04-15 00:21:42",11774,"$31,492.00",completed,"Lautaro Lovey",new,"1× Jean Kabú - 34, 1× Jean Frenú - 34",2,,29800
"2023-04-14 19:46:19",11772,"$13,411.00",completed,"Comprador Showroom",returning,"1× Jean Kamba - 38",1,efectivo,13410
"2023-04-14 19:50:02",11773,"$14,156.00",completed,"Comprador Showroom",returning,"1× Jean Jufré - 30",1,transferencia,14155
"2023-04-14 15:25:15",11769,"$17,137.00",completed,"Juan Blanco",new,"1× Pantalón Zelik Haba - 38",1,,14900
"2023-04-14 11:32:35",11765,"$44,700.00",completed,"Agustin Silva",returning,"1× Jean Pukof - 32, 1× Jean Potkat - 32, 1× Pantalón Zelik Negro - 34",3,,44700
"2023-04-13 21:10:07",11764,"$36,005.00",completed,"Mariano Casado",new,"1× Remeron Marino - Talle 2, 1× Remeron Negro - Talle 2, 1× Musculosa Itka Negra - Talle 3, 1× Jean Kamba - 38",4,,36005
"2023-04-13 20:07:41",11762,"$7,501.00",completed,"Comprador Showroom",returning,"1× Buzo Sabak - Talle 3",1,tc-showroom,7500
"2023-04-13 20:10:59",11763,"$32,800.00",completed,"Comprador Showroom",returning,"1× Campera Tolem - Talle 2, 1× Jean Kabú - 30",2,tc-showroom,32800
"2023-04-13 15:53:12",11761,"$14,901.00",completed,"Juan Ignacio Curtoni",returning,"1× Jean Jufré - 34",1,,14900
"2023-04-13 12:32:31",11759,"$7,201.00",completed,"Lucas Molina",new,"1× Musculosa Itka Negra - Talle 2",1,,7200
"2023-04-12 00:30:53",11752,"$15,667.40",completed,"Gaston Vilchez",returning,"1× Pantalón Zelik Negro - 36",1,,14075.4
"2023-04-12 18:31:34",11755,"$30,300.00",completed,"Comprador Showroom",returning,"1× Jean Jufré - 30, 1× Buzo Sabak - Talle 2, 1× Remeron Negro - Talle 1",3,tc-showroom,30300
"2023-04-12 18:33:11",11756,"$24,001.00",completed,"Comprador Showroom",returning,"1× Túnica Gaia - Verde",1,tc-showroom,24000
"2023-04-12 17:58:52",11754,"$25,600.00",completed,"Jorge Galibert",new,"1× Campera Temra - Talle 3, 1× Buzo Wolek Grafito - Talle 2",2,,24800
"2023-04-11 20:43:41",11751,"$14,915.00",completed,"Nahuel Caviglia",new,"1× Pantalón Zelik Haba - 30",1,,14115
"2023-04-12 09:16:30",11753,"$15,413.75",completed,"Ramiro Nicolás Perri",new,"1× Jean Potkat - 32",1,,14088.75
"2023-04-11 14:10:23",11750,"$31,200.00",completed,"Gonzalo de Latorre",returning,"1× Buzo Famma - Talle 3, 1× Remerón Flamé Negro - Talle 2, 1× Jean Frenú - 30",3,,31200
"2023-04-11 04:37:12",11748,"$15,415.65",completed,"Franco Ontivero",new,"1× Jean Kamba - 38",1,,14088.65
"2023-04-10 21:32:25",11746,"$15,700.00",completed,"Franco Escobar",new,"1× Jean Pekur - 32",1,,14900
"2023-04-10 20:27:27",11744,"$15,700.00",completed,"Giancarlo Paolini Chacin",returning,"1× Pantalón Zelik Negro - 32",1,,14900
"2023-04-10 21:02:26",11745,"$14,901.00",completed,"Ezequiel Prieto",new,"1× Jean Pecat - 30",1,,14900
"2023-04-10 19:32:45",11741,"$7,505.95",completed,"Comprador Showroom",returning,"1× Remeron Marino - Talle 1",1,,7504.95
"2023-04-10 19:37:35",11742,"$26,821.00",completed,"Comprador Showroom",returning,"1× Jean Melok - 32, 1× Pantalón Zelik Negro - 30",2,efectivo,26820
"2023-04-10 19:40:07",11743,"$14,801.00",completed,"Comprador Showroom",returning,"1× Remerón Flamé Negro - Talle 1, 1× Remerón Flamé Blanco - Talle 1",2,tc-showroom,14800
"2023-04-10 14:27:31",11732,"$14,901.00",completed,"juan pedro valentini",new,"1× Pantalón Zelik Negro - 36",1,,14900
"2023-04-09 14:52:22",11728,"$14,915.00",completed,"Federico Fernández",new,"1× Jean Pekur - 28",1,,14115
"2023-04-10 01:46:05",11729,"$15,700.00",completed,"Pablo Medina",new,"1× Jean Pecat - 38",1,,14900
"2023-04-09 13:03:14",11727,"$15,700.00",completed,"Facundo Logrippo",new,"1× Jean Kamba - 36",1,,14900
"2023-04-08 19:44:06",11722,"$29,801.00",completed,"Comprador Showroom",returning,"1× Jean Pekur - 34, 1× Jean Kamba - 36",2,tc-showroom,29800
"2023-04-08 19:45:57",11723,"$13,411.00",completed,"Comprador Showroom",returning,"1× Pantalón Zelik Haba - 26",1,efectivo,13410
"2023-04-08 19:48:12",11724,"$11,201.00",completed,"Comprador Showroom",returning,"1× Remerón Flamé Negro - Talle 1, 1× Pulsera Persefone",2,tc-showroom,11200
"2023-04-08 19:53:15",11725,"$21,375.95",completed,"Comprador Showroom",returning,"1× Pantalon Lino Crudo - Talle 1",1,,21374.95
"2023-04-07 19:54:22",11717,"$13,411.00",completed,"Comprador Showroom",returning,"1× Pantalón Zelik Negro - 32",1,efectivo,13410
"2023-04-07 19:55:58",11718,"$7,901.00",completed,"Comprador Showroom",returning,"1× Remeron Negro - Talle 1",1,tc-showroom,7900
"2023-04-07 19:58:08",11719,"$14,901.00",completed,"Comprador Showroom",returning,"1× Pantalón Zelik Haba - 28",1,tc-showroom,14900
"2023-04-07 20:02:02",11720,"$43,700.00",completed,"Comprador Showroom",returning,"1× Jean Kuma - 26, 1× Pantalón Zelik Rosa - 26, 1× Camisa Índigo - Talle 1",3,tc-showroom,43700
"2023-04-07 20:04:13",11721,"$29,801.00",completed,"Comprador Showroom",returning,"1× Jean Melok - 32, 1× Jean Jufré - 32",2,tc-showroom,29800
"2023-04-06 19:15:17",11711,"$22,501.00",completed,"Comprador Showroom",returning,"1× Kimono Cleo Summer",1,efectivo,22500
"2023-04-06 19:20:56",11712,"$29,801.00",completed,"Comprador Showroom",returning,"1× Jean Potkat - 28, 1× Pantalón Zelik Lavanda - 26",2,tc-showroom,29800
"2023-04-06 19:30:08",11714,"$14,901.00",completed,"Comprador Showroom",returning,"1× Jean Jufré - 34",1,tc-showroom,14900
"2023-04-06 19:37:35",11716,"$14,156.00",completed,"Comprador Showroom",returning,"1× Jean Tayib - 28, Black",1,transferencia,14155
"2023-04-06 16:45:04",11707,"$12,001.00",completed,"PEDRO JUAN SALAZAR IRAUSQUIN",new,"1× Piloto Yofle",1,,12000
"2023-04-06 14:55:33",11706,"$59,600.00",completed,"Micaela Serravalle",new,"1× Jean Frenú - 32, 1× Jean Jufré - 32, 1× Jean Pecat - 32, 1× Jean Melok - 32",4,,59600
"2023-04-06 12:32:08",11705,"$22,827.00",completed,"Maria Cecilia Borgogno",new,"1× Pantalón Egipto - Talle 2",1,,21500
"2023-04-05 19:29:52",11704,"$19,351.00",completed,"Comprador Showroom",returning,"1× Pantalón Egipto - Talle 2",1,efectivo,19350
"2023-04-04 15:17:47",11696,"$26,600.95",completed,"Daniela Perta",new,"1× Kimono Hades Cerro",1,,26599.95
"2023-04-04 17:42:07",11697,"$14,772.50",completed,"Giancarlo Paolini Chacin",new,"1× Jean Kamba - 30",1,,14122.5
"2023-04-05 11:00:15",11701,"$36,700.00",completed,"Angel Augusto Pasquale",returning,"1× Campera Milat Black - Talle 2, 1× Jean Jufré - 30",2,,36700
"2023-04-04 14:37:09",11695,"$28,750.00",completed,"facundo martinez",new,"1× Jean Pekur - 28, 1× Jean Fenat - 28",2,,28100
"2023-03-26 10:05:02",11495,"$11,568.15",completed,"Quintin Munuce",new,"1× Remeron Celeste - Talle 1, 1× Remeron Chicle - Talle 1",2,,9331.15
"2023-04-04 09:30:02",11693,"$8,637.00",completed,"Pablo Romero",new,"1× Remerón Flamé Negro - Talle 2",1,,7400
"2023-04-03 19:51:30",11692,"$21,801.00",completed,"Comprador Showroom",returning,"1× Campera Milat Blue - Talle 1",1,tc-showroom,21800
"2023-03-31 20:04:06",11670,"$14,008.70",completed,"Lucas Martin Urra",new,"1× Bermuda Toré - 30, 1× Remeron Gris - Talle 1",2,,14007.7
"2023-04-02 20:20:35",11689,"$14,155.95",completed,"Axel Paredes",returning,"1× Jean Kabú - 30",1,,14154.95
"2023-04-02 20:08:23",11688,"$31,438.00",completed,"Adriano Guglielmini",new,"1× Jean Frenú - 38, 1× Jean Jufré - 38",2,,29800
"2023-04-01 19:28:39",11681,"$14,901.00",completed,"Comprador Showroom",returning,"1× Jean Polet - 36",1,tc-showroom,14900
"2023-04-01 20:18:30",11682,"$66,975.00",completed,"Comprador Showroom",returning,"1× Pantalón Lino Negro - Talle 1, 1× Túnica Perséfone Negra, 1× Remerón Lino Negra - Talle 1, 1× Dollman Negro - Talle 1",4,transferencia,66975
"2023-04-01 20:21:56",11683,"$29,801.00",completed,"Comprador Showroom",returning,"1× Jean Kabú - 38, 1× Jean Pekur - 38",2,tc-showroom,29800
"2023-04-01 20:25:26",11684,"$44,300.00",completed,"Comprador Showroom",returning,"1× Pantalón Lino Negro - Talle 1, 1× Campera Milat Blue - Talle 1",2,tc-showroom,44300
"2023-04-01 20:27:23",11685,"$13,411.00",completed,"Comprador Showroom",returning,"1× Jean Kabú - 30",1,efectivo,13410
"2023-04-01 17:20:41",11679,"$23,450.00",completed,"Matias Ordoñez",new,"1× Pantalón Zelik Negro - 32, 1× Remeron Negro - Talle 2",2,,22800
