"2023-07-22 17:23:15",13200,"$51,300.00",completed,"LEANDRO OLIVO",new,"1× Jean Jufré - 32, 1× Jean Kuma - 32, 1× Remerón Flamé Lila - Talle 1, 1× Camisa Índigo - Talle 1",4,tc-showroom,51300
"2023-07-22 16:11:41",13199,"$16,245.95",completed,"alejandro montero",returning,"1× Jean Gamat - 30",1,,16244.95
"2023-07-22 15:54:33",13198,"$39,400.00",completed,"SANTIAGO LEZCANO",new,"1× Dollman Verde - Talle 2, 1× Remeron Negro - Talle 1, 1× Jean Pukof - 30",3,tc-showroom,39400
"2023-07-22 15:48:23",13197,"$13,320.00",completed,"SEBASTIAN GUAYARE",returning,"1× Tabaquera Negra, 1× Sobre Negro, 1× Remerón Flamé Lila - Talle 1, 1× Buzo Wolek Grafito - Talle 1",4,efectivo,13320
"2023-07-22 15:44:39",13196,"$52,400.00",completed,"SEBASTIAN GUAYARE",returning,"1× Jean Kamba - 28, 1× Pantalón Zelik Haba - 26, 1× Remerón Felipe Tostado",3,tc-showroom,52400
"2023-07-22 15:39:15",13195,"$15,390.00",completed,"JUAN VALDEZ",new,"1× Jean Bilek - 26",1,efectivo,15390
"2023-07-22 15:29:59",13194,"$59,800.00",completed,"NICOLAS LEJTMAN",new,"1× Pantalón Zelik Haba - 32, 2× Buzo Famma - Talle 1, 1× Dollman Negro - Talle 1, 1× Media Polera Gris - Talle 1",5,tc-showroom,59800
"2023-07-21 19:09:32",13189,"$59,580.00",completed,"CARLOS MALLA",new,"1× Jean Kamba - 34, 1× Pantalón Zelik Haba - 32, 1× Remerón Felipe Negro, 1× Dollman Ladrillo - Talle 2",4,efectivo,59580
"2023-07-21 19:06:52",13188,"$57,690.00",completed,"DARWIN VALERO",new,"1× Jean Kamba - 34, 1× Jean Kabú - 34, 1× Jean Gamat - 32, 1× Buzo Famma - Talle 3, 1× Buzo Wolek Grafito - Talle 1",5,efectivo,57690
"2023-07-21 19:02:15",13187,"$24,320.00",completed,"TOMAS CIFONE",new,"1× Jean Jufré - 32, 1× Remeron Negro - Talle 1",2,transferencia,24320
"2023-07-21 18:59:29",13186,"$34,200.00",completed,"AQUILES CRISTIANI",new,"1× Pantalón Zelik Cielo - 28, 1× Pantalón Zelik Negro - 26",2,tc-showroom,34200
"2023-07-21 15:38:05",13185,"$18,075.47",completed,"facundo luquet",new,"1× Jean Kabú - 30",1,,17100
"2023-07-20 19:07:33",13184,"$17,100.00",completed,"NICOLAS JASMINOY",new,"1× Jean Potkat - 32",1,tc-showroom,17100
"2023-07-20 19:04:14",13183,"$67,500.00",completed,"XUXA RAPACHI",returning,"1× Polerón Verde, 1× Campera Milat Black - Talle 3",2,tc-showroom,67500
"2023-07-20 19:01:14",13182,"$17,100.00",completed,"MIRTA ALI",returning,"1× Jean Polet - 32",1,tc-showroom,17100
"2023-07-20 18:56:49",13181,"$32,490.00",completed,"DIEGO VIÑOLO",new,"1× Jean Pekur - 34, 1× Jean Potkat - 34",2,transferencia,32490
"2023-07-20 18:54:17",13180,"$7,400.00",completed,"RICARDO TOLEDO",new,"1× Buzo Wolek Grafito - Talle 1, 1× Tabaquera Negra",2,tc-showroom,7400
"2023-07-20 03:21:51",13177,"$43,900.00",completed,"Franco Giedris",new,"1× Jean Gamat - 34, 1× Campera Milat Black - Talle 2",2,,43900
"2023-07-19 21:46:31",13176,"$34,200.00",completed,"Gaston Desmoures",returning,"1× Jean Frenú - 36, 1× Jean Kamba - 36",2,,34200
"2023-07-19 19:03:08",13174,"$15,390.00",completed,"AGUSTIN GIOVANNINI",new,"1× Jean Kamba - 28",1,efectivo,15390
"2023-07-19 19:01:47",13173,"$17,100.00",completed,"LUCIANO GIGLIA",new,"1× Pantalón Zelik Negro - 26",1,tc-showroom,17100
"2023-07-19 19:00:08",13172,"$18,200.00",completed,"MALENA BILBAO",new,"1× Remerón Felipe Bordó",1,tc-showroom,18200
"2023-07-19 18:54:05",13171,"$12,800.00",completed,"IGNACIO CALDINI",new,"1× Remerón Lino Negra - Talle 1",1,tc-showroom,12800
"2023-07-19 18:49:10",13170,"$16,380.00",completed,"MANUEL MUÑOZ",new,"1× Remerón Felipe Bordó",1,efectivo,16380
"2023-07-19 10:47:44",13169,"$43,900.00",completed,"Kevin Arrigone",new,"1× Campera Milat Blue - Talle 1, 1× Camisa Índigo - Talle 1, 1× Camisa Índigo - Talle 1",3,,43900
"2023-07-19 07:12:04",13167,"$17,598.24",completed,"Carlos Klement",returning,"1× Camisa Índigo - Talle 2, 1× Buzo Famma - Talle 1",2,,16173.78
"2023-07-19 06:51:47",13166,"$27,800.00",completed,"Pablo Piroso",new,"1× Campera Milat Blue - Talle 2",1,,26800
"2023-07-18 19:39:33",13164,"$9,317.16",completed,"Ivan Torres",new,"1× Buzo Wolek Grafito - Talle 1, 1× Buzo Wolek Grafito - Talle 1",2,,7400
"2023-07-18 18:59:30",13163,"$25,700.00",completed,"TERESITA SOTELINO",new,"1× Pantalón Corderoy Terra - Talle 1",1,tc-showroom,25700
"2023-07-18 18:56:39",13162,"$23,130.00",completed,"MATIAS SALGADO",new,"1× Pantalón Egipto - Talle 1",1,efectivo,23130
"2023-07-18 18:51:11",13161,"$24,100.00",completed,"MAXIMILIANO ARGENIO",returning,"1× Buzo Famma - Talle 3, 1× Buzo Famma - Talle 1, 1× Remerón Baggy Rosa - Talle 2, 1× Remerón Baggy Rosa - Talle 2",4,tc-showroom,24100
"2023-07-18 18:39:48",13160,"$17,100.00",completed,"JOSE IRAZOQUI",new,"1× Camisa Índigo - Talle 1, 1× Remerón Flamé Lila - Talle 2",2,tc-showroom,17100
"2023-07-18 18:32:29",13159,"$34,200.00",completed,"Amilcar Alonso",new,"1× Jean Kamba - 34, 1× Jean Jufré - 34",2,,34200
"2023-07-18 18:31:46",13158,"$40,700.00",completed,"EMANUEL FERNANDEZ",new,"1× Polerón Negro",1,tc-showroom,40700
"2023-07-18 18:29:15",13157,"$34,200.00",completed,"JOAQUIN MENDIGE",new,"1× Jean Gamat - 34, 1× Jean Bilek - 34",2,tc-showroom,34200
"2023-07-18 17:44:50",13156,"$28,321.25",completed,"Karen Brett",new,"1× Campera Milat Blue - Talle 2",1,,26800
"2023-07-18 17:24:21",13155,"$4,275.00",completed,"MATIAS VERA",returning,"1× Tabaquera Marrón, 1× Tabaquera Negra",2,transferencia,4275
"2023-07-18 17:11:31",13154,"$34,200.00",completed,"David alejandro Medina",new,"1× Jean Kamba - 32, 1× Pantalón Zelik Haba - 32",2,,34200
"2023-07-18 16:56:53",13153,"$26,296.88",completed,"Maximiliano Daniel Rotger",new,"1× Campera Lavanda - Talle 2",1,,24100
"2023-07-18 13:41:20",13152,"$24,101.00",completed,"Augusto Villaverde",new,"1× Campera Tolem - Talle 3, 1× Campera Malai - Talle 3",2,,24100
"2023-07-18 11:38:46",13145,"$33,100.00",completed,"Julio Estaba",new,"1× Buzo Wolek Grafito - Talle 1, 1× Buzo Wolek Grafito - Talle 2, 1× Pantalón Corderoy Arena - Talle 2",3,,33100
"2023-07-18 09:16:17",13143,"$41,705.00",completed,"Franco Granzotto",new,"1× Campera Milat Blue - Talle 2, 1× Camisa Índigo - Talle 2",2,,41705
"2023-07-17 22:12:05",13142,"$7,335.88",completed,"Gonzalo Rossello",new,"1× Sobre Marron, 1× Sobre Negro",2,,6300
"2023-07-17 21:15:24",13140,"$25,819.37",completed,"Facundo Oyola",new,"1× Pantalón Corderoy Terra - Talle 1",1,,24341.09
"2023-07-17 19:20:04",13139,"$15,391.00",completed,"Comprador Showroom",returning,"1× Jean Tayib - 36, Blue",1,efectivo,15390
"2023-07-17 19:18:12",13138,"$16,246.00",completed,"Comprador Showroom",returning,"1× Camisa Índigo - Talle 2, 1× Camisa Índigo - Talle 3",2,transferencia,16245
"2023-07-17 19:15:31",13137,"$39,600.00",completed,"Comprador Showroom",returning,"1× Remera Lino Negra - Talle 2, 1× Kimono Cleo",2,tc-showroom,39600
"2023-07-17 19:09:58",13136,"$34,204.75",completed,"Comprador Showroom",returning,"1× Dollman Negro - Talle 1, 1× Camisa Aure - Talle 2",2,transferencia,34204.75
"2023-07-17 19:02:57",13135,"$26,801.00",completed,"Comprador Showroom",returning,"1× Campera Milat Blue - Talle 1",1,tc-showroom,26800
"2023-07-17 18:56:24",13134,"$15,391.00",completed,"Comprador Showroom",returning,"1× Buzo Famma - Talle 1, 1× Camisa Índigo - Talle 1",2,efectivo,15390
"2023-07-17 18:11:56",13133,"$28,321.25",completed,"NOEL MORRONI",new,"1× Campera Milat Black - Talle 3",1,,26800
"2023-07-17 17:57:33",13132,"$6,301.00",completed,"Marcelo Mangini",new,"1× Sobre Marron, 1× Sobre Negro",2,,6300
"2023-07-17 15:03:34",13128,"$24,101.00",completed,"Juan Bonura",new,"1× Campera Tolem - Talle 4, 1× Camisa Índigo - Talle 3",2,,24100
"2023-07-17 13:26:01",13126,"$18,100.00",completed,"Matias Martínez Sabino",returning,"1× Jean Kabú - 36",1,,17100
"2023-07-17 13:10:01",13151,"$32,490.00",completed,"Comprador Showroom",returning,"1× Jean Jufré - 34, 1× Jean Kabú - 34",2,tc-showroom,32490
"2023-07-17 12:00:10",13122,"$22,895.95",completed,"Guido Fernández Marinone",returning,"1× Camisa Índigo - Talle 3, 1× Campera Tolem - Talle 4",2,,22894.95
"2023-07-17 11:57:28",13121,"$18,100.00",completed,"Julian Gabriel Galindez",new,"1× Jean Frenú - 36",1,,17100
"2023-07-17 09:59:26",13120,"$34,200.00",completed,"Silvina Farfán",new,"1× Jean Pekur - 38, 1× Jean Jufré - 38",2,,34200
"2023-07-16 22:43:42",13117,"$35,300.00",completed,"Rodrigo Gamboa",new,"1× Campera Milat Blue - Talle 2, 1× Remerón Flamé Lila - Talle 2, 1× Remerón Flamé Lila - Talle 1",3,,35300
"2023-07-16 19:00:33",13114,"$36,400.00",completed,"Marina Goldenberg",new,"1× Remerón Felipe Marino, 1× Remerón Felipe Bordó",2,,36400
"2023-07-16 18:19:31",13113,"$17,101.00",completed,"Bautista de la Riestra",new,"1× Camisa Índigo - Talle 2, 1× Remerón Flamé Lila - Talle 2",2,,17100
"2023-07-16 09:59:38",13111,"$24,101.00",completed,"Ezequiel Cardenas",new,"1× Campera Malai - Talle 3, 1× Campera Malai - Talle 3",2,,24100
"2023-07-15 18:51:59",13110,"$34,200.00",completed,"Comprador Showroom",returning,"1× Jean Kabú - 30, 1× Jean Pecat - 30",2,tc-showroom,34200
"2023-07-15 18:49:07",13109,"$65,520.00",completed,"Comprador Showroom",returning,"1× Sacón Sinaí Army",1,efectivo,65520
"2023-07-15 18:46:59",13108,"$17,101.00",completed,"Comprador Showroom",returning,"1× Jean Kamba - 32",1,tc-showroom,17100
"2023-07-15 18:43:20",13107,"$17,101.00",completed,"Comprador Showroom",returning,"1× Jean Tayib - 28, Blue",1,tc-showroom,17100
"2023-07-15 18:39:20",13106,"$42,800.00",completed,"Comprador Showroom",returning,"1× Jean Gamat - 32, 1× Pantalón Egipto - Talle 1",2,tc-showroom,42800
"2023-07-15 18:23:18",13105,"$16,246.00",completed,"Comprador Showroom",returning,"1× Jean Frenú - 32",1,transferencia,16245
"2023-07-15 15:23:24",13129,"$29,901.00",completed,"Comprador Showroom",returning,"1× Buzo Famma - Talle 3, 1× Jean Polet - 34",2,tc-showroom,29900
"2023-07-15 08:54:12",13103,"$18,240.00",completed,"Leonardo Morelli",returning,"1× Remerón Felipe Negro",1,,17240
"2023-07-14 18:51:10",13095,"$34,290.00",completed,"Comprador Showroom",returning,"1× Túnica Gaia - Verde, 1× Musculosa Itka Negra - Talle 1",2,efectivo,34290
"2023-07-14 18:48:24",13094,"$40,565.00",completed,"Comprador Showroom",returning,"1× Jean Kabú - 38, 1× Jean Frenú - 38, 1× Remerón Flamé Negro - Talle 2",3,transferencia,40565
"2023-07-14 18:45:44",13093,"$15,391.00",completed,"Comprador Showroom",returning,"1× Jean Jufré - 28",1,efectivo,15390
"2023-07-14 18:44:13",13092,"$16,246.00",completed,"Comprador Showroom",returning,"1× Jean Tayib - 30, Blue",1,transferencia,16245
"2023-07-14 18:42:17",13091,"$37,080.00",completed,"Comprador Showroom",returning,"1× Pantalón Zelik Cielo - 26, 1× Campera Tolem - Talle 1",2,efectivo,37080
"2023-07-14 18:39:34",13090,"$15,391.00",completed,"Comprador Showroom",returning,"1× Jean Jufré - 32",1,efectivo,15390
"2023-07-14 15:40:35",13089,"$30,400.00",completed,"Emiliano Pesoa",new,"1× Dollman Beige - Talle 1, 1× Remerón Felipe Tostado",2,,30400
"2023-07-14 02:02:50",13082,"$39,300.00",completed,"Francis Gae Rodriguez",new,"1× Collar Persefone, 1× Collar Golat, 1× Camisa Dante - Talle 2",3,,39300
"2023-07-13 19:23:29",13081,"$34,200.00",completed,"Comprador Showroom",returning,"1× Jean Tayib - 34, Blue, 1× Jean Kamba - 32",2,tc-showroom,34200
"2023-07-13 19:21:32",13080,"$15,391.00",completed,"Comprador Showroom",returning,"1× Jean Tayib - 30, Blue",1,efectivo,15390
"2023-07-13 19:11:41",13079,"$98,100.00",completed,"Comprador Showroom",returning,"1× Polerón Negro, 1× Jean Pecat - 32, 1× Jean Pukof - 32, 1× Remerón Flamé Negro - Talle 2, 1× Remerón Flamé Blanco - Talle 2, 1× Jean Kabú - 32",6,efectivo,98100
"2023-07-13 19:00:57",13078,"$40,700.00",completed,"Comprador Showroom",returning,"1× Polerón Lavanda",1,tc-showroom,40700
"2023-07-13 18:13:14",13075,"$17,101.00",completed,"MATIAS VERA",new,"1× Jean Jufré - 28",1,,17100
"2023-07-13 16:26:50",13069,"$17,101.00",completed,"Comprador Showroom",returning,"1× Camisa Índigo - Talle 3",1,tc-showroom,17100
"2023-07-13 15:46:17",13068,"$17,307.04",completed,"Manuel Perez Delgado",new,"1× Jean Tayib - 32, Blue",1,,16189.1
"2023-07-13 11:11:48",13067,"$19,416.93",completed,"Juan Calo",returning,"1× Jean Jufré - 38",1,,17100
"2023-07-12 22:13:44",13065,"$20,061.33",completed,"Lucas Ismael Neira",new,"1× Remerón Felipe Tostado",1,,18200
"2023-07-12 21:34:07",13064,"$34,200.00",completed,"Francisco Marzullo",returning,"1× Jean Gamat - 38, 1× Pantalón Zelik Negro - 38",2,,34200
"2023-07-12 18:43:52",13063,"$32,490.00",completed,"Comprador Showroom",returning,"1× Jean Gamat - 28, 1× Jean Kamba - 28",2,transferencia,32490
"2023-07-12 18:09:39",13062,"$18,578.28",completed,"Santiago Freire",new,"1× Jean Frenú - 34",1,,17100
"2023-07-12 16:23:44",13061,"$17,649.37",completed,"Martina Pitté",new,"1× Jean Pecat - 28",1,,16171.09
"2023-07-12 08:17:05",13057,"$18,075.47",completed,"Sergio Barreto",new,"1× Jean Bilek - 34",1,,17100
"2023-07-11 18:38:49",13054,"$20,251.00",completed,"Comprador Showroom",returning,"1× L'autre - Parfum",1,efectivo,20250
"2023-07-11 18:35:26",13053,"$16,246.00",completed,"Comprador Showroom",returning,"1× Jean Jufré - 32",1,transferencia,16245
"2023-07-11 18:32:52",13052,"$70,700.00",completed,"Comprador Showroom",returning,"1× Jean Frenú - 30, 1× Campera Milat Blue - Talle 1, 1× Campera Milat Black - Talle 1",3,tc-showroom,70700
"2023-07-11 18:15:54",13051,"$36,630.00",completed,"Comprador Showroom",returning,"1× Polerón Aqua",1,efectivo,36630
"2023-07-11 18:05:51",13050,"$34,200.00",completed,"Jose Damian Masso",returning,"1× Jean Kamba - 30, 1× Jean Polet - 30",2,,34200
"2023-07-10 21:51:59",13044,"$18,100.00",completed,"Mariano Carena",new,"1× Camisa Índigo - Talle 1",1,,17100
"2023-07-10 20:41:51",13043,"$17,101.00",completed,"Federico Arabia",new,"1× Jean Gamat - 30",1,,17100
"2023-07-10 18:56:11",13042,"$14,301.00",completed,"Comprador Showroom",returning,"1× Jean Pecat - 28",1,efectivo,14300
"2023-07-10 18:54:38",13041,"$14,301.00",completed,"Comprador Showroom",returning,"1× Jean Kamba - 36",1,efectivo,14300
"2023-07-10 18:52:36",13040,"$32,900.00",completed,"Comprador Showroom",returning,"1× Remerón Felipe Bordó, 1× Jean Kabú - 28",2,tc-showroom,32900
"2023-07-10 18:50:19",13039,"$36,100.00",completed,"Comprador Showroom",returning,"1× Polerón Aqua",1,transferencia,36100
"2023-07-10 13:20:52",13029,"$15,901.00",completed,"Martin Mikolajewski",new,"1× Jean Fenat - 36",1,,15900
"2023-07-10 13:03:03",13025,"$39,500.00",completed,"ORNELLA SGRILETTI",new,"1× Camisa Aure - Talle 2, 1× Remerón Felipe Tostado",2,,39500
"2023-07-10 10:51:49",13015,"$11,901.00",completed,"Juan Francisco Aparicio",returning,"1× Buzo Famma - Talle 2",1,,11900
"2023-07-10 01:20:01",13014,"$24,816.93",completed,"Bruno Rios",new,"1× Campera Temra - Talle 2",1,,22500
"2023-07-09 23:48:00",13013,"$17,378.28",completed,"Ramiro Goya",new,"1× Pantalón Zelik Cielo - 38",1,,15900
"2023-07-09 20:48:52",13011,"$15,901.00",completed,"DIEGO GALEOTE",returning,"1× Jean Kuma - 26",1,,15900
"2023-07-09 16:58:28",13008,"$16,055.00",completed,"Manuel Curia",new,"1× Jean Gamat - 32",1,,15055
"2023-07-09 13:04:35",13007,"$38,000.00",completed,"Ignacio Alsogaray",returning,"1× Polerón Crudo",1,,38000
"2023-07-09 07:15:15",13005,"$17,817.16",completed,"Rocío Malatesta",new,"1× Jean Pekur - 38",1,,15900
"2023-07-08 22:42:02",13004,"$16,900.00",completed,"Juan Ignacio Trombetta",new,"1× Pantalón Zelik Haba - 36",1,,15900
"2023-07-08 17:05:45",13002,"$16,055.00",completed,"Pamela Castro",new,"1× Jean Jufré - 30",1,,15055
"2023-07-08 13:05:38",13027,"$14,311.00",completed,"Comprador Showroom",returning,"1× Jean Kamba - 30",1,efectivo,14310
"2023-07-08 13:03:48",13026,"$34,000.00",completed,"Comprador Showroom",returning,"1× Remerón Felipe Bordó, 1× Remerón Felipe Marino",2,tc-showroom,34000
"2023-07-08 13:01:49",13024,"$34,200.00",completed,"Comprador Showroom",returning,"1× Polerón Crudo",1,efectivo,34200
"2023-07-08 12:59:23",13023,"$46,360.00",completed,"Comprador Showroom",returning,"1× Pantalón Zelik Negro - 34, 1× Remeron Negro - Talle 2, 1× Campera Milat Black - Talle 3",3,transferencia,46360
"2023-07-08 12:51:41",13021,"$14,311.00",completed,"Comprador Showroom",returning,"1× Jean Gamat - 30",1,efectivo,14310
"2023-07-08 12:49:41",13020,"$14,311.00",completed,"Comprador Showroom",returning,"1× Jean Potkat - 26",1,efectivo,14310
"2023-07-08 12:39:38",13018,"$7,111.00",completed,"Comprador Showroom",returning,"1× Remeron Negro - Talle 2",1,efectivo,7110
"2023-07-08 12:31:08",13016,"$38,400.00",completed,"Comprador Showroom",returning,"1× Jean Pecat - 34, 1× Campera Tival - Talle 4",2,tc-showroom,38400
"2023-07-08 10:24:32",13001,"$16,509.37",completed,"Alexis Toledo",new,"1× Jean Kuma - 34",1,,15031.09
"2023-07-07 18:50:53",12996,"$23,751.00",completed,"Comprador Showroom",returning,"1× Campera Milat Blue - Talle 1",1,transferencia,23750
"2023-07-07 10:58:47",12993,"$23,523.20",completed,"Rocio Bosñak",new,"1× Campera Roxa - Talle 1",1,,22500
"2023-07-07 05:31:03",12992,"$36,480.00",completed,"Hernán Gonzalez",new,"1× Campera Temra - Talle 2, 1× Jean Frenú - 32",2,,36480
"2023-07-06 18:46:34",12991,"$15,901.00",completed,"Comprador Showroom",returning,"1× Jean Polet - 32",1,tc-showroom,15900
"2023-07-06 18:45:12",12990,"$35,000.00",completed,"Comprador Showroom",returning,"1× Sweater Media Polera Combinado",1,efectivo,35000
"2023-07-06 18:43:44",12989,"$15,106.00",completed,"Comprador Showroom",returning,"1× Jean Jufré - 28",1,transferencia,15105
"2023-07-06 18:22:48",12988,"$15,106.00",completed,"Comprador Showroom",returning,"1× Jean Gamat - 32",1,transferencia,15105
"2023-07-06 18:18:54",12987,"$14,311.00",completed,"Comprador Showroom",returning,"1× Pantalón Zelik Rosa - 30",1,efectivo,14310
"2023-07-06 17:29:42",12985,"$18,830.66",completed,"Joaquin Cicetti",new,"1× Remerón Felipe Bordó",1,,17000
"2023-07-06 15:39:59",12984,"$16,947.74",completed,"Lourdes Langella",returning,"1× Jean Kabú - 38",1,,15008.01
"2023-07-06 13:26:45",12983,"$16,875.47",completed,"Facundo Vega",returning,"1× Jean Jufré - 30",1,,15900
"2023-07-06 12:25:48",12982,"$16,055.00",completed,"Javier Fernandez Diaz",returning,"1× Pantalón Zelik Negro - 34",1,,15055
"2023-07-06 09:55:54",12981,"$24,823.20",completed,"Narella Dussol",new,"1× Remeron Chicle - Talle 1, 1× Jean Jufré - 32",2,,23800
"2023-07-05 20:03:18",12980,"$15,105.95",completed,"José Otaegui",new,"1× Pantalón Zelik Haba - 32",1,,15104.95
"2023-07-05 19:13:09",12979,"$16,900.00",completed,"Facundo Gentile",new,"1× Jean Pekur - 36",1,,15900
"2023-07-05 18:16:38",12986,"$15,901.00",completed,"Comprador Showroom",returning,"1× Jean Kamba - 32",1,tc-showroom,15900
"2023-07-05 15:04:23",12978,"$16,926.30",completed,"Alessandro Calomino",new,"1× Jean Jufré - 30",1,,15009.14
"2023-07-05 11:22:50",12973,"$7,901.00",completed,"FRANCISCO MAINELLA",returning,"1× Remerón Flamé Blanco - Talle 1",1,,7900
"2023-07-05 11:20:56",12972,"$12,901.00",completed,"FRANCISCO MAINELLA",new,"1× Dollman Verde - Talle 1",1,,12900
"2023-07-04 19:30:12",12970,"$30,210.00",completed,"Alejandro Nicolas Yaryura Martinez",new,"1× Jean Frenú - 34, 1× Jean Pecat - 34",2,,30210
"2023-07-04 18:26:56",12969,"$9,976.00",completed,"Comprador Showroom",returning,"1× Remerón Baggy Rosa - Talle 1",1,transferencia,9975
"2023-07-04 18:26:03",12968,"$15,901.00",completed,"Comprador Showroom",returning,"1× Pantalón Zelik Rosa - 32",1,tc-showroom,15900
"2023-07-04 18:24:50",12967,"$14,311.00",completed,"Comprador Showroom",returning,"1× Pantalón Zelik Pardo - 30",1,efectivo,14310
"2023-07-04 18:22:18",12966,"$53,675.00",completed,"Comprador Showroom",returning,"1× Remerón Felipe Tostado, 1× Remerón Felipe Negro, 1× Campera Lavanda - Talle 2",3,transferencia,53675
"2023-07-04 18:15:13",12965,"$175,700.00",completed,"Comprador Showroom",returning,"1× Campera Tolem - Talle 2, 1× Pantalón Egipto - Talle 1, 1× Sacón Sinaí Army, 1× Remera Lino Beige - Talle 1, 1× Jean Kabú - 32, 1× Remera Lino Ladrillo - Talle 1, 1× Campera Francia - Talle 1",7,tc-showroom,175700
"2023-07-04 12:02:02",12964,"$30,210.00",completed,"Leandro Nicolau",returning,"1× Jean Jufré - 34, 1× Jean Kamba - 34",2,,30210
"2023-07-04 11:52:45",12963,"$16,700.00",completed,"Martin medina",returning,"1× Jean Potkat - 32",1,,15900
"2023-07-04 11:23:05",12962,"$25,800.00",completed,"JUAN FERNANDEZ",returning,"1× Campera Milat Blue - Talle 2",1,,25000
"2023-07-04 11:09:42",12961,"$31,800.00",completed,"Daniel Ramirez",new,"1× Jean Gamat - 34, 1× Jean Jufré - 34",2,,31800
"2023-07-04 00:37:30",12959,"$39,500.00",completed,"Felipe Moreno",new,"1× Campera Tival - Talle 2, 1× Remerón Felipe Tostado",2,,39500
"2023-07-03 21:35:50",12958,"$25,195.19",completed,"Luciano Forti",new,"1× Campera Milat Blue - Talle 2",1,,23673.94
"2023-07-03 20:13:38",12956,"$25,800.00",completed,"Lucas Di Bernardo",new,"1× Campera Milat Blue - Talle 2",1,,25000
"2023-07-03 19:29:22",12955,"$90,069.50",completed,"Comprador Showroom",returning,"1× Sacón Sinaí Negro, 1× Jean Tayib - 36, Blue, 1× Jean Kuma - 32",3,transferencia,90069.5
"2023-07-03 19:25:46",12954,"$15,106.00",completed,"Comprador Showroom",returning,"1× Pantalón Zelik Lavanda - 36",1,transferencia,15105
"2023-07-03 19:24:27",12953,"$13,595.45",completed,"Comprador Showroom",returning,"1× Jean Potkat - 28",1,efectivo,13594.45
"2023-07-03 19:22:42",12952,"$19,760.95",completed,"Comprador Showroom",returning,"1× Musculosa Itka Negra - Talle 2, 1× Dollman Beige - Talle 2",2,tc-showroom,19759.95
"2023-07-03 19:20:06",12951,"$6,755.45",completed,"Comprador Showroom",returning,"1× Remeron Negro - Talle 1",1,efectivo,6754.45
"2023-07-03 12:45:48",12935,"$17,378.28",completed,"Sergio Navarro",new,"1× Jean Potkat - 30",1,,15900
"2023-07-03 12:10:50",12934,"$15,901.00",completed,"Juan Diego Pocognoni",new,"1× Pantalón Zelik Haba - 36",1,,15900
"2023-07-03 11:57:51",12932,"$64,600.00",completed,"Francisco Russo",new,"1× Sacón Sinaí Negro",1,,64600
"2023-07-03 06:45:41",12931,"$34,000.00",completed,"Davi Peixoto de moura",new,"1× Remerón Felipe Tostado, 1× Remerón Felipe Negro",2,,34000
"2023-07-02 23:36:50",12930,"$38,000.00",completed,"Omar PEREIRA",returning,"1× Polerón Negro",1,,38000
"2023-07-02 18:26:03",12929,"$17,817.16",completed,"Andres Bertoni",new,"1× Jean Pekur - 30",1,,15900
"2023-07-02 13:44:06",12928,"$29,062.33",completed,"Alejandro Israel Morales",new,"1× Túnica Perséfone Blanca",1,,28000
"2023-07-02 03:31:09",12926,"$15,901.00",completed,"Lucas Bonzi",returning,"1× Jean Tayib - 34, Blue",1,,15900
"2023-07-01 22:14:42",12925,"$16,167.04",completed,"Franco Mazzei",new,"1× Jean Kamba - 34",1,,15049.1
"2023-07-01 18:33:13",12924,"$30,210.00",completed,"CRISTIAN MANSILLA",new,"1× Pantalón Zelik Negro - 26, 1× Jean Kamba - 26",2,transferencia,30210
"2023-07-01 18:31:11",12923,"$22,800.95",completed,"RICARDO TOLEDO",new,"1× Pantalón Corderoy Arena - Talle 2",1,tc-showroom,22799.95
"2023-07-01 18:29:34",12922,"$15,105.95",completed,"FABIANA BENITEZ",new,"1× Jean Bilek - 32",1,tc-showroom,15104.95
"2023-07-01 18:28:19",12921,"$15,106.00",completed,"LUCAS TOLOSA",new,"1× Jean Jufré - 30",1,transferencia,15105
"2023-07-01 18:26:51",12920,"$26,411.00",completed,"NICOLAS CARNEVALE",new,"1× Remera Lino Negra - Talle 1, 1× Jean Kamba - 28",2,transferencia,26410
"2023-07-01 18:23:30",12919,"$30,210.00",completed,"Jose Damian Masso",new,"1× Jean Tayib - 32, Blue, 1× Jean Kabú - 30",2,tc-showroom,30210
"2023-07-01 18:21:20",12918,"$15,106.00",completed,"NOEL ZAPATER",new,"1× Jean Tayib - 34, Blue",1,transferencia,15105
"2023-07-01 18:19:48",12917,"$54,300.00",completed,"GASTON LOIDI",new,"1× Jean Pukof - 30, 1× Jean Pecat - 30, 1× Campera Francia - Talle 1",3,tc-showroom,54300
"2023-07-01 18:17:01",12916,"$31,800.00",completed,"FRANCISCO GUILLEN",new,"1× Jean Pecat - 30, 1× Jean Jufré - 30",2,tc-showroom,31800
"2023-07-01 18:13:51",12915,"$14,311.00",completed,"VANINA DUBOIS",new,"1× Jean Jufré - 34",1,efectivo,14310
