"2022-07-31 23:54:52",8302,"$16,450.00",completed,"Juan Isoardi",returning,"1× JEAN PEKUR - 34, 1× JEAN KABÚ - 34",2,,15800
"2022-07-31 23:48:28",8301,"$4,901.00",completed,"Frank Humbria",new,"1× RIÑONERA MARRON",1,,4900
"2022-07-31 23:24:02",8299,"$8,482.55",processing,"Ximena Garcia",new,"1× JEAN POTKAT - 36",1,,7453.55
"2022-07-31 22:52:39",8298,"$8,482.55",completed,"Joaquin Collado",new,"1× JEAN BILEK - 28",1,,7453.55
"2022-07-30 23:21:52",8297,"$8,704.00",completed,"Facundo Soto",new,"1× JEAN BILEK - 30",1,,7900
"2022-07-30 21:06:03",8296,"$14,220.00",completed," ",new,"1× JEAN JUFRÉ - 34, 1× JEAN PEKUR - 36",2,efectivo,14220
"2022-07-30 21:05:18",8295,"$19,900.00",completed," ",new,"1× CAMPERA TIVAL - Talle 3, 1× JEAN POTKAT - 30",2,,19900
"2022-07-30 20:50:12",8294,"$19,901.00",completed,"Gonzalo Torres",new,"1× CAMPERA TIVAL - Talle 3, 1× JEAN POTKAT - 30",2,,19900
"2022-07-30 19:48:57",8293,"$15,010.00",completed," ",new,"1× JEAN BILEK - 36, 1× PANTALÓN ZELIK NEGRO - 34",2,,15010
"2022-07-30 19:30:22",8292,"$7,900.00",completed," ",new,"1× JEAN POLET - 32",1,,7900
"2022-07-30 19:25:08",8290,"$14,220.00",completed," ",new,"1× JEAN BILEK - 34, 1× JEAN PEKUR - 32",2,efectivo,14220
"2022-07-30 19:23:52",8289,"$17,800.00",completed," ",new,"1× JEAN FENAT - 30, 1× CAMPERA FOLKY NEGRA",2,,17800
"2022-07-30 19:22:58",8288,"$7,110.00",completed," ",new,"1× JEAN PEKUR - 30",1,efectivo,7110
"2022-07-30 19:20:55",8287,"$15,675.00",completed," ",new,"1× SWEATER MEDIA POLERA - Negro",1,,15675
"2022-07-30 19:19:33",8286,"$2,880.00",completed," ",new,"1× MUSCULOSA ITKA - Talle 3",1,efectivo,2880
"2022-07-30 19:16:43",8284,"$23,700.00",completed," ",new,"1× JEAN POLET - 26, 1× PANTALÓN ZELIK NEGRO - 24, 1× PANTALÓN ZELIK MENTA - 24",3,,23700
"2022-07-30 17:40:59",8283,"$15,010.95",completed,"Raul Testti",new,"1× JEAN FENAT - 28, 1× PANTALÓN ZELIK LIMÓN - 28",2,,15009.95
"2022-07-30 17:19:39",8278,"$16,307.70",completed,"Yamil Duarte",new,"1× JEAN MELOK - 38, 1× JEAN PUKOF - 38",2,,14941.7
"2022-07-29 21:32:41",8275,"$19,900.00",completed," ",new,"1× CAMPERA MILAT - Talle 2, 1× JEAN BILEK - 34",2,,19900
"2022-07-29 21:29:43",8274,"$7,505.00",completed," ",new,"1× JEAN POTKAT - 32",1,,7505
"2022-07-29 21:12:13",8273,"$10,450.00",completed,"Marcelo Daniel Nogueira",new,"1× REMERÓN BLANCO - Talle 2, 1× REMERÓN NEGRO - Talle 2",2,,9800
"2022-07-29 15:30:51",8272,"$12,017.50",completed,"Joaquin Santos",new,"1× CAMPERA MILAT - Talle 3",1,,11367.5
"2022-07-29 15:10:43",8271,"$8,550.00",completed,"Ysmael Roa",new,"1× JEAN PEKUR - 32",1,,7900
"2022-07-28 21:41:08",8269,"$7,110.00",completed," ",new,"1× JEAN PUKOF - 34",1,efectivo,7110
"2022-07-28 21:39:26",8268,"$15,930.00",completed," ",new,"1× JEAN PUKOF - 34, 1× REMERÓN CELESTE - Talle 1, 1× REMERÓN CHICLE - Talle 1",3,efectivo,15930
"2022-07-28 21:38:01",8267,"$4,410.00",completed," ",new,"1× REMERÓN CHICLE - Talle 2",1,efectivo,4410
"2022-07-28 19:16:42",8266,"$20,715.70",completed,"Gonzalo Lozano",new,"1× BABUCHA SOZNA VERDE - 32, 1× REMERÓN DIONISOS BLANCO - Talle 1, 1× PANTALÓN ZELIK ROSA - 26",3,,19509.7
"2022-07-28 18:31:48",8263,"$8,268.80",completed,"Matias Silva",new,"1× JEAN TAYIB - 32, Blue",1,,7464.8
"2022-07-28 18:11:58",8262,"$7,901.00",completed,"BRUNO Bassani",new,"1× JEAN JUFRÉ - 38",1,,7900
"2022-07-28 13:51:12",8259,"$22,800.00",completed," ",new,"1× KIMONO CLEO, 1× JEAN SKINNY KOBE - 36",2,,22800
"2022-07-28 13:47:50",8258,"$14,155.00",completed," ",new,"1× SACÓN MARRÓN - Talle 2",1,,14155
"2022-07-28 00:27:21",8257,"$17,701.00",completed,"Juan Manuel Jaime",returning,"1× REMERÓN MARINO - Talle 2, 1× REMERÓN CELESTE - Talle 2, 1× JEAN FRENÚ - 32",3,,17700
"2022-07-27 20:58:31",8256,"$23,700.00",completed," ",new,"1× JEAN POLET - 38, 1× JEAN MELOK - 38, 1× JEAN PEKUR - 38",3,,23700
"2022-07-27 18:17:24",8255,"$5,272.50",completed,"Sol maria Ongaro",new,"1× RIÑONERA NEGRA",1,,4622.5
"2022-07-27 18:16:26",8254,"$7,505.95",completed,"julian romero",new,"1× PANTALÓN ZELIK NEGRO - 34",1,,7504.95
"2022-07-27 00:41:35",8252,"$8,929.00",completed,"Ricardo Etcheverry",returning,"1× JEAN KABÚ - 34",1,,7900
"2022-07-26 22:26:19",8251,"$9,990.00",completed," ",new,"1× MUSCULOSA ITKA - Talle 1, 1× JEAN PEKUR - 26",2,efectivo,9990
"2022-07-26 22:25:24",8250,"$15,800.00",completed," ",new,"1× JEAN JUFRÉ - 26, 1× JEAN BILEK - 28",2,,15800
"2022-07-26 22:23:23",8249,"$7,900.00",completed," ",new,"1× JEAN MELOK - 28",1,,7900
"2022-07-26 22:20:56",8248,"$4,900.00",completed," ",new,"1× REMERÓN BLANCO - Talle 1",1,,4900
"2022-07-26 22:16:26",8247,"$31,255.00",completed," ",new,"1× PANTALÓN LINO CRUDO - Talle 2, 1× PARKA TROYAT VERDE - Talle 2, 1× PARKA TROYAT GRIS - Talle 2, 1× MUSCULOSA ITKA - Talle 1",4,,31255
"2022-07-26 21:47:46",8246,"$7,505.00",completed," ",new,"1× JEAN POTKAT - 34",1,,7505
"2022-07-26 21:46:28",8245,"$12,800.00",completed," ",new,"1× JEAN PUKOF - 34, 1× REMERÓN BLANCO - Talle 2",2,,12800
"2022-07-26 04:05:07",8244,"$16,601.00",completed,"pablo lopez biason",new,"1× JEAN POTKAT - 28, 1× JEAN FENAT - 28",2,,15800
"2022-07-26 02:40:31",8242,"$7,901.00",completed,"Bernardo Samaniego",returning,"1× JEAN POLET - 36",1,,7900
"2022-07-26 00:38:43",8241,"$12,017.50",completed,"Juan Jauregui",new,"1× CAMPERA MILAT - Talle 1",1,,11367.5
"2022-07-25 21:25:21",8226,"$20,464.90",completed,"Facundo Garcia",new,"1× JEAN PEKUR - 34, 1× JEAN MARBLE - 32, 1× REMERÓN NEGRO - Talle 2",3,,19622.9
"2022-07-25 02:20:36",8168,"$10,925.00",completed,"Tomas Bautista Alovero",new,"1× REMERÓN MARINO - Talle 2, 1× REMERÓN BLANCO - Talle 2",2,,9800
"2022-07-24 19:28:26",8166,"$7,505.95",completed,"Emanuel Speranza",returning,"1× PANTALÓN ZELIK NEGRO - 30",1,,7504.95
"2022-07-23 21:07:12",8165,"$15,010.00",completed," ",new,"1× PANTALÓN ZELIK NEGRO - 34, 1× JEAN PEKUR - 36",2,,15010
"2022-07-23 21:05:30",8164,"$43,740.00",completed," ",new,"1× JEAN SKINNY KOBE - 32, 1× BUZO WOLEK ALMENDRA - Talle 2, 1× CAMPERA MILAT - Talle 1, 1× JEAN PEKUR - 30, 1× SACÓN MARRÓN - Talle 1",5,efectivo,43740
"2022-07-23 19:27:49",8160,"$7,900.00",completed," ",new,"1× PANTALÓN ZELIK NEGRO - 28",1,,7900
"2022-07-23 19:26:55",8159,"$13,860.00",completed," ",new,"1× JEAN PUKOF - 32, 1× BABUCHA SOZNA NEGRA - 32",2,efectivo,13860
"2022-07-23 19:24:49",8158,"$25,365.00",completed," ",new,"1× KIMONO CLEO, 1× BUZO SABAK - Talle 3, 1× BUZO WOLEK ALMENDRA - Talle 2",3,,25365
"2022-07-23 19:23:59",8157,"$7,900.00",completed," ",new,"1× JEAN PEKUR - 32",1,,7900
"2022-07-22 21:40:24",8151,"$33,915.00",completed," ",new,"1× PANTALÓN ZELIK MENTA - 28, 1× JEAN KABÚ - 28, 1× JEAN PUKOF - 30, 1× CAMPERA MILAT - Talle 1",4,,33915
"2022-07-22 21:39:42",8150,"$14,900.00",completed," ",new,"1× SACÓN NEGRO - Talle 1",1,,14900
"2022-07-22 16:03:34",8081,"$7,505.95",completed,"Sebastian Gayo",new,"1× JEAN BILEK - 38",1,,7504.95
"2022-07-22 15:15:49",8073,"$8,929.00",completed,"Lautaro Vergara Fernandez",new,"1× JEAN KABÚ - 28",1,,7900
"2022-07-22 14:37:41",8072,"$5,550.00",completed,"Sebastián Reyes",new,"1× RIÑONERA GRIS",1,,4900
"2022-07-21 23:12:21",8055,"$9,550.00",completed,"Facundo Pastorella",new,"1× CAMPERA FOLKY NEGRA",1,,8900
"2022-07-21 20:31:20",8053,"$20,800.00",completed," ",new,"1× REMERA VENK NEGRA - Talle 1, 1× REMERA VENK NEGRA - Talle 2, 1× REMERA SHEK BLANCO - Talle 2, 1× JEAN KABÚ - 32",4,,20800
"2022-07-21 20:30:21",8052,"$7,900.00",completed," ",new,"1× JEAN KAMBA - 26",1,,7900
"2022-07-21 20:27:02",8051,"$7,125.00",completed," ",new,"1× BABUCHA SOZNA NEGRA - 38",1,,7125
"2022-07-21 16:01:11",8050,"$8,550.00",completed,"Alejandro Gabriel Salazar",new,"1× JEAN PEKUR - 32",1,,7900
"2022-07-21 13:21:26",8049,"$8,704.00",completed,"Mathias Castellanos",new,"1× PANTALÓN ZELIK NEGRO - 30",1,,7900
"2022-07-21 11:55:32",8047,"$8,694.00",completed,"Ayelén Cabañas Cevilán",new,"1× JEAN POLET - 36",1,,7900
"2022-07-21 00:36:56",8045,"$6,893.00",completed,"Werfil Lopez Davicino",new,"1× BUZO WOLEK ALMENDRA - Talle 1",1,,5900
"2022-07-20 22:08:39",8044,"$15,098.35",completed,"giuliana terre",new,"1× SACÓN MARRÓN - Talle 2",1,,14105.35
"2022-07-20 22:01:13",8043,"$7,900.00",completed," ",new,"1× JEAN POLET - 34",1,,7900
"2022-07-20 21:11:38",8042,"$11,025.00",completed,"Ignacio Floricich",new,"1× CAMPERA MALAI - Talle 3",1,,9900
"2022-07-20 14:22:42",8040,"$15,627.50",completed,"Miguel Velasco",new,"1× JEAN JUFRÉ - 38, 1× JEAN PEKUR - 38",2,,14977.5
"2022-07-20 03:23:18",8039,"$8,268.80",completed,"Julián Benigni",new,"1× JEAN BILEK - 30",1,,7464.8
"2022-07-19 23:48:38",8038,"$16,601.00",completed,"Ignacio Suarez",new,"1× JEAN PEKUR - 32, 1× JEAN FENAT - 32",2,,15800
"2022-07-19 22:25:40",8037,"$9,405.95",completed,"Victorio Almada",new,"1× PARKA TROYAT GRIS - Talle 2",1,,9404.95
"2022-07-19 21:45:33",8036,"$8,694.00",completed,"nicolas rodriguez",new,"1× JEAN PEKUR - 34",1,,7900
"2022-07-19 21:30:29",8035,"$10,545.00",completed," ",new,"1× JEAN PUKOF - 32, 1× MUSCULOSA ITKA - Talle 1",2,,10545
"2022-07-19 21:27:10",8034,"$22,800.00",completed," ",new,"1× KIMONO CLEO, 1× PANTALÓN ZELIK MENTA - 36",2,,22800
"2022-07-19 19:33:18",8033,"$15,550.00",completed,"Marcia Barassi Benes",new,"1× POLERÓN NEGRO",1,,14900
"2022-07-19 16:14:18",8032,"$7,505.95",completed,"Eugenia Lira",new,"1× JEAN BILEK - 34",1,,7504.95
"2022-07-19 13:04:30",8031,"$7,901.00",completed,"Felicitas Alonso",new,"1× JEAN BILEK - 36",1,,7900
"2022-07-18 20:33:43",8030,"$7,900.00",completed," ",new,"1× JEAN PUKOF - 30",1,,7900
"2022-07-18 20:31:53",8029,"$15,627.50",completed,"Daniel Elorza",returning,"1× JEAN BILEK - 36, 1× JEAN POTKAT - 36",2,,14977.5
"2022-07-18 15:58:48",8028,"$8,929.00",completed,"Sergio Daniel Paz",new,"1× JEAN BILEK - 30",1,,7900
"2022-07-18 06:48:18",8027,"$15,098.35",completed,"Shirley Rey",new,"1× SACÓN MARRÓN - Talle 2",1,,14105.35
"2022-07-17 23:50:52",8026,"$8,704.00",completed,"Gonzalo Gómez",new,"1× JEAN PEKUR - 32",1,,7900
"2022-07-16 21:24:06",8023,"$7,505.00",completed," ",new,"1× JEAN JUFRÉ - 26",1,,7505
"2022-07-16 21:22:42",8022,"$13,410.00",completed," ",new,"1× KIMONO CLEO",1,efectivo,13410
"2022-07-16 21:22:03",8021,"$7,900.00",completed," ",new,"1× JEAN PUKOF - 32",1,,7900
"2022-07-16 21:17:38",8020,"$5,696.00",completed,"Diego Antonelli",new,"1× RIÑONERA NEGRA",1,,4900
"2022-07-16 20:22:46",8019,"$8,929.00",completed,"Yasapis Virginia",new,"1× PANTALÓN ZELIK NEGRO - 30",1,,7900
"2022-07-16 18:54:48",8017,"$8,482.55",completed,"Matias Gonzalez",new,"1× JEAN BILEK - 38",1,,7453.55
"2022-07-16 15:43:16",8016,"$7,901.00",completed,"Ezequiel Pereira",returning,"1× PANTALÓN ZELIK NEGRO - 28",1,,7900
"2022-07-16 01:30:04",8015,"$8,482.55",completed,"Marcos German Martin",returning,"1× PANTALÓN ZELIK NEGRO - 38",1,,7453.55
"2022-07-16 00:44:26",8014,"$16,184.00",completed,"Antonino Campostrini",new,"1× KIMONO CLEO",1,,14900
"2022-07-15 22:01:13",8013,"$15,010.00",completed," ",new,"1× JEAN FENAT - 26, 1× JEAN BILEK - 28",2,,15010
"2022-07-15 21:58:33",8012,"$7,110.00",completed," ",new,"1× JEAN LORT - 32",1,efectivo,7110
"2022-07-15 21:52:38",8011,"$7,505.00",completed," ",new,"1× PANTALÓN ZELIK NEGRO - 28",1,,7505
"2022-07-15 15:16:02",8010,"$12,377.55",completed,"Thomas Muñiz",new,"1× CAMPERA MILAT - Talle 3",1,,11348.55
"2022-07-14 22:44:04",8009,"$14,155.95",completed,"Alejandro De la torre",new,"1× KIMONO CLEO",1,,14154.95
"2022-07-14 22:00:13",8008,"$7,900.00",completed," ",new,"1× JEAN KABÚ - 36",1,,7900
"2022-07-14 21:56:01",8007,"$7,505.00",completed," ",new,"1× JEAN JUFRÉ - 26",1,,7505
"2022-07-14 21:55:10",8006,"$7,110.00",completed," ",new,"1× PANTALÓN ZELIK NEGRO - 26",1,efectivo,7110
"2022-07-14 21:46:59",8005,"$15,405.00",completed," ",new,"1× JEAN FRENÚ - 26, 1× JEAN BILEK - 30, 1× JEAN MELOK - 30",3,,15405
"2022-07-14 13:06:03",8003,"$17,800.00",completed," ",new,"1× JEAN KAMBA - 34, 1× CAMPERA MALAI - Talle 2",2,,17800
"2022-07-14 13:05:00",8002,"$7,900.00",completed," ",new,"1× PANTALÓN ZELIK NEGRO - 30",1,,7900
"2022-07-14 13:02:46",8001,"$20,300.00",completed," ",new,"1× JEAN BILEK - 32, 1× JEAN LORT - 28, 1× REMERÓN GRIS - Talle 1",3,,20300
"2022-07-14 13:00:49",8000,"$7,900.00",completed," ",new,"1× JEAN BILEK - 32",1,,7900
"2022-07-14 12:57:26",7999,"$15,800.00",completed," ",new,"1× JEAN POTKAT - 32, 1× PANTALÓN ZELIK NEGRO - 30",2,,15800
"2022-07-14 03:19:16",7998,"$23,624.00",completed,"Juan Pineda",returning,"1× KIMONO CLEO, 1× JEAN FENAT - 36",2,,22800
"2022-07-13 15:26:46",7994,"$8,150.00",completed,"julieta bellagamba",new,"1× JEAN POTKAT - 30",1,,7500
"2022-07-13 14:25:30",7993,"$6,229.00",completed,"Luciano Nahas Combina",new,"1× REMERÓN DIONISOS BLANCO - Talle 1",1,,5200
"2022-07-13 00:36:54",7990,"$8,150.00",completed,"Leonardo López",new,"1× JEAN JUFRÉ - 34",1,,7500
"2022-07-12 20:13:52",7989,"$8,529.00",completed,"Eduardo Krobath",new,"1× JEAN PEKUR - 26",1,,7500
"2022-07-12 20:04:30",7988,"$7,742.50",completed,"Daniel Elorza",new,"1× JEAN JUFRÉ - 36",1,,7092.5
"2022-07-12 15:46:33",7987,"$8,304.00",completed,"Iara Zamora",new,"1× PANTALÓN ZELIK LIMÓN - 38",1,,7500
"2022-07-12 14:53:47",7986,"$5,550.00",completed,"christian liu",new,"1× RIÑONERA NEGRA",1,,4900
"2022-07-12 13:03:13",7985,"$7,501.00",completed,"Diego Sebastian Galeote",new,"1× PANTALÓN ZELIK MENTA - 24",1,,7500
"2022-07-12 10:36:20",7984,"$7,501.00",completed,"Diego Abiricha",new,"1× JEAN POTKAT - 34",1,,7500
"2022-07-12 05:50:17",7983,"$16,025.00",completed,"Emanuel Dosio",new,"1× KIMONO CLEO",1,,14900
"2022-07-12 02:37:57",7982,"$8,150.00",completed,"Tomás Tarramasco",new,"1× PANTALÓN ZELIK NEGRO - 30",1,,7500
"2022-07-11 21:50:04",7980,"$7,742.50",completed,"Juan Saidon",new,"1× JEAN POTKAT - 32",1,,7092.5
"2022-07-11 21:17:40",7979,"$13,500.00",completed," ",new,"1× JEAN BILEK - 30, 1× JEAN POTKAT - 30",2,efectivo,13500
"2022-07-11 18:16:40",7978,"$15,801.00",completed,"Pablo Koll",new,"1× JEAN FENAT - 34, 1× JEAN PEKUR - 34",2,,15000
"2022-07-11 17:52:06",7977,"$7,501.00",completed,"Johan Mendoza Cordero",new,"1× JEAN PEKUR - 34",1,,7500
"2022-07-10 21:32:33",7975,"$11,025.00",completed,"Juan Escobar",new,"1× CAMPERA MALAI - Talle 4",1,,9900
"2022-07-10 16:56:19",7973,"$8,150.00",completed,"Santiago Portugal Barella",new,"1× JEAN BILEK - 30",1,,7500
"2022-07-10 15:28:08",7969,"$8,529.00",completed,"Sergio Larregola",new,"1× JEAN KAMBA - 34",1,,7500
"2022-07-10 14:58:38",7968,"$12,001.00",completed,"maria ayelen ralinqueo",new,"1× CAMPERA MILAT - Talle 1",1,,12000
"2022-07-10 04:47:24",7966,"$13,192.00",completed,"Gastón Balbuena",new,"1× CAMPERA MILAT - Talle 1",1,,12000
"2022-07-09 22:58:03",7965,"$29,801.00",completed,"Hernán Arrué",new,"1× KIMONO CLEO, 1× SACÓN MARRÓN - Talle 1",2,,29800
"2022-07-09 22:12:43",7964,"$22,400.00",completed," ",new,"1× SACÓN MARRÓN - Talle 1, 1× JEAN KAMBA - 32",2,,22400
"2022-07-09 22:11:53",7963,"$15,000.00",completed," ",new,"1× PANTALÓN ZELIK NEGRO - 32, 1× JEAN PEKUR - 32",2,,15000
"2022-07-09 21:44:30",7961,"$7,742.50",completed,"Nicolas Ordoqui",returning,"1× JEAN JUFRÉ - 38",1,,7092.5
"2022-07-09 21:43:11",7960,"$12,060.00",completed," ",new,"1× PANTALÓN ZELIK NEGRO - 30, 1× BUZO WOLEK GRAFITO - Talle 2",2,efectivo,12060
"2022-07-09 21:42:41",7959,"$15,650.00",completed,"Jesús Cordero",returning,"1× JEAN FENAT - 32, 1× JEAN PUKOF - 32",2,,15000
"2022-07-09 21:41:09",7958,"$22,500.00",completed," ",new,"1× JEAN BILEK - 30, 1× JEAN POTKAT - 30, 1× PANTALÓN ZELIK MENTA - 28",3,,22500
"2022-07-09 20:59:37",7957,"$8,304.00",completed,"Fernando Kritzfel",new,"1× JEAN BILEK - 36",1,,7500
"2022-07-09 20:54:32",7956,"$25,700.00",completed," ",new,"1× PANTALÓN LINO CRUDO - Talle 1, 1× CAMPERA FOLKY NEGRA, 1× BABUCHA SOZNA VERDE - 30",3,,25700
"2022-07-09 20:52:57",7955,"$29,070.00",completed," ",new,"1× KIMONO CLEO, 1× PANTALÓN ZELIK NEGRO - 28, 1× PARKA TROYAT VERDE - Talle 2",3,efectivo,29070
"2022-07-09 20:51:15",7954,"$28,350.00",completed," ",new,"1× JEAN JUFRÉ - 34, 1× CAMPERA MILAT - Talle 3, 1× REMERÓN GRIS - Talle 1, 1× JEAN PUKOF - 34",4,efectivo,28350
"2022-07-09 20:50:06",7953,"$15,000.00",completed," ",new,"1× PANTALÓN ZELIK NEGRO - 30, 1× JEAN BILEK - 30",2,,15000
"2022-07-09 20:36:03",7952,"$15,022.35",completed,"Rodrigo Burela",new,"1× JEAN FENAT - 38, 1× JEAN MARBLE - 36",2,,14209.35
"2022-07-09 14:05:53",7951,"$28,310.95",completed,"Yamir Yubel Santos Vargas",new,"1× KIMONO CLEO, 1× SACÓN MARRÓN - Talle 2",2,,28309.95
"2022-07-09 04:28:14",7950,"$8,294.00",completed,"Bernardo Samaniego",new,"1× JEAN KABÚ - 34",1,,7500
"2022-07-08 21:00:25",7948,"$7,500.00",completed," ",new,"1× JEAN POLET - 32",1,,7500
"2022-07-08 20:58:30",7947,"$7,125.00",completed," ",new,"1× PANTALÓN ZELIK NEGRO - 34",1,,7125
"2022-07-08 20:57:24",7946,"$7,125.00",completed," ",new,"1× JEAN BILEK - 30",1,,7125
"2022-07-08 20:55:58",7945,"$6,750.00",completed," ",new,"1× JEAN LORT - 28",1,efectivo,6750
"2022-07-08 20:52:04",7944,"$6,750.00",completed," ",new,"1× PANTALÓN ZELIK NEGRO - 24",1,efectivo,6750
"2022-07-08 20:50:46",7943,"$13,500.00",completed," ",new,"1× JEAN BILEK - 30, 1× JEAN POTKAT - 30",2,efectivo,13500
"2022-07-08 20:44:42",7942,"$6,750.00",completed," ",new,"1× PANTALÓN ZELIK NEGRO - 30",1,efectivo,6750
"2022-07-08 17:19:50",7882,"$15,450.00 $0.00",refunded,"Hector Dubon Sikaffy",returning,"1× JEAN PEKUR - 32, 1× JEAN KABÚ - 32",0,,'-15450
"2022-07-08 16:40:59",7937,"$7,501.00",completed,"Federico Brites",new,"1× JEAN POTKAT - 30",1,,7500
"2022-07-08 16:35:35",7935,"$8,529.00",completed,"MARIANO SEBASTIAN POSSEMATO",new,"1× JEAN PEKUR - 34",1,,7500
"2022-07-07 22:51:01",7929,"$25,450.00",completed,"Juan Fernandez",new,"1× KIMONO CLEO, 1× CAMPERA MALAI - Talle 4",2,,24800
"2022-07-07 20:59:09",7927,"$8,102.55",completed,"Matias jose Sanchez",new,"1× JEAN BILEK - 36",1,,7073.55
"2022-07-07 20:55:08",7926,"$7,125.00",completed," ",new,"1× JEAN KAMBA - 30",1,,7125
"2022-07-07 20:53:51",7925,"$13,500.00",completed," ",new,"1× PANTALÓN ZELIK NEGRO - 34, 1× JEAN PUKOF - 32",2,efectivo,13500
"2022-07-07 20:51:21",7924,"$7,500.00",completed," ",new,"1× JEAN BILEK - 32",1,,7500
"2022-07-07 14:52:26",7904,"$7,501.00",completed,"Camilo Bernal",returning,"1× JEAN POLET - 30",1,,7500
"2022-07-07 14:49:20",7893,"$7,501.00 $0.00",refunded,"Camilo Bernal",returning,"1× JEAN POLET - 30",0,,'-7501
"2022-07-07 04:01:31",7894,"$14,155.95",completed,"Ricardo Marquez",new,"1× KIMONO CLEO",1,,14154.95
"2022-07-07 02:47:42",7893,"$7,501.00 $0.00",refunded,"Camilo Bernal",returning,"1× JEAN POLET - 30",1,,7500
"2022-07-06 22:24:53",7892,"$8,150.00",completed,"Luca Patpatian",new,"1× JEAN PUKOF - 34",1,,7500
"2022-07-06 20:48:35",7891,"$6,750.00",completed," ",new,"1× JEAN JUFRÉ - 34",1,efectivo,6750
"2022-07-06 20:47:10",7890,"$7,125.00",completed," ",new,"1× JEAN SKINNY KOBE - 30",1,,7125
"2022-07-06 20:45:56",7889,"$13,500.00",completed," ",new,"1× JEAN POTKAT - 30, 1× JEAN POLET - 30",2,efectivo,13500
"2022-07-06 20:44:50",7888,"$7,500.00",completed," ",new,"1× JEAN POTKAT - 34",1,,7500
"2022-07-06 19:23:25",7887,"$7,501.00",completed,"DANIEL HUGO ALVAREZ",new,"1× JEAN PEKUR - 32",1,,7500
"2022-07-06 16:45:41",7885,"$15,550.00",completed,"Matias Ravagnan",new,"1× POLERÓN ORQUIDEA",1,,14900
"2022-07-06 00:15:16",7883,"$9,405.95",completed,"Romulo Beck",new,"1× PARKA TROYAT GRIS - Talle 2",1,,9404.95
"2022-07-06 00:11:25",7882,"$15,450.00 $0.00",refunded,"Hector Dubon Sikaffy",new,"1× JEAN PEKUR - 32, 1× JEAN KABÚ - 32",2,,15000
"2022-07-05 19:26:11",7878,"$7,950.00",completed,"Milagros Morsella",new,"1× JEAN PEKUR - 26",1,,7500
"2022-07-05 14:24:11",7877,"$7,125.95",completed,"Lautaro Peralla",new,"1× JEAN PEKUR - 34",1,,7124.95
"2022-07-04 21:19:34",7872,"$7,125.95",completed,"Jimena Macías",new,"1× PANTALÓN ZELIK MENTA - 32",1,,7124.95
"2022-07-04 17:26:36",7870,"$7,950.00",completed,"Manuel Garcia Batallan",returning,"1× JEAN PEKUR - 32",1,,7500
"2022-07-04 13:22:21",7868,"$8,529.00",completed,"Ignacio Chia",new,"1× JEAN PEKUR - 34",1,,7500
"2022-07-04 12:36:09",7866,"$16,125.00",completed,"Martin Gorizzizzo",new,"1× JEAN KABÚ - 32, 1× JEAN PEKUR - 32",2,,15000
"2022-07-04 04:11:49",7865,"$4,275.95",completed,"Nahuel Riveros",new,"1× RIÑONERA MARRON",1,,4274.95
"2022-07-04 03:14:52",7864,"$10,473.75",completed,"Francisco Gutierrez",new,"1× CAMPERA MALAI - Talle 4",1,,9348.75
"2022-07-04 01:27:34",7862,"$10,929.00",completed,"Marcos Lezcano",returning,"1× CAMPERA MILAT - Talle 3",1,,9900
"2022-07-04 00:43:38",7861,"$15,318.75",completed,"Pablo Daniel Sayres",new,"1× PANTALÓN ZELIK NEGRO - 34, 1× JEAN KAMBA - 34",2,,14193.75
"2022-07-03 23:39:17",7860,"$7,501.00",completed,"Daniel Altamirano",new,"1× JEAN MARBLE - 34",1,,7500
"2022-07-03 19:53:30",7859,"$8,950.00",completed,"Noelia Silguero",new,"1× PARKA TROYAT GRIS - Talle 1",1,,8500
"2022-07-03 03:18:32",7857,"$4,501.00",completed,"Giovanni Andres Del Bono",new,"1× RIÑONERA NEGRA",1,,4500
"2022-07-02 20:33:58",7856,"$8,501.00",completed,"Miguel Marin",new,"1× PARKA TROYAT VERDE - Talle 2",1,,8500
"2022-07-02 18:34:15",7855,"$13,500.00",completed," ",new,"1× JEAN KABÚ - 34, 1× JEAN PEKUR - 34",2,efectivo,13500
"2022-07-02 18:22:24",7854,"$7,125.00",completed," ",new,"1× JEAN KABÚ - 32",1,,7125
"2022-07-02 16:51:09",7853,"$19,106.00",completed,"Juan Martín Skolak",new,"1× JEAN FRENÚ - 34, 1× BUZO WOLEK GRAFITO - Talle 2, 1× REMERÓN GRIS - Talle 1",3,,17900
"2022-07-02 16:40:56",7852,"$15,318.75",completed,"Nikki Daniels",new,"1× JEAN SKINNY KOBE - 34, 1× JEAN PEKUR - 32",2,,14193.75
"2022-07-02 14:13:30",7851,"$4,702.50",completed,"Martin Forre",new,"1× REMERÓN GRIS - Talle 1",1,,4252.5
"2022-07-02 01:39:30",7850,"$15,625.00",completed,"Marcos Lezcano",new,"1× KIMONO CLEO",1,,14500
"2022-07-01 17:29:32",7848,"$7,888.80",completed,"Fabián Romero",returning,"1× JEAN MARBLE - 32",1,,7084.8
"2022-07-01 01:55:52",7846,"$7,501.00",completed,"Raul Vasquez",new,"1× PANTALÓN ZELIK MENTA - 30",1,,7500
