"2023-10-30 13:06:12",14868,"$19,500.00",completed,"TOMAS MARIN",new,"1× Bermuda Kuban - 32",1,tc-showroom,19500
"2023-10-30 11:13:22",14860,"$48,000.00",completed,"Francisco Donattini",new,"1× Jean Kamba - 34, 1× Jean Kabú - 34",2,,48000
"2023-10-30 10:45:58",14859,"$7,097.51",completed,"SEBASTIAN FRAYSSE",returning,"1× Remeron Chicle - Talle 2",1,,5700
"2023-10-29 18:46:27",14857,"$24,929.61",completed,"Fermin Iturralde",new,"1× Jean Kamba - 38",1,,22800
"2023-10-28 18:58:50",14856,"$21,600.00",completed,"RICARDO TOLEDO",new,"1× Jean Tayib - 34, Blue",1,efectivo,21600
"2023-10-28 18:49:03",14854,"$39,150.00",completed,"FRANCISCO ROMERO",new,"1× Bermuda Toré - 30, 1× Jean Frenú - 28",2,efectivo,39150
"2023-10-28 18:22:25",14850,"$24,000.00",completed,"CARLA DEPAOLI",new,"1× Jean Tayib - 34, Blue",1,tc-showroom,24000
"2023-10-28 18:20:18",14849,"$24,000.00",completed,"MARIA LUCIANI",new,"1× Jean Polet - 26",1,tc-showroom,24000
"2023-10-28 18:16:56",14848,"$24,000.00",completed,"MARIA CAROLINA VILASECA",new,"1× Jean Bilek - 26",1,tc-showroom,24000
"2023-10-28 18:13:22",14847,"$19,700.00",completed,"SOFIA BRECCIA",new,"1× Bermuda Yambé - 34",1,tc-showroom,19700
"2023-10-28 18:10:28",14846,"$35,100.00",completed,"XUXA CLIENTA",new,"1× Bermuda Yambé - 30, 1× Short Índigo - 28",2,efectivo,35100
"2023-10-28 18:07:14",14845,"$18,525.00",completed,"EMANUEL DOS SANTOS",new,"1× Bermuda Toré - 28",1,transferencia,18525
"2023-10-28 18:03:21",14844,"$110,260.00",completed,"CRISTIAN MILLAN",new,"1× Bermuda Yambé - 26, 1× Jean Polet - 26, 1× Jean Pekur - 26, 1× Jean Jufré - 26, 1× Pantalón Corderoy Arena - Talle 1",5,tc-showroom,110260
"2023-10-28 17:29:33",14843,"$47,000.00",completed,"Francis Gae Rodriguez",returning,"1× Remerón Dionisos Negro - Talle 1, 1× Remerón Dionisos Cactus - Talle 1",2,,47000
"2023-10-28 13:38:15",14841,"$25,474.02",completed,"Angel Augusto Pasquale",returning,"1× Bermuda Toré - 32, 1× Tabaquera Marrón",2,,24000
"2023-10-27 18:53:49",14840,"$25,200.00",completed,"XUXA CHIVO",new,"1× Pantalón Barna - 36",1,efectivo,25200
"2023-10-27 18:51:24",14839,"$50,900.00",completed,"FACUNDO SANCEVERINO",new,"1× Remerón Kaló Negra - Talle 1, 1× Remerón Kaló Crudo - Talle 1, 1× Short Kaló - Talle 2",3,tc-showroom,50900
"2023-10-27 18:46:13",14837,"$17,138.00",completed,"VIC MASTANDREA",new,"1× Musculosa Itka Negra - Talle 2, 1× Remerón Baggy Rosa - Talle 2",2,transferencia,17138
"2023-10-27 18:42:16",14836,"$5,240.00",completed,"ANA CLIENTA",new,"1× Jean Polet - 30",1,tc-showroom,5240
"2023-10-27 18:37:24",14834,"$12,000.00",completed,"PATRICIA ETCHEMAITE",new,"1× Buzo Famma - Talle 2",1,tc-showroom,12000
"2023-10-27 18:28:49",14833,"$99,300.00",completed,"GUILLERMO DIDIEGO",new,"1× Camisa Goet - Talle 1, 1× Jean Gamat - 36, 1× Pantalón Zelik Negro - 34, 1× Jean Kamba - 26",4,tc-showroom,99300
"2023-10-27 16:52:51",14819,"$20,200.00",completed,"Hugo Ariel Bustos",new,"1× Remerón Flamé Negro - Talle 1, 1× Remerón Flamé Lila - Talle 2",2,,19000
"2023-10-27 12:42:40",14806,"$7,201.00",completed,"axel cacheiro",new,"1× Buzo Wolek Grafito - Talle 1",1,,7200
"2023-10-27 11:43:24",14805,"$48,001.00",completed,"Georgina Bergandi",new,"1× Jean Frenú - 38, 1× Jean Kabú - 38",2,,48000
"2023-10-27 00:46:02",14803,"$13,651.00",completed,"César Emanuel Martinez",new,"1× Pantalón Zelik Haba - 38",1,,13650
"2023-10-26 20:43:52",14801,"$10,700.00",completed,"Martin Barvie",new,"1× Remerón Flamé Negro - Talle 1",1,,9500
"2023-10-26 18:56:14",14800,"$48,000.00",completed,"BETTINA PALADINO",new,"1× Jean Gamat - 38, 1× Jean Kabú - 38",2,tc-showroom,48000
"2023-10-26 18:54:28",14799,"$17,100.00",completed,"SERGIO CASTILLO",new,"1× Remerón Kaló Negra - Talle 2",1,transferencia,17100
"2023-10-26 18:52:35",14798,"$18,000.00",completed,"SILVIA CAVADINI",new,"1× Remerón Kaló Crudo - Talle 2",1,tc-showroom,18000
"2023-10-26 18:49:38",14797,"$31,500.00",completed,"MARGARITA GOMEZ",new,"1× Campera Tival - Talle 2",1,tc-showroom,31500
"2023-10-26 18:42:48",14796,"$48,000.00",completed,"JOAN BENITO BENITEZ",new,"1× Jean Kabú - 34, 1× Jean Frenú - 34",2,tc-showroom,48000
"2023-10-26 18:39:49",14795,"$32,800.00",completed,"MONICA LINARES",new,"1× Remerón Kaló Oliva - Talle 1, 1× Collar Blakay, 1× Anillo Persefone",3,tc-showroom,32800
"2023-10-26 18:28:18",14794,"$26,129.61",completed,"Santiago Cami",new,"1× Pantalón Zelik Negro - 34",1,,24000
"2023-10-26 17:12:33",14786,"$25,001.00",completed,"Leonardo Espíndola",returning,"1× Dollman Verde - Talle 1",1,,25000
"2023-10-26 11:43:16",14746,"$21,629.61",completed,"Nicolás De Udaeta Maradini",new,"1× Short Índigo - 34",1,,19500
"2023-10-25 18:51:16",14743,"$48,000.00",completed,"MATIAS MOGNI",new,"1× Jean Fenat - 28, 1× Jean Kamba - 28",2,tc-showroom,48000
"2023-10-25 18:49:03",14742,"$31,500.00",completed,"MARIANA STRAUSS",new,"1× Campera Malai - Talle 1",1,tc-showroom,31500
"2023-10-25 09:29:55",14729,"$48,000.00",completed,"Ezequiel Moreno",new,"1× Pantalón Zelik Negro - 30, 1× Jean Kabú - 30",2,,48000
"2023-10-24 19:19:51",14728,"$5,701.00",completed,"Leonardo Espíndola",new,"1× Remeron Chicle - Talle 2",1,,5700
"2023-10-24 15:35:10",14718,"$125,457.00",completed,"BRAULIO REZENDE",new,"1× Remera Lino Beige - Talle 2, 1× Pantalón Albán Negro - Talle 1, 1× Pantalón Corderoy Arena - Talle 1, 1× Bermuda Toré - 30, 1× Bermuda Kuban - 30, 1× Remerón Kaló Negra - Talle 1, 1× Anillo Persefone",7,transferencia,125457
"2023-10-24 12:10:38",14716,"$9,201.00",completed,"Vladimir Roshchupkin",returning,"1× Collar Nek",1,,9200
"2023-10-23 23:26:04",14714,"$26,129.61",completed,"Ezequiel Mc Govern",new,"1× Pantalón Zelik Negro - 36",1,,24000
"2023-10-23 18:40:34",14713,"$24,000.00",completed,"TEO ALBERTI",new,"1× Jean Jufré - 30",1,tc-showroom,24000
"2023-10-23 17:33:05",14712,"$41,501.00",completed,"Vladimir Roshchupkin",new,"1× Short Índigo - 34, 1× Camisa Índigo - Talle 2",2,,41500
"2023-10-23 11:54:18",14709,"$72,000.00",completed,"Pilar Bonetto",new,"1× Jean Jufré - 34, 1× Jean Pekur - 34, 1× Jean Potkat - 34",3,,72000
"2023-10-23 11:19:44",14707,"$27,337.77",completed,"martin salazar tobares",returning,"1× Jean Jufré - 34",1,,24000
"2023-10-22 17:27:25",14702,"$43,500.00",completed,"Agustin Bericiartua",new,"1× Jean Pukof - 28, 1× Bermuda Yambé - 28",2,,43500
"2023-10-22 13:50:32",14700,"$25,200.00",completed,"Ramiro Mourin",new,"1× Jean Polet - 28",1,,24000
"2023-10-22 10:18:06",14698,"$34,300.00",completed,"Amilcar Alonso",returning,"1× Pantalón Barna - 32, 1× Sobre Negro",2,,34300
"2023-10-22 02:26:36",14697,"$45,600.00",completed,"Giancarlo Paolini Chacin",returning,"1× Jean Potkat - 30, 1× Jean Kamba - 30",2,,45600
"2023-10-21 23:12:21",14696,"$25,610.51",completed,"Pablo Rumualdo",new,"1× Pantalón Zelik Negro - 38",1,,24000
"2023-10-21 18:37:26",14695,"$48,100.00",completed,"RAMIRO GARCIA",new,"1× Jean Kamba - 28, 1× Campera Malai - Talle 1",2,tc-showroom,48100
"2023-10-21 18:28:17",14694,"$26,163.00",completed,"JORGE VEGA",new,"1× Remerón Baggy Rosa - Talle 2, 1× Bermuda Chaina Negra - 38",2,transferencia,26163
"2023-10-21 18:26:52",14693,"$24,000.00",completed,"DARWIN VALERO",new,"1× Jean Gamat - 38",1,tc-showroom,24000
"2023-10-21 18:24:43",14692,"$21,600.00",completed,"DARWIN VALERO",new,"1× Jean Kabú - 38",1,efectivo,21600
"2023-10-21 18:22:23",14691,"$11,875.00",completed,"VIVIANA SACONE",new,"1× Collar Blakay",1,transferencia,11875
"2023-10-21 18:20:39",14690,"$9,040.00",completed,"ROQUE ESPINDOLA",new,"1× Remerón Baggy Rosa - Talle 2",1,tc-showroom,9040
"2023-10-21 18:11:38",14689,"$43,200.00",completed,"RENE RIVA",new,"1× Jean Polet - 30, 1× Jean Jufré - 30",2,efectivo,43200
"2023-10-21 18:08:13",14688,"$24,750.00",completed,"NADIN SMITH",new,"1× Aros Goute, 1× Jean Kamba - 28",2,transferencia,24750
"2023-10-21 18:06:21",14687,"$21,600.00",completed,"PEDRO BOGADO",new,"1× Jean Jufré - 36",1,transferencia,21600
"2023-10-21 18:02:03",14686,"$21,600.00",completed,"LEANDRO SANDONATO",new,"1× Jean Kabú - 30",1,transferencia,21600
"2023-10-21 15:52:15",14685,"$55,640.00",completed,"Franco Russell Bell",new,"1× Pantalón Zelik Cielo - 34, 1× Pantalón Corderoy Terra - Talle 2, 1× Jean Kabú - 34",3,,55640
"2023-10-21 13:17:50",14683,"$72,000.00",completed,"Martin Suarez Diaz",new,"1× Jean Jufré - 30, 1× Jean Kabú - 30, 1× Jean Pekur - 32",3,,72000
"2023-10-21 01:54:35",14682,"$58,482.00",completed,"Andres Arias Blanco",new,"1× Remerón Dionisos Negro - Talle 2, 1× Remerón Felipe Marino, 1× Remerón Dionisos Cactus - Talle 2",3,,58482
"2023-10-20 21:04:36",14681,"$19,581.43",completed,"MAICO GONZÁLEZ",new,"1× Remerón Kaló Crudo - Talle 2",1,,16900
"2023-10-20 20:53:01",14680,"$19,009.02",completed,"Leandro Vecchio",new,"1× Remerón Kaló Negra - Talle 1",1,,16900
"2023-10-20 19:47:42",14679,"$43,500.00",completed,"Martin medina",returning,"1× Short Índigo - 32, 1× Jean Pekur - 32",2,,43500
"2023-10-20 19:43:04",14678,"$19,501.00",completed,"Martin Barvie",returning,"1× Bermuda Toré - 34",1,,19500
"2023-10-20 19:40:53",14676,"$19,501.00",completed,"Martin Barvie",returning,"1× Bermuda Toré - 34",1,,19500
"2023-10-20 18:39:45",14675,"$10,000.00",completed,"RAMIRO RODRIGUEZ NIETO",new,"1× Poncho Érebo",1,tc-showroom,10000
"2023-10-20 18:37:16",14674,"$24,000.00",completed,"JULIA ARGUELLO",new,"1× Jean Kamba - 34",1,tc-showroom,24000
"2023-10-20 18:33:38",14673,"$25,700.00",completed,"ANA BEATRIZ BRATTI",new,"1× Pantalón Corderoy Terra - Talle 2",1,tc-showroom,25700
"2023-10-20 18:03:13",14672,"$39,000.00",completed,"Alejo Sanchez",returning,"1× Bermuda Kuban - 34, 1× Short Índigo - 32",2,,39000
"2023-10-20 17:58:48",14670,"$41,900.00",completed,"Martin Barvie",new,"1× Remerón Flamé Negro - Talle 1, 1× Remerón Kaló Crudo - Talle 1, 1× Musculosa Itka Oliva - Talle 2",3,,41900
"2023-10-20 16:01:27",14665,"$17,255.00",completed,"Marcelo Valin",new,"1× Remerón Kaló Negra - Talle 2",1,,16055
"2023-10-20 15:58:57",14663,"$16,901.00",completed,"Fernando Javier Raponi",returning,"1× Remerón Kaló Oliva - Talle 1",1,,16900
"2023-10-20 14:09:27",14652,"$48,000.00",completed,"Martin Sternari",returning,"1× Jean Kamba - 32, 1× Jean Pekur - 32",2,,48000
"2023-10-20 11:44:19",14646,"$17,729.61",completed,"Manuel Mungo",new,"1× Pantalón Zelik Haba - 38",1,,15600
"2023-10-20 11:20:58",14645,"$27,746.50",completed,"Facundo Hernández",new,"1× Campera Lavanda - Talle 1",1,,25555
"2023-10-20 10:56:34",14644,"$25,200.00",completed,"Gaston Mourin",new,"1× Jean Pekur - 28",1,,24000
"2023-10-20 09:48:30",14643,"$48,001.00",completed,"FRANCO DAMATO",returning,"1× Jean Bilek - 30, 1× Jean Jufré - 30",2,,48000
"2023-10-20 09:01:41",14642,"$25,200.00",completed,"Catalina Brandes",returning,"1× Jean Pukof - 26",1,,24000
"2023-10-19 22:33:12",14639,"$43,501.00",completed,"sebastian robles",returning,"1× Jean Jufré - 34, 1× Bermuda Kuban - 34",2,,43500
"2023-10-19 21:57:47",14638,"$38,000.00",completed,"Gonzalo Man",returning,"1× Poncho Érebo",1,,38000
"2023-10-19 19:40:11",14637,"$24,205.26",completed,"Carlos Venegas Benites",new,"1× Jean Kamba - 30",1,,22800
"2023-10-19 19:27:30",14636,"$33,800.00",completed,"Fernando Javier Raponi",new,"1× Remerón Kaló Crudo - Talle 1, 1× Remerón Kaló Arena - Talle 1",2,,33800
"2023-10-19 18:34:15",14630,"$5,850.00",completed,"SIRIO RIFAHI",new,"1× Bermuda Toré - 32",1,tc-showroom,5850
"2023-10-19 18:27:34",14629,"$48,100.00",completed,"CELESTE MONTENGRO",new,"1× Jean Jufré - 30, 1× Campera Malai - Talle 1",2,tc-showroom,48100
"2023-10-19 18:22:21",14628,"$48,000.00",completed,"GONZALO BERRUETTA",new,"1× Jean Bilek - 36, 1× Jean Jufré - 36",2,tc-showroom,48000
"2023-10-19 18:18:44",14627,"$50,400.00",completed,"GONZALO GIL",new,"1× Remeron Celeste - Talle 2, 1× Remeron Chicle - Talle 2, 1× Bermuda Yambé - 34, 1× Bermuda Toré - 34",4,tc-showroom,50400
"2023-10-19 18:15:17",14626,"$17,500.00",completed,"PAULA MINGRONE",new,"1× Short Ontario Cielo - 30",1,tc-showroom,17500
"2023-10-19 15:41:41",14621,"$34,450.00",completed,"sergio D San Ciriaco",returning,"1× Kimono Cleo",1,,33250
"2023-10-19 15:12:25",14619,"$33,310.00",completed,"sergio D San Ciriaco",new,"1× Remerón Kaló Crudo - Talle 2, 1× Remerón Kaló Oliva - Talle 2",2,,32110
"2023-10-19 12:13:26",14610,"$33,801.00",completed,"Gonzalo de Latorre",returning,"1× Remerón Kaló Crudo - Talle 1, 1× Remerón Kaló Negra - Talle 1",2,,33800
"2023-10-19 10:54:36",14605,"$49,200.00",completed,"Maximiliano Fontenla",new,"1× Jean Pekur - 34, 1× Jean Polet - 34",2,,48000
"2023-10-19 03:25:14",14603,"$31,050.00",completed,"Marcos Gimenez",new,"1× Saco Jaipur - Talle 2",1,,31050
"2023-10-18 22:29:00",14602,"$25,636.48",completed,"Emiliano Robledo",returning,"1× Jean Kamba - 32",1,,24000
"2023-10-18 20:20:22",14601,"$14,372.76",completed,"Gastón Adrian Gonzalez",new,"1× Pantalón Zelik Lavanda - 34",1,,12967.5
"2023-10-18 18:54:57",14600,"$44,900.00",completed,"RAMIRO RODRIGUEZ NIETO",new,"1× Pantalón Barna - 32, 1× Remerón Kaló Crudo - Talle 1",2,tc-showroom,44900
"2023-10-18 18:52:45",14599,"$8,000.00",completed,"VALENTIN PERONI",new,"1× Short Ontario - 38",1,transferencia,8000
"2023-10-18 18:48:16",14598,"$9,500.00",completed,"PABLO CELORIA",new,"1× Remerón Flamé Blanco - Talle 2",1,tc-showroom,9500
"2023-10-18 18:45:43",14597,"$17,990.00",completed,"ANA MARIA",new,"1× Pantalón Corderoy Arena - Talle 3",1,tc-showroom,17990
"2023-10-18 17:06:30",14588,"$48,441.00",completed,"sofia breccia",new,"1× Pantalón Corderoy Terra - Talle 3, 1× Pantalón Zelik Pardo - 36, 1× Pantalón Zelik Rosa - 36",3,,48440
"2023-10-18 15:13:47",14585,"$48,000.00",completed,"sirio rifahi",new,"1× Jean Polet - 38, 1× Jean Potkat - 38",2,,48000
"2023-10-18 14:48:37",14584,"$17,991.00",completed,"Arwin Calderón",new,"1× Pantalón Corderoy Terra - Talle 1",1,,17990
"2023-10-18 14:44:00",13890,"$30,761.86 $0.00",refunded,"Omar Ojeda",returning,"1× Pantalón Barna - 38",0,,'-30761.86
"2023-10-18 14:04:54",14581,"$25,200.00",completed,"Noelia Dans",new,"1× Jean Kamba - 26",1,,24000
"2023-10-17 21:42:04",14576,"$45,600.00",completed,"Walter Ramon López",new,"1× Jean Kabú - 34, 1× Jean Kamba - 34",2,,45600
"2023-10-17 18:45:54",14574,"$21,600.00",completed,"ANTONELLA QUARLERI",new,"1× Jean Polet - 26",1,transferencia,21600
"2023-10-17 18:42:12",14573,"$24,000.00",completed,"ANTONELLA QUARLERI",new,"1× Jean Jufré - 26",1,tc-showroom,24000
"2023-10-17 12:28:54",14572,"$34,135.00",completed,"Renata Bonetto",new,"1× Campera Tival - Talle 1, 1× Pantalón Zelik Rosa - 36",2,,34135
"2023-10-17 01:26:54",14571,"$26,794.36",completed,"Charis Parramón",new,"1× Jean Kabú - 28",1,,24000
"2023-10-16 22:37:34",14570,"$56,500.00",completed,"Guido FRONTERA",new,"1× Jean Potkat - 36, 1× Remerón Flamé Negro - Talle 1, 1× Jean Kabú - 34",3,,56500
"2023-10-16 22:30:31",14568,"$48,925.00",completed,"Bibiana BALLADARES",new,"1× Pantalón Albán Arena - Talle 2, 1× Bermuda Toré - 38",2,,48925
"2023-10-16 22:15:38",14567,"$40,551.00",completed,"Máximo Diaz Arevalo",new,"1× Pantalón Zelik Lavanda - 32, 1× Campera Lavanda - Talle 1",2,,40550
"2023-10-16 22:01:11",14566,"$26,901.00",completed,"Erasmo Estefanell pradás",new,"1× Campera Cielo - Talle 1",1,,26900
"2023-10-16 20:37:40",14565,"$29,352.08",completed,"Carlos Klement",returning,"1× Camisa Dante - Talle 2",1,,27300
"2023-10-16 16:43:21",14561,"$25,405.26",completed,"Emanuel Gracia",new,"1× Jean Jufré - 30",1,,24000
"2023-10-16 13:31:15",14560,"$62,740.00",completed,"Jesus Alejandro Fajardo Betancourt",new,"1× Remeron Celeste - Talle 2, 1× Jean Kabú - 36, 1× Jean Kamba - 36, 1× Remerón Baggy Rosa - Talle 2",4,,62740
"2023-10-16 10:08:23",14556,"$38,903.50",completed,"Romina Martinez",new,"1× Pantalón Zelik Cielo - 34, 1× Pantalón Zelik Lavanda - 32, 1× Pantalón Zelik Rosa - 32",3,,38902.5
"2023-10-16 07:20:14",14555,"$25,200.00",completed,"Nicolas Nuñez",new,"1× Jean Kamba - 36",1,,24000
"2023-10-16 03:49:56",14554,"$23,691.00",completed,"Diego García",new,"1× Pantalón Corderoy Arena - Talle 2, 1× Remeron Celeste - Talle 2",2,,23690
"2023-10-15 21:36:45",14552,"$12,968.50",completed,"Franco Zoppolo",new,"1× Pantalón Zelik Haba - 38",1,,12967.5
"2023-10-15 14:28:45",14551,"$67,500.00",completed,"Juan Manuel Valinotto",new,"1× Jean Polet - 32, 1× Jean Jufré - 34, 1× Bermuda Kuban - 32",3,,67500
"2023-10-15 13:09:59",14546,"$37,500.00",completed,"Oriana Tirapu",new,"1× Musculosa Itka Terra - Talle 2, 1× Camisa Índigo - Talle 2",2,,37500
"2023-10-15 09:24:23",14545,"$14,741.00",completed,"Celeste Montenegro",new,"1× Remeron Chicle - Talle 2, 1× Remerón Baggy Rosa - Talle 2",2,,14740
"2023-10-14 22:16:07",14544,"$26,129.61",completed,"Tomas Descalzo",new,"1× Jean Kamba - 32",1,,24000
"2023-10-14 18:32:28",14543,"$19,500.00",completed,"GUSTAVO CHAPARRO",returning,"1× Bermuda Toré - 30",1,tc-showroom,19500
"2023-10-14 18:29:51",14542,"$15,210.00",completed,"GUSTAVO CHAPARRO",new,"1× Remerón Kaló Arena - Talle 1",1,transferencia,15210
"2023-10-14 17:50:50",14541,"$66,500.00",completed,"MARCELO TESTA",new,"1× Jean Gamat - 28, 1× Jean Potkat - 30, 1× Bermuda Chaina Negra - 34",3,tc-showroom,66500
"2023-10-14 17:48:34",14540,"$32,800.00",completed,"GABRIEL BOSCH",new,"1× Dollman Beige - Talle 2, 1× Remerón Kaló Negra - Talle 1",2,tc-showroom,32800
"2023-10-14 17:41:47",14539,"$98,185.00",completed,"SERGIO NEGRO",new,"1× Remeron Chicle - Talle 1, 1× Campera Tival - Talle 2, 1× Jean Jufré - 34, 1× Jean Pecat - 34, 1× Jean Frenú - 34",5,tc-showroom,98185
"2023-10-14 17:02:43",14538,"$20,485.00",completed,"JUAN IRIARTE",new,"1× Campera Tival - Talle 1",1,tc-showroom,20485
"2023-10-14 15:27:29",14530,"$48,000.00",completed,"JANCEL ZAPATA",new,"1× Jean Bilek - 34, 1× Jean Kamba - 34",2,tc-showroom,48000
"2023-10-14 14:35:08",14529,"$27,337.77",completed,"Benjamín Simón Ferreira García",new,"1× Jean Pukof - 34",1,,24000
"2023-10-14 14:00:19",14528,"$40,800.00",completed,"FACUNDO MANZANO",returning,"1× Pantalón Zelik Negro - 28, 1× Jean Potkat - 28",2,efectivo,40800
"2023-10-13 18:28:19",14518,"$20,400.00",completed,"EMANUEL VAZQUEZ",new,"1× JEAN MARBLE",1,efectivo,20400
"2023-10-13 17:27:33",14515,"$51,290.00",completed,"MIRIAN GOMEZ",new,"1× Bermuda Libet - 34, 1× Bermuda Kuban - 34, 1× Pantalón Corderoy Arena - Talle 2",3,transferencia,51290
"2023-10-13 15:42:23",14504,"$35,001.00",completed,"Augusto Villaverde",returning,"1× Kimono Cleo",1,,35000
"2023-10-13 14:04:37",14503,"$30,000.00",completed,"ASTROLOGA XUXA",new,"1× Túnica Perséfone Negra",1,tc-showroom,30000
"2023-10-13 14:00:20",14502,"$27,320.00",completed,"PATRICIO CASAL COSENTINO",returning,"1× Campera Tival - Talle 2, 1× Campera Tolem - Talle 4",2,tc-showroom,27320
"2023-10-13 11:10:21",14500,"$18,615.00",completed,"Blas Paparigopulos",new,"1× Pantalón Zelik Cielo - 34, 1× Remeron Celeste - Talle 2",2,,17415
"2023-10-13 09:02:35",14499,"$15,079.36",completed,"Emiliano Yurkevich",new,"1× Pantalón Zelik Pardo - 32",1,,12285
"2023-10-12 19:22:20",14498,"$25,200.00",completed,"Alejo Tolosa",new,"1× Jean Kabú - 30",1,,24000
"2023-10-12 18:49:03",14492,"$43,200.00",completed,"LEANDRO RIVIERA",new,"1× Jean Kamba - 36, 1× Jean Kabú - 34",2,transferencia,43200
"2023-10-12 18:46:13",14491,"$17,550.00",completed,"LUCIANO RUBIOLO",returning,"1× Bermuda Yambé - 34",1,transferencia,17550
"2023-10-12 18:44:33",14490,"$32,000.00",completed,"XUXA ",new,"1× Pantalón Zelik Pardo - 34, 1× Jean Polet - 36",2,efectivo,32000
"2023-10-12 18:40:18",14488,"$11,600.00",completed,"XUXA ",new,"1× Pantalón Zelik Pardo - 34",1,efectivo,11600
"2023-10-12 11:39:51",14456,"$58,500.00",completed,"Vic Mastandrea",new,"1× Pantalón Zelik Lavanda - 36, 1× Buzo Wolek Grafito - Talle 1, 1× Pantalón Zelik Haba - 38, 1× Jean Polet - 36",4,,58500
"2023-10-12 11:35:22",14455,"$37,100.00",completed,"Luciano Adrián González",returning,"1× Buzo Wolek Grafito - Talle 1, 1× Campera Milat Black - Talle 1",2,,37100
"2023-10-11 19:10:39",14454,"$20,400.00",completed,"LUCIANO VEGA",new,"1× Jean Kamba - 30",1,efectivo,20400
"2023-10-11 19:08:42",14453,"$7,395.00",completed,"MATEOS ANDRADE",new,"1× Collar Persefone, 1× Anillo Persefone",2,efectivo,7395
"2023-10-11 19:07:07",14452,"$28,000.00",completed,"SOFIA SALVADOR",new,"1× Pantalón Barna - 26",1,tc-showroom,28000
"2023-10-11 11:54:04",14415,"$44,200.00",completed,"ignacio saenz briones",returning,"1× Pantalón Lino Negro - Talle 2, 1× Musculosa Itka Negra - Talle 1",2,,44200
"2023-10-10 23:32:13",14413,"$22,095.51",completed,"Matias Mercado",new,"1× Campera Malai - Talle 2",1,,20485
"2023-10-10 20:44:17",14412,"$77,551.00",completed,"Juan Simon",new,"1× Dollman Ladrillo - Talle 2, 1× Pantalón Zelik Pardo - 38, 1× Remera Lino Verde - Talle 2, 1× Jean Kamba - 38",4,,77550
"2023-10-10 19:05:10",14411,"$25,245.00",completed,"JUAN SERRANO",new,"1× Jean Tayib - 34, Blue, 1× Remeron Celeste - Talle 2",2,efectivo,25245
"2023-10-10 19:03:22",14410,"$12,285.00",completed,"JUAN DIEGO SOSA",new,"1× Pantalón Zelik Rosa - 32",1,transferencia,12285
"2023-10-10 19:01:05",14409,"$15,291.50",completed,"CAMILA ASENIA",new,"1× Pantalón Corderoy Terra - Talle 2",1,efectivo,15291.5
"2023-10-10 18:57:38",14408,"$13,650.00",completed,"CAMILA ASENIA",new,"1× Pantalón Zelik Pardo - 30",1,tc-showroom,13650
"2023-10-10 18:52:44",14407,"$37,812.25",completed,"JUAN DIEGO SOLIS",new,"1× Campera Temra - Talle 1, 1× Jean Frenú - 32",2,efectivo,37812.25
"2023-10-10 18:48:11",14406,"$4,845.00",completed,"DARIO OLIVAN",new,"1× Remeron Celeste - Talle 1",1,efectivo,4845
"2023-10-10 17:54:52",14401,"$35,400.00",completed,"Luciana Szrank",new,"1× Jean Jufré - 30, 1× Remeron Celeste - Talle 1, 1× Remeron Chicle - Talle 1",3,,35400
"2023-10-10 15:31:15",14389,"$51,900.00",completed,"JUAN JOSE PERETTI",new,"1× Camisa Índigo - Talle 3, 1× Campera Milat Black - Talle 3",2,,51900
"2023-10-09 18:37:14",14380,"$24,000.00",completed,"SEBASTIAN URIA",new,"1× Jean Potkat - 32",1,tc-showroom,24000
"2023-10-09 18:35:28",14379,"$64,345.00",completed,"JUAN GALEANO",new,"2× Kimono Cleo, 1× Remeron Chicle - Talle 1",3,efectivo,64345
"2023-10-09 18:34:06",14378,"$20,400.00",completed,"BAUTISTA BOTTI",new,"1× Pantalón Zelik Negro - 32",1,efectivo,20400
"2023-10-09 18:31:57",14377,"$17,990.00",completed,"IGNACIO PEREZ",new,"1× Pantalón Corderoy Arena - Talle 3",1,tc-showroom,17990
"2023-10-09 18:29:55",14376,"$16,575.00",completed,"SANTIAGO CASAIS",new,"1× Jean Kamba - 32",1,efectivo,16575
"2023-10-09 14:48:30",14358,"$20,119.61",completed,"José Otaegui",returning,"1× Pantalón Corderoy Terra - Talle 2",1,,17990
"2023-10-09 12:33:36",14351,"$11,401.00",completed,"Alejo Sanchez",returning,"1× Remeron Celeste - Talle 2, 1× Remeron Chicle - Talle 1",2,,11400
"2023-10-09 11:59:11",14347,"$19,501.00",completed,"Alejo Sanchez",new,"1× Jean Jufré - 34",1,,19500
"2023-10-09 11:20:52",14346,"$22,294.36",completed,"Franco Migueles",new,"1× Jean Kamba - 32",1,,19500
"2023-10-08 13:09:53",14343,"$36,873.00",completed,"Geronimo Aldecoa",new,"1× Campera Tival - Talle 2, 1× Campera Tolem - Talle 2",2,,36873
"2023-10-08 13:04:20",14342,"$42,120.00",completed,"cristian rodriguez benassi",new,"1× Pantalón Zelik Negro - 38, 1× Pantalón Zelik Pardo - 38, 1× Pantalón Zelik Cielo - 38",3,,42120
"2023-10-08 11:04:53",14341,"$18,955.26",completed,"Nahuel Enrique Fernández",new,"1× Jean Pekur - 38",1,,17550
"2023-10-08 05:16:13",14340,"$20,344.36",completed,"Claudio Gonzalez",new,"1× Jean Tayib - 34, Blue",1,,17550
"2023-10-07 18:52:42",14339,"$33,150.00",completed,"JOSE DE OLIVIEIRA",new,"1× Jean Jufré - 30, 1× Pantalón Zelik Pardo - 30",2,tc-showroom,33150
"2023-10-07 18:48:57",14338,"$28,177.50",completed,"JUAN CRUZ ORESTE",new,"1× Pantalón Zelik Negro - 32, 1× Pantalón Zelik Lavanda - 32",2,efectivo,28177.5
"2023-10-07 18:47:09",14337,"$16,575.00",completed,"MARIANO RODRIGUEZ",new,"1× Pantalón Zelik Negro - 28",1,efectivo,16575
"2023-10-07 18:45:50",14336,"$19,500.00",completed,"SABRINA SALINAS",new,"1× Jean Potkat - 28",1,tc-showroom,19500
"2023-10-07 18:44:13",14335,"$10,200.00",completed,"SUSANA TRAVERSO",new,"1× Buzo Famma - Talle 1",1,efectivo,10200
"2023-10-07 18:39:09",14334,"$75,690.00",completed,"JUANA COLANERI",new,"1× Jean Tayib - 26, Black, 1× Pantalón Corderoy Terra - Talle 3, 1× Anillo Persefone, 1× Collar Thane, 1× Túnica Gaia Naranja - Verde",5,tc-showroom,75690
"2023-10-07 18:37:34",14333,"$55,400.00",completed,"LEANDRO DIAZ",new,"1× Remerón Kaló Negra - Talle 1, 1× Remerón Flamé Blanco - Talle 2, 1× Túnica Perséfone Negra",3,tc-showroom,55400
"2023-10-07 18:35:22",14332,"$16,575.00",completed,"MATIAS MANGO",new,"1× Pantalón Zelik Lavanda - 30",1,efectivo,16575
"2023-10-07 18:33:29",14331,"$17,550.00",completed,"SEBASTIAN RIZZO",new,"1× Jean Pukof - 30",1,transferencia,17550
"2023-10-07 18:31:11",14330,"$49,200.00",completed,"GASTON ZORZA",new,"1× Pantalón Albán Terra - Talle 1, 1× Anillo Persefone, 1× Remera Lino Verde - Talle 1",3,tc-showroom,49200
"2023-10-07 18:29:59",14329,"$19,500.00",completed,"CARLOS RODRIGUEZ",new,"1× Jean Kamba - 32",1,tc-showroom,19500
"2023-10-07 18:25:43",14328,"$19,500.00",completed,"ORLANDO MOLINA",new,"1× Jean Gamat - 30",1,tc-showroom,19500
"2023-10-07 18:20:19",14327,"$17,550.00",completed,"JUAN MARTIN PIOLA",new,"1× Jean Kamba - 32",1,transferencia,17550
"2023-10-07 18:08:54",14326,"$19,500.00",completed,"JUAN PABLO PEREZ",new,"1× Jean Frenú - 32",1,tc-showroom,19500
"2023-10-07 13:06:55",14319,"$39,000.00",completed,"Juan pablo Larraza",new,"1× Jean Frenú - 34, 1× Jean Jufré - 34",2,,39000
"2023-10-07 11:55:15",14317,"$18,397.00",completed,"Federico Croce",returning,"1× Remeron Chicle - Talle 2, 1× Remeron Celeste - Talle 2, 1× Remerón Baggy Rosa - Talle 2",3,,18396
"2023-10-06 18:57:11",14313,"$16,900.00",completed,"JONATAN DI BIASI",new,"1× Remerón Kaló Negra - Talle 1",1,tc-showroom,16900
"2023-10-06 18:06:46",14308,"$19,500.00",completed,"FEDERICO PACE",new,"1× Jean Frenú - 32",1,tc-showroom,19500
"2023-10-06 18:04:13",14307,"$19,500.00",completed,"GABRIELA MEDINA",new,"1× Jean Kamba - 32",1,tc-showroom,19500
"2023-10-06 10:09:13",14266,"$20,905.26",completed,"Rodrigo Katabian",returning,"1× Jean Kuma - 38",1,,19500
"2023-10-05 22:34:44",14265,"$81,900.00",completed,"Mario E. Gonzalez",new,"1× Camisa Índigo - Talle 3, 1× Pantalón Zelik Cielo - 34, 1× Pantalón Zelik Pardo - 34, 1× Remeron Chicle - Talle 2, 1× Campera Cielo - Talle 2",5,,81900
"2023-10-05 20:55:08",14264,"$19,501.00",completed,"Franco Escobar",returning,"1× Jean Kamba - 32",1,,19500
"2023-10-05 18:52:04",14263,"$5,260.00",completed,"LUCIA FIDALGO",new,"1× Pantalón Zelik Negro - 28",1,transferencia,5260
"2023-10-05 18:14:34",14261,"$13,685.00",completed,"ABUELITA ",new,"1× Media Polera Gris - Talle 1",1,efectivo,13685
"2023-10-05 17:53:36",14260,"$34,400.00",completed,"LEANDRO QUIROGA",new,"1× Jean Pekur - 32, 1× Remera Lino Verde - Talle 1",2,tc-showroom,34400
"2023-10-05 11:46:28",14258,"$14,311.00",completed,"Gastón Zorza",returning,"1× Dollman Verde - Talle 1",1,,14310
"2023-10-05 10:44:56",14257,"$35,100.00",completed,"Sebastián Schaikis",new,"1× Jean Gamat - 28, 1× Pantalón Zelik Negro - 26",2,,35100
"2023-10-05 09:11:12",14256,"$31,800.00",completed,"Gonzalo de Latorre",returning,"1× Remerón Kaló Arena - Talle 2, 1× Remerón Kaló Crudo - Talle 2",2,,31800
"2023-10-05 01:29:29",14255,"$29,200.00",completed,"Ignacio Damian Cepeda",returning,"1× Remerón Flamé Blanco - Talle 2, 1× Jean Pecat - 36",2,,28000
"2023-10-04 21:46:54",14254,"$21,629.61",completed,"Santino Sancilio",new,"1× Jean Kamba - 32",1,,19500
"2023-10-04 18:55:14",14253,"$39,985.00",completed,"SANTIAGO SOLARI",new,"1× Jean Jufré - 32, 1× Campera Malai - Talle 1",2,tc-showroom,39985
"2023-10-04 18:50:42",14252,"$33,150.00",completed,"JUAN CRUZ GILARDI",new,"1× Jean Jufré - 34, 1× Jean Potkat - 34",2,efectivo,33150
"2023-10-04 18:44:31",14251,"$15,280.00",completed,"GONZALO BRAGUNDE",new,"1× Pantalón Corderoy Arena - Talle 1",1,efectivo,15280
"2023-10-04 18:39:32",14250,"$39,000.00",completed,"MAXIMILIOANO MAKRUCZ",new,"1× Jean Pecat - 34, 1× Jean Kamba - 34",2,tc-showroom,39000
"2023-10-04 18:35:38",14249,"$13,650.00",completed,"EDUARDO ROMERO",new,"1× Pantalón Zelik Pardo - 34",1,tc-showroom,13650
"2023-10-04 15:48:27",14248,"$15,901.00",completed,"Tomás Narbais",new,"1× Dollman Ladrillo - Talle 1",1,,15900
"2023-10-04 15:42:01",14247,"$143,905.00",completed,"FEDERICO AMATO",new,"1× Sacón Sinaí Army, 1× Sacón Sinaí Camel, 1× Pantalón Corderoy Arena - Talle 2, 1× Jean Polet - 30, 1× Campera Tolem - Talle 1",5,transferencia,143905
"2023-10-04 14:48:24",14246,"$16,575.00",completed,"IGNACIO BERRA",returning,"1× Jean Jufré - 30",1,efectivo,16575
"2023-10-04 13:54:15",14244,"$20,700.00",completed,"Ignacio Alsogaray",returning,"1× Pantalón Zelik Negro - 32",1,,19500
"2023-10-04 11:13:01",14243,"$21,629.61",completed,"Dante Gabriel Gunini",new,"1× Jean Pecat - 32",1,,19500
"2023-10-04 05:23:23",14241,"$20,700.00",completed,"nacho Gasparro",new,"1× Pantalón Zelik Negro - 38",1,,19500
"2023-10-03 18:55:44",14239,"$25,350.00",completed,"CAROLINA DEBAIS",new,"1× Jean Bilek - 34, 1× Jean Kabú - 34",2,tc-showroom,25350
"2023-10-03 17:54:44",14238,"$55,300.00",completed,"ROBERT ALVAREZ",new,"1× Pantalón Barna - 34, 1× Pantalón Zelik Cielo - 34, 1× Pantalón Zelik Haba - 38",3,tc-showroom,55300
"2023-10-03 17:52:26",14237,"$17,550.00",completed,"LUCIANO RUBIOLO",new,"1× Jean Polet - 34",1,transferencia,17550
"2023-10-03 17:48:35",14236,"$33,150.00",completed,"LUCIANO RUBIOLO",new,"1× Pantalón Zelik Cielo - 34, 1× Jean Kamba - 34",2,tc-showroom,33150
"2023-10-03 14:53:08",14229,"$33,150.00",completed,"LUCIANO RUBIOLO",new,"1× Pantalón Zelik Cielo - 34, 1× Jean Kamba - 34",2,tc-showroom,33150
"2023-10-03 00:47:12",14228,"$18,750.00",completed,"Carlos Rodríguez",new,"1× Jean Bilek - 30",1,,17550
"2023-10-02 19:45:58",14227,"$6,900.00",completed,"Jorge galibert",returning,"1× Remeron Celeste - Talle 1",1,,5700
"2023-10-02 19:00:51",14226,"$20,700.00",completed,"Ignacio Alsogaray",returning,"1× Pantalón Zelik Negro - 32",1,,19500
"2023-10-02 18:50:57",14225,"$104,465.00",completed,"IGNACIO BECERRA",new,"1× Remerón Flamé Blanco - Talle 2, 1× Pantalón Lino Negro - Talle 1, 1× Remerón Lino Negra - Talle 1, 1× Remera Lino Negra - Talle 1, 1× Remerón Kaló Negra - Talle 1, 1× Remerón Kaló Crudo - Talle 1, 1× Campera Malai - Talle 1",7,efectivo,104465
"2023-10-02 18:49:23",14224,"$20,485.00",completed,"HERNAN RUIZ",new,"1× Campera Tival - Talle 2",1,tc-showroom,20485
"2023-10-02 18:47:20",14223,"$39,000.00",completed,"GONZALO LOPEZ",new,"1× Jean Jufré - 30, 1× Jean Gamat - 30",2,tc-showroom,39000
"2023-10-02 18:43:28",14222,"$22,695.00",completed,"CHRISTIAN RIVA",new,"1× Jean Frenú - 30, 1× Buzo Wolek Grafito - Talle 1",2,efectivo,22695
"2023-10-02 18:24:08",14221,"$13,650.00",completed,"NICOLAS GUERRERO",new,"1× Pantalón Zelik Rosa - 36",1,tc-showroom,13650
"2023-10-02 17:56:31",14220,"$35,100.00",completed,"Joaquin Retondo",returning,"1× Jean Tayib - 30, Blue, 1× Jean Gamat - 30",2,,35100
"2023-10-02 16:02:00",14219,"$51,450.00",completed,"Federico Matus",returning,"1× Pantalón Barna - 32, 1× Musculosa Itka Negra - Talle 2, 1× Pantalón Zelik Rosa - 36",3,,51450
"2023-10-02 08:52:38",14215,"$39,300.00",completed,"Sebastián Gallo",returning,"1× Pantalón Zelik Rosa - 34, 1× Pantalón Zelik Pardo - 34, 1× Buzo Famma - Talle 3",3,,39300
