"Jean Jufré",10021-1-1,84,1120616,83,Pantalones,7,N/D,N/D
"Jean Kamba",10028-1-1-1-1,76,930282,74,Pantalones,7,N/D,N/D
"Jean Pekur",10028-1-1-1-1-1-1,67,877986.5,66,Pantalones,7,N/D,N/D
"Pantalón Lino Negro",10055,67,1282860,66,Pantalones,3,N/D,N/D
"Pantalón Egipto",10155,66,1180675,66,Pantalones,2,N/D,N/D
"Bermuda Libet",10158,66,650253.75,65,Bermudas,7,Agotado,0
"Pantalon Lino Crudo",10040,55,1054575,54,Pantalones,3,Agotado,0
"Pantalón Zelik Negro",10004,55,730685,53,Pantalones,8,N/D,N/D
"Jean Kabú",10028-1-1-1-1-1-2,55,701813,54,Pantalones,7,N/D,N/D
"Musculosa Itka Negra",10173,53,359785,52,Remeras,3,"Hay existencias",58
"Musculosa Itka Beige",10029,50,316500,50,Remeras,3,N/D,N/D
"Túnica Gaia",10025,45,1019080,44,Túnicas,1,"Hay existencias",5
"Remerón Lino Negra",10174,44,472285,44,Remeras,2,"Hay existencias",24
"Jean Bilek",10027,42,514771.5,42,Pantalones,7,"Hay existencias",34
"Remeron Negro",10033-3-1-1-2,42,286695,42,Remeras,2,N/D,N/D
"Campera Milat Blue",10048,39,845620,39,Camperas,3,N/D,N/D
"Bermuda Toré",10171,38,377931.25,38,Bermudas,7,Agotado,0
"Remerón Flamé Negro",10034,38,267310,37,Remeras,2,"Hay existencias",48
"Remerón Baggy Blanco",10014,35,290355,34,Remeras,2,Agotado,0
"Jean Tayib",10100,34,400702.5,34,Pantalones,15,N/D,N/D
"Remerón Baggy Negro",10010,33,285875,32,Remeras,2,"Hay existencias",6
"Remerón Flamé Blanco",10009,33,224370.4,33,Remeras,2,"Hay existencias",49
"Jean Pecat",10056,32,402055,32,Pantalones,7,N/D,N/D
"Jean Potkat",10016,31,419951.5,31,Pantalones,7,N/D,N/D
"Jean Melok",10002,29,361881,29,Pantalones,7,N/D,N/D
"Remeron Blanco",10033-3-1-1-1,29,182035,27,Remeras,2,N/D,N/D
"Jean Frenú",10017,27,355027,27,Pantalones,7,"Hay existencias",5
"Remeron Celeste",10033-3-1,27,155934.5,26,Remeras,2,N/D,N/D
"Jean Pukof",10001,26,319091,26,Pantalones,7,N/D,N/D
"Bermuda Kuban",10177,26,248540,25,Bermudas,7,Agotado,0
"Remera Louis",1002,25,322155,25,Remeras,2,Agotado,0
"Bermuda Yambé",10156,25,248410,25,Bermudas,7,Agotado,0
"Pantalón Zelik Haba",10180,24,358385,24,Pantalones,7,"Hay existencias",70
"Dollman Negro",10178,23,277900,23,Remeras,2,"Hay existencias",18
"Remeron Chicle",10033-3,22,133668,21,Remeras,2,N/D,N/D
"Remeron Marino",10033-3-1-1,21,138305,21,Remeras,2,N/D,N/D
"Jean Polet",10016-1,21,274940,21,Pantalones,7,N/D,N/D
"Pantalón Zelik Cielo",10007,21,244432,21,Pantalones,7,"Hay existencias",70
"Buzo Wolek Almendra",10015-4,19,90675,19,Buzos,2,N/D,N/D
"Bermuda Cefán",10172,19,186255,19,Bermudas,7,Agotado,0
"Jean Fenat",10028-1-1-1,18,191360,18,Pantalones,7,N/D,N/D
"Remerón Flamé Lila",10008,17,115715,17,Remeras,2,"Hay existencias",48
"Kimono Cleo Summer",KIMCLEOTU,17,359550,17,Túnicas,0,"Hay existencias",4
"Piloto Yofle",10103,15,136140,15,Polerones,0,Agotado,0
"Buzo Famma",10159,13,128995,13,"Abrigos, Buzos",3,"Hay existencias",50
"Buzo Wolek Grafito",10015-4-1,13,68793.75,13,Buzos,2,N/D,N/D
"Remerón Baggy Rosa",10011,13,103015,13,Remeras,2,"Hay existencias",37
"Buzo Sabak",10015-3,13,70229,13,Buzos,3,N/D,N/D
"Camisa Índigo",10411,12,159795,12,Camisas,3,"Hay existencias",20
"Jean Kuma",10182,12,186800,12,Pantalones,7,"Hay existencias",34
"Jean Kuma",10182,12,186800,12,Pantalones,7,"Hay existencias",34
"Short Ontario",10170,11,108900,11,Bermudas,7,Agotado,0
"Campera Lavanda",11038,10,170085,10,"Abrigos, Camperas",2,"Hay existencias",16
"Sweater Fonté",1041,10,185100,10,Buzos,0,Agotado,0
"Short Ontario Índigo",10176,10,98190,10,Bermudas,7,Agotado,0
"Collar Persefone",10050,9,43965,9,Accesorios,0,Agotado,0
"Parka Troyat Gris",10026-1-1,9,109350,9,Parkas,2,"Hay existencias",8
"Remerón Dionisios Blanco",10032,9,71100,9,Remeras,2,N/D,N/D
"Bermuda Chaina Negra",10023,9,77836.75,9,Bermudas,6,Agotado,0
"Pantalón Zelik Lavanda",10006,9,108490.5,9,Pantalones,7,"Hay existencias",70
"Campera Milat Black",10181,9,198070,9,Camperas,3,N/D,N/D
"Babucha Sozna Negra",10031,9,89970,9,Pantalones,6,N/D,N/D
"Riñonera Marrón",10057-1-1,9,52510,9,Accesorios,0,Agotado,'-1
"Pantalón Zelik Menta",10038,8,88181,8,Pantalones,8,N/D,N/D
"Pulsera Persefone",1055,7,27730,7,Accesorios,0,"Hay existencias",2
"Campera Cielo",11039,7,115005,7,"Abrigos, Camperas",2,"Hay existencias",15
"Campera Malai",10019,7,104345,7,Camperas,4,N/D,N/D
"Pulsera Fauno",1052,7,26220,6,Accesorios,0,Agotado,'-2
"Bermuda Chaina Azul",10024,7,61513.5,7,Bermudas,7,Agotado,0
"Remeron Gris",10033,7,38655,7,Remeras,2,N/D,N/D
"Babucha Sozna Verde",10030,6,59905,6,Pantalones,6,N/D,N/D
"Camisa Dante",10409,6,135000,6,Camisas,2,"Hay existencias",12
"Kimono Hades Cerro",10041,6,171800,6,Túnicas,0,Agotado,0
"Camisa Snowy",10408,6,75000,6,Camisas,3,Agotado,0
"Anillo Persefone",1020,5,9215,5,Accesorios,0,"Hay existencias",21
"Pantalón Zelik Rosa",10003,5,66865,5,Pantalones,8,N/D,N/D
"Pantalón Zelik Pardo",10179,5,70550,5,Pantalones,7,"Hay existencias",70
"Parka Troyat Negra",10026,5,61920,5,Parkas,2,N/D,N/D
"Campera Tolem",10021-1,5,88225,5,Camperas,4,N/D,N/D
"Campera Temra",10021-1-2-1,5,108175,5,Camperas,4,N/D,N/D
"Media Polera Gris",10189,4,57000,4,"Poleras, Abrigos",2,"Hay existencias",24
"Media Polera Blanca",10190,4,52650,4,"Poleras, Abrigos",2,"Hay existencias",24
"Anillo Mistik",1019,4,7085,4,Accesorios,0,Agotado,0
"Camisa Goet",10410,4,93000,4,Camisas,2,"Hay existencias",12
"Remera Lino Negra",10191,4,44625,4,Remeras,2,"Hay existencias",24
"Túnica Perséfone Blanca",10018,4,89800,4,Túnicas,0,"Hay existencias",11
"Jean Lort",10005,4,40590,4,Pantalones,5,N/D,N/D
"Pulsera Curvi",1051,4,15200,4,Accesorios,0,Agotado,'-1
"Kimono Hades Verde",10020,4,112000,4,Túnicas,0,Agotado,0
"Dollman Ladrillo",10184,3,35475,3,Remeras,2,"Hay existencias",18
"Collar Golat",1056,3,13210,3,Accesorios,0,"Hay existencias",1
"Collar Afro",1010,3,11300,3,Accesorios,0,Agotado,0
"Remera Lino Verde",10186,3,35300,3,Remeras,2,"Hay existencias",24
"Collar Pampa",1060,3,15000,3,Accesorios,0,Agotado,0
"Remera Lino Ladrillo",10187,3,29750,3,Remeras,2,"Hay existencias",24
"Campera Tival",10021-1-2,3,61875,3,Camperas,4,N/D,N/D
"Collar Gea",1058,3,13720,3,Accesorios,0,Agotado,0
"Pantalón Zelik Limón",10035,3,35210,3,Pantalones,8,N/D,N/D
"Collar Azteka",1044,3,14210,3,Accesorios,0,Agotado,'-1
"Sobre Negro",10057-1-1-1-1-1-4-1,2,11210,2,Accesorios,0,"Hay existencias",23
"Poncho Chané",PONCHO3,2,94000,2,"Ponchos, Abrigos",0,Agotado,0
"Collar Maraví",10049,2,8580,2,Accesorios,0,Agotado,0
"Dollman Beige",10185,2,25800,2,Remeras,2,"Hay existencias",18
"Pulsera Zodiaco",1053,2,7220,2,Accesorios,0,Agotado,0
"L'autre - Parfum",PERFLAUTRE,2,32400,2,Parfum,0,N/D,N/D
"Short Ontario Cielo",10175,2,20700,2,Bermudas,7,Agotado,0
"Sacon Negro",10015-4-2-1,2,23100,2,Abrigos,2,N/D,N/D
"Anillo Azteka",1019-1,2,3705,2,Accesorios,0,Agotado,'-1
"Remera Lino Beige",10188,2,22610,2,Remeras,2,"Hay existencias",24
"Pulsera Yage",10054-1,2,7600,2,Accesorios,0,Agotado,0
"Poncho Aymara",PONCHO1,1,35000,1,Polerones,0,N/D,N/D
"Collar Rufa",1059,1,4900,1,Accesorios,0,Agotado,'-1
"Riñonera Amarilla",10057-1-1-1,1,5900,1,Accesorios,0,Agotado,0
"Polerón Verde",10196,1,38000,1,"Abrigos, Polerones",0,"Hay existencias",8
"Polerón Negro",10197,1,38000,1,"Abrigos, Polerones",0,"Hay existencias",4
"Riñonera Negra",10057-1,1,5310,1,Accesorios,0,Agotado,'-1
Perfume,PERFUME,1,15000,1,Polerones,0,N/D,N/D
"PULSERA YAGE",10054,1,2185,1,Accesorios,0,"Hay existencias",3
"Anillo Piedra Turquesa",1017,1,1710,1,Accesorios,0,Agotado,0
"Sweater Media Polera Combinado",10200,1,35000,1,"Abrigos, Polerones",0,"Hay existencias",1
"Polerón Crudo",10192,1,38000,1,"Abrigos, Polerones",0,"Hay existencias",5
"Anillo Piedra Roja",1016,1,1575,1,Accesorios,0,Agotado,0
"Riñonera Verde",10057-1-1-1-1-1,1,5900,1,Accesorios,0,Agotado,0
"Polerón Lavanda",10193,1,38000,1,"Abrigos, Polerones",0,"Hay existencias",4
"Sobre Marron",10057-1-1-1-1-1-4,1,5900,1,Accesorios,0,"Hay existencias",21
"Pulsera Dasha",1049,1,3420,1,Accesorios,0,Agotado,0
"Polerón Aqua",10194,1,38000,1,"Abrigos, Polerones",0,"Hay existencias",9
