"Jean Kamba",10028-1-1-1-1,30,661725,30,Jeans,7,N/D,N/D
"Jean Jufré",10021-1-1,23,509850,23,Jeans,7,N/D,N/D
"Jean Kabú",10028-1-1-1-1-1-2,16,358650,16,Jeans,7,N/D,N/D
"Pantalón Zelik Negro",10004,15,296710,15,Pantalones,7,N/D,N/D
"Jean Polet",10016-1,13,271940,13,Jeans,7,N/D,N/D
"Pantalón Zelik Pardo",10179,11,149359.71,11,Pantalones,7,"Hay existencias",70
"Remerón Kaló Negra",10228,10,167115,10,Remeras,2,"Hay existencias",10
"Bermuda Toré",10171,10,177450,10,Shorts|Bermudas,7,"Hay existencias",30
"Remeron Chicle",10033-3,10,58649.72,10,"Gangas Gössi, Remeras",2,N/D,N/D
"Remeron Celeste",10033-3-1,10,58363.22,10,"Gangas Gössi, Remeras",2,N/D,N/D
"Remerón Kaló Crudo",10227,10,166815,10,Remeras,2,"Hay existencias",10
"Jean Potkat",10016,9,200475,9,Jeans,7,N/D,N/D
"Jean Frenú",10017,9,189075,9,Jeans,7,"Hay existencias",5
"Jean Pekur",10028-1-1-1-1-1-1,9,207000,9,Jeans,7,N/D,N/D
"Jean Gamat",10216,8,174000,8,Jeans,7,"Hay existencias",77
"Pantalón Zelik Cielo",10007,8,108179.24,8,"Gangas Gössi, Pantalones",7,"Hay existencias",11
"Pantalón Corderoy Arena",10218,8,137519.39,8,"Gangas Gössi, Pantalones",3,N/D,N/D
"Pantalón Corderoy Terra",10219,8,148763.5,8,"Gangas Gössi, Pantalones",3,N/D,N/D
"Campera Tival",10021-1-2,7,145968.19,7,Camperas,4,N/D,N/D
"Pantalón Zelik Rosa",10003,7,96343.47,7,"Gangas Gössi, Pantalones",8,N/D,N/D
"Pantalón Zelik Lavanda",10006,6,83143.12,6,"Gangas Gössi, Pantalones",7,"Hay existencias",70
"Bermuda Yambé",10156,6,113300,6,Shorts|Bermudas,7,"Hay existencias",30
"Pantalón Barna",10224,6,165200,6,Pantalones,7,"Hay existencias",86
"Remerón Baggy Rosa",10011,6,43679.39,6,"Gangas Gössi, Remeras",2,"Hay existencias",10
"Campera Malai",10019,6,141155,6,Camperas,4,N/D,N/D
"Jean Bilek",10027,6,135000,6,Jeans,7,"Hay existencias",34
"Jean Tayib",10100,6,124500,6,Jeans,15,N/D,N/D
"Bermuda Kuban",10177,6,114075,6,Shorts|Bermudas,7,"Hay existencias",30
"Pantalón Zelik Haba",10180,5,70565.63,5,"Gangas Gössi, Pantalones",7,"Hay existencias",2
"Short Índigo",10176,5,95550,5,Shorts|Bermudas,7,"Hay existencias",20
"Anillo Persefone",1020,5,11040,5,Accesorios,0,"Hay existencias",12
"Camisa Índigo",10411,4,88000,4,Camisas,3,"Hay existencias",16
"Remerón Flamé Blanco",10009,4,33725,4,Remeras,2,"Hay existencias",19
"Buzo Wolek Grafito",10015-4-1,4,26988.75,4,"Gangas Gössi, Buzos",2,N/D,N/D
"Jean Pecat",10056,4,82500,4,Jeans,7,"Hay existencias",45
"Jean Pukof",10001,4,89550,4,Jeans,7,N/D,N/D
"Kimono Cleo",KIMCLEOTU,4,129500,3,Kimonos|Túnicas,0,"Hay existencias",32
"Remerón Flamé Negro",10034,4,37000,4,Remeras,2,"Hay existencias",18
"Musculosa Itka Negra",10173,3,40025,3,Remeras,3,"Hay existencias",15
"Remera Lino Verde",10186,3,44700,3,Remeras,2,"Hay existencias",24
"Remerón Kaló Oliva",10225,3,51800,3,Remeras,2,"Hay existencias",10
"Buzo Famma",10159,3,33116.67,3,"Gangas Gössi, Abrigos, Buzos",3,"Hay existencias",19
"Remerón Kaló Arena",10226,3,48010,3,Remeras,2,"Hay existencias",10
"Campera Tolem",10021-1,3,52581,3,Camperas,4,N/D,N/D
"Dollman Ladrillo",10184,2,40900,2,Remeras,2,"Hay existencias",18
"Remerón Dionisos Cactus",10223,2,47000,2,Remeras,2,N/D,N/D
"Short Kaló",10255,2,29800,2,Shorts|Bermudas,2,N/D,N/D
"Musculosa Itka Oliva",10230,2,31000,2,Remeras,3,N/D,N/D
"Campera Lavanda",11038,2,53800,2,"Abrigos, Camperas",2,"Hay existencias",13
"Pantalón Lino Negro",10055,2,53095,2,Pantalones,3,N/D,N/D
"Campera Milat Black",10181,2,59800,2,"Abrigos, Camperas",3,N/D,N/D
"Collar Blakay",10240,2,24375,2,Accesorios,0,"Hay existencias",4
"Bermuda Chaina Negra",10023,2,36075,2,Shorts|Bermudas,6,"Hay existencias",20
"Campera Cielo",11039,2,53800,2,"Abrigos, Camperas",2,"Hay existencias",11
"Poncho Érebo",10221,2,48000,2,"Ponchos, Abrigos",0,"Hay existencias",4
"Pantalón Albán Terra",10234,2,60800,2,Pantalones,2,N/D,N/D
"Dollman Verde",10183,2,40900,2,Remeras,2,"Hay existencias",18
"Remerón Dionisos Negro",10222,2,47000,2,Remeras,2,N/D,N/D
"Túnica Perséfone Negra",10039,2,60000,2,Kimonos|Túnicas,0,Agotado,0
"Remerón Flamé Lila",10008,1,9500,1,Remeras,2,"Hay existencias",9
"Short Ontario",10170,1,8000,1,Shorts|Bermudas,7,"Hay existencias",20
"Remera Lino Negra",10191,1,12665,1,Remeras,2,Agotado,0
"Pantalón Albán Negro",10236,1,30400,1,Pantalones,2,N/D,N/D
"Tabaquera Marrón",10057-1-1-1-1-1-1,1,4500,1,Accesorios,0,"Hay existencias",15
"Sacón Sinaí Camel",10203,1,45864,1,"Gangas Gössi, Sacos, Abrigos",0,Agotado,0
"Bermuda Libet",10158,1,17550,1,Shorts|Bermudas,7,Agotado,0
"Dollman Beige",10185,1,15900,1,Remeras,2,"Hay existencias",18
"Remerón Lino Blanco",10257,1,19800,1,Remeras,2,"Hay existencias",10
"Campera Temra",10021-1-2-1,1,17412.25,1,Camperas,4,N/D,N/D
"Camisa Goet",10410,1,27300,1,Camisas,2,"Hay existencias",7
"Collar Nek",10238,1,9200,1,Accesorios,0,"Hay existencias",5
"Sobre Negro",10057-1-1-1-1-1-4-1,1,6300,1,Accesorios,0,"Hay existencias",13
"Remerón Lino Negra",10174,1,12665,1,Remeras,2,Agotado,0
"Sacón Sinaí Army",10204,1,45864,1,"Gangas Gössi, Sacos, Abrigos",0,Agotado,0
"Musculosa Itka Terra",10231,1,15500,1,Remeras,3,N/D,N/D
"Jean Fenat",10028-1-1-1,1,24000,1,Jeans,7,N/D,N/D
"Short Ontario Cielo",10175,1,17500,1,Shorts|Bermudas,7,"Hay existencias",20
"Saco Jaipur",10206,1,31050,1,"Gangas Gössi, Sacos, Abrigos",2,Agotado,0
"Túnica Gaia Naranja",10025-4,1,29600,1,Kimonos|Túnicas,1,"Hay existencias",1
"Remera Lino Beige",10188,1,20900,1,Remeras,2,"Hay existencias",13
"Jean Kuma",10182,1,19500,1,Jeans,7,Agotado,0
"JEAN MARBLE","JEAN MARBLE",1,20400,1,Jeans,0,N/D,N/D
"Collar Persefone",10050,1,5440,1,Accesorios,0,"Hay existencias",16
"Remerón Felipe Marino",10209,1,14560,1,"Gangas Gössi, Remeras",0,"Hay existencias",8
"Camisa Dante",10409,1,27300,1,Camisas,2,"Hay existencias",4
"Media Polera Gris",10189,1,13685,1,"Poleras, Abrigos",2,"Hay existencias",8
"Aros Goute",10245,1,3150,1,Accesorios,0,Agotado,'-1
"Collar Thane",10213,1,6300,1,Accesorios,0,Agotado,0
"Pantalón Albán Arena",10235,1,32000,1,Pantalones,2,N/D,N/D
