"2023-07-31 00:00:00",8,223000.00,0.00,0.00,223000.00,0.00,976.47,223976.47
"2023-07-30 00:00:00",3,106655.00,0.00,0.00,106655.00,0.00,1939.73,108594.73
"2023-07-29 00:00:00",18,604518.01,0.00,8160.00,596358.01,0.00,4137.61,600495.62
"2023-07-28 00:00:00",7,185845.00,0.00,4800.00,181045.00,0.00,2001.00,183046.00
"2023-07-27 00:00:00",7,125091.25,0.00,1340.00,123751.25,0.00,7099.62,130850.87
"2023-07-26 00:00:00",7,155244.95,0.00,3845.00,151399.95,0.00,2178.81,153578.76
"2023-07-25 00:00:00",3,111150.00,0.00,5130.00,106020.00,0.00,0.00,106020.00
"2023-07-24 00:00:00",4,133473.01,0.00,3475.00,129998.01,0.00,3418.01,133416.02
"2023-07-23 00:00:00",3,107340.00,0.00,0.00,107340.00,0.00,2027.62,109367.62
"2023-07-22 00:00:00",9,307734.95,0.00,4380.00,303354.95,0.00,2903.29,306258.24
"2023-07-21 00:00:00",5,207200.00,0.00,14310.00,192890.00,0.00,975.47,193865.47
"2023-07-20 00:00:00",6,187200.00,0.00,1710.00,185490.00,0.00,0.00,185490.00
"2023-07-19 00:00:00",9,204473.78,0.00,3530.00,200943.78,0.00,2424.46,203368.24
"2023-07-18 00:00:00",15,397830.00,0.00,3020.00,394810.00,0.00,5636.29,400446.29
"2023-07-17 00:00:00",16,365425.79,0.00,6170.00,359255.79,0.00,6042.41,365298.20
"2023-07-16 00:00:00",4,112900.00,0.00,0.00,112900.00,0.00,2.00,112902.00
"2023-07-15 00:00:00",8,248240.00,0.00,8135.00,240105.00,0.00,1004.00,241109.00
"2023-07-14 00:00:00",8,243000.00,0.00,14340.00,228660.00,0.00,3.00,228663.00
"2023-07-13 00:00:00",8,268489.10,0.00,12610.00,255879.10,0.00,3437.87,259316.97
"2023-07-12 00:00:00",6,136971.09,0.00,1710.00,135261.09,0.00,5793.36,141054.45
"2023-07-11 00:00:00",5,185200.00,0.00,7175.00,178025.00,0.00,2.00,178027.00
"2023-07-10 00:00:00",10,226920.00,0.00,5320.00,221600.00,0.00,3321.93,224921.93
"2023-07-09 00:00:00",5,100755.00,0.00,0.00,100755.00,0.00,4396.44,105151.44
"2023-07-08 00:00:00",11,260786.09,0.00,11800.00,248986.09,0.00,3482.28,252468.37
"2023-07-07 00:00:00",3,83980.00,0.00,1250.00,82730.00,0.00,1024.20,83754.20
"2023-07-06 00:00:00",10,188863.01,0.00,6680.00,182183.01,0.00,6773.06,188956.07
"2023-07-05 00:00:00",6,82714.09,0.00,0.00,82714.09,0.00,2921.16,85635.25
"2023-07-04 00:00:00",11,447120.00,0.00,4940.00,442180.00,0.00,1603.00,443783.00
"2023-07-03 00:00:00",11,332522.29,0.00,8165.00,324357.29,0.00,3804.53,328161.82
"2023-07-02 00:00:00",4,97800.00,0.00,0.00,97800.00,0.00,2980.49,100780.49
"2023-07-01 00:00:00",11,276564.00,0.00,6160.00,270404.00,0.00,1123.94,271527.94
