"PANTALÓN LINO CRUDO",10040,"Hay existencias",0
"BABUCHA SOZNA VERDE",10030,"Hay existencias",0
"PARKA TROYAT NEGRA",10026,"Hay existencias",0
"JEAN KABÚ",10028-1-1-1-1-1-2,"Hay existencias",0
"JEAN POTKAT",10016,"Hay existencias",0
"REMERÓN BLANCO",10012,"Hay existencias",0
"BUZO SABAK",10015-3,"Hay existencias",0
"PANTALÓN ZELIK NEGRO",10004,"Hay existencias",0
"JEAN PUKOF",10001,"Hay existencias",0
"REMERA VENK GRIS",10046,"Hay existencias",0
"PANTALÓN ZELIK LIMÓN",10035,"Hay existencias",0
"BUZO WOLEK GRAFITO",10015-4-1,"Hay existencias",0
"MUSCULOSA ITKA",10029,"Hay existencias",0
"BABUCHA SOZNA NEGRA",10031,"Hay existencias",0
"JEAN SKINNY KOBE",10028-1-1-1-1-1-2-1,"Hay existencias",0
"JEAN PEKUR",10028-1-1-1-1-1-1,"Hay existencias",0
"JEAN KAMBA",10028-1-1-1-1,"Hay existencias",0
"BUZO WOLEK ROSA",10015,"Hay existencias",0
"REMERÓN GRIS",10033,"Hay existencias",0
"JEAN JUFRÉ",10021-1-1,"Hay existencias",0
"PANTALÓN ZELIK ROSA",10003,"Hay existencias",0
"JEAN MARBLE",10000,"Hay existencias",0
"CAMPERA MILAT",10048,"Hay existencias",0
"REMERÓN DIONISOS NEGRO",10042,"Hay existencias",0
"PANTALÓN ZELIK MENTA",10038,"Hay existencias",0
"BUZO WOLEK ALMENDRA",10015-4,"Hay existencias",0
"REMERÓN DIONISOS BLANCO",10032,"Hay existencias",0
"JEAN BILEK",10027,"Hay existencias",0
"JEAN FRENÚ",10017,"Hay existencias",0
"JEAN FENAT",10028-1-1-1,"Hay existencias",0
"BUZO WOLEK GRIS",10011,"Hay existencias",0
"JEAN LORT",10005,"Hay existencias",0
"JEAN POLET",10016-1,"Hay existencias",0
"JEAN MELOK",10002,"Hay existencias",0
"REMERA VENK NEGRA",10047,"Hay existencias",0
"PANTALÓN ZELIK LIMÓN - 28",10035-28,"Hay existencias",1
"JEAN LORT - 28",10005-28,"Hay existencias",1
"COLLAR MAI",10051,"Hay existencias",1
"PANTALÓN ZELIK MENTA - 38",10038-38,"Hay existencias",1
"BUZO WOLEK GRIS - Talle 1",10011-1,"Hay existencias",1
"BABUCHA SOZNA VERDE - 38",10030-38,"Hay existencias",1
"BABUCHA SOZNA NEGRA - 38",10031-38,"Hay existencias",1
"PANTALÓN ZELIK MENTA - 24",10038-24,"Hay existencias",1
"PANTALÓN ZELIK LIMÓN - 36",10035-36,"Hay existencias",1
"JEAN SKINNY KOBE - 28",10032-1-2,"Hay existencias",2
"JEAN LORT - 34",10005-34,"Hay existencias",2
"ANILLO AIKOA",10057,"Hay existencias",2
"JEAN MELOK - 34",10002-34,"Hay existencias",2
"REMERA VENK NEGRA - Talle 2",10047-2,"Hay existencias",2
"POLERÓN ORQUIDEA",10022-1-2-1,"Hay existencias",2
"JEAN JUFRÉ - 38",10021-38-1-1,"Hay existencias",2
"JEAN MARBLE - 32",10000-32,"Hay existencias",2
"PANTALÓN ZELIK ROSA - 26",10003-26,"Hay existencias",2
"POLERÓN GRIS",10022-1-2-1-1,"Hay existencias",2
"REMERA VENK GRIS - Talle 1",10046-1,"Hay existencias",3
"RIÑONERA VERDE",10057-1-1-1-1-1,"Hay existencias",3
"BUZO WOLEK ROSA - Talle 1",10015-1,"Hay existencias",3
"BABUCHA SOZNA VERDE - 28",10030-28,"Hay existencias",3
"JEAN KAMBA - 28",10021-28-1-1-1-1,"Hay existencias",3
"PANTALÓN ZELIK ROSA - 24",10003-24,"Hay existencias",3
"JEAN SKINNY KOBE - 38",10021-38-1-1-1-1-1-2-1,"Hay existencias",3
"REMERÓN BLANCO - Talle 2",10012-2,"Hay existencias",3
"POLERÓN MOSTAZA",10024,"Hay existencias",3
"PULSERA TOREYI",10055,"Hay existencias",3
"JEAN KAMBA - 26",10028,"Hay existencias",3
"POLERÓN CRUDO",10022-1-2-1-2,"Hay existencias",3
"POLERÓN LILA",10022-1-2,"Hay existencias",3
"PARKA TROYAT VERDE - Talle 2",10026-1,"Hay existencias",3
"RIÑONERA GRIS",10057-1-1-1-1,"Hay existencias",3
"RIÑONERA AMARILLO",10057-1-1-1,"Hay existencias",3
"JEAN MARBLE - 36",10000-36,"Hay existencias",3
"BABUCHA SOZNA VERDE - 30",10030-30,"Hay existencias",3
"PULSERA YAGE",10054,"Hay existencias",3
"PANTALÓN ZELIK ROSA - 32",10003-32,"Hay existencias",3
"PANTALÓN LINO CRUDO - Talle 3",10040-3,"Hay existencias",3
"JEAN BILEK - 36",10027-36,"Hay existencias",3
"PANTALÓN LINO CRUDO - Talle 2",10040-2,"Hay existencias",4
"PANTALÓN ZELIK LIMÓN - 32",10035-32,"Hay existencias",4
"JEAN JUFRÉ - 26",10021-26-1-1,"Hay existencias",4
"JEAN KAMBA - 38",10021-38-1-1-1-1,"Hay existencias",4
"REMERA VENK NEGRA - Talle 1",10047-1,"Hay existencias",4
"JEAN LORT - 36",10005-36,"Hay existencias",4
"BUZO WOLEK ROSA - Talle 2",10015-2,"Hay existencias",4
"BABUCHA SOZNA VERDE - 36",10030-36,"Hay existencias",4
"JEAN MELOK - 36",10002-36,"Hay existencias",4
"POLERÓN ROSA",10022-1,"Hay existencias",5
"BUZO SABAK - Talle 1",10022-1-1,"Hay existencias",5
"JEAN JUFRÉ - 28",10021-28-1-1,"Hay existencias",5
"JEAN PUKOF - 34",10001-34,"Hay existencias",5
"PANTALÓN ZELIK MENTA - 32",10038-32,"Hay existencias",5
"PANTALÓN ZELIK NEGRO - 24",10004-24,"Hay existencias",5
"PARKA TROYAT GRIS",10026-1-1,"Hay existencias",5
"PANTALÓN ZELIK LIMÓN - 38",10035-38,"Hay existencias",5
"PANTALÓN ZELIK LIMÓN - 30",10035-30,"Hay existencias",5
"POLERÓN VERDE MENTA",10022,"Hay existencias",5
"PARKA TROYAT VERDE",10026-1,"Hay existencias",5
"PANTALÓN ZELIK LIMÓN - 34",10035-34,"Hay existencias",5
"JEAN MARBLE - 34",10000-34,"Hay existencias",6
"BABUCHA SOZNA VERDE - 34",10030-34,"Hay existencias",6
"JEAN LORT - 32",10005-32,"Hay existencias",6
"BABUCHA SOZNA VERDE - 32",10030-32,"Hay existencias",6
"BABUCHA SOZNA NEGRA - 32",10031-32,"Hay existencias",6
"PANTALÓN LINO CRUDO - Talle 1",10040-1,"Hay existencias",6
"JEAN PUKOF - 38",10001-38,"Hay existencias",6
"JEAN POLET - 38",10020-38-1,"Hay existencias",6
"REMERÓN DIONISOS NEGRO - Talle 1",10032-1-1,"Hay existencias",6
"PANTALÓN ZELIK NEGRO - 38",10004-38,"Hay existencias",6
"JEAN JUFRÉ - 34",10021-34-1-1,"Hay existencias",7
"BABUCHA SOZNA NEGRA - 28",10031-28,"Hay existencias",7
"JEAN PUKOF - 28",10001-28,"Hay existencias",7
"JEAN SKINNY KOBE - 36",10021-36-1-1-1-1-1-2-1,"Hay existencias",7
"JEAN SKINNY KOBE - 30",10021-30-1-1-1-1-1-2-1,"Hay existencias",7
"JEAN KABÚ - 38",10021-38-1-1-1-1-1-2,"Hay existencias",7
"JEAN KAMBA - 30",10021-30-1-1-1-1,"Hay existencias",7
"JEAN PUKOF - 36",10001-36,"Hay existencias",7
"BABUCHA SOZNA NEGRA - 34",10031-34,"Hay existencias",8
"JEAN POTKAT - 32",10016-32,"Hay existencias",8
"REMERÓN BLANCO - Talle 1",10012-1,"Hay existencias",8
"JEAN KABÚ - 26",100321,"Hay existencias",8
"JEAN POLET - 32",10020-32-1,"Hay existencias",8
"JEAN POLET - 26",10020-26-1,"Hay existencias",8
"JEAN FENAT - 38",10021-38-1-1-1,"Hay existencias",8
"CAMPERA FOLKY NEGRA",10008-1,"Hay existencias",9
"PARKA TROYAT VERDE - Talle 1",10026-1,"Hay existencias",9
"JEAN PEKUR - 26",10028-1-1,"Hay existencias",9
"JEAN FRENÚ - 26",10017-26,"Hay existencias",9
"MUSCULOSA ITKA - Talle 1",10029-1,"Hay existencias",9
"JEAN FRENÚ - 38",10017-38,"Hay existencias",9
"REMERÓN DIONISOS BLANCO - Talle 2",10032-2,"Hay existencias",9
"JEAN FENAT - 26",10021-26-1-1-1,"Hay existencias",9
"PANTALÓN ZELIK NEGRO - 32",10004-32,"Hay existencias",10
"POLERÓN NEGRO",10021,"Hay existencias",10
"REMERÓN DIONISOS BLANCO - Talle 1",10032-1,"Hay existencias",10
"BUZO SABAK - Talle 3",10022-3,"Hay existencias",10
"JEAN JUFRÉ - 32",10021-32-1-1,"Hay existencias",10
"MUSCULOSA ITKA - Talle 3",10029-3,"Hay existencias",10
"JEAN PEKUR - 28",10021-28-1-1-1-1-1-1,"Hay existencias",10
"JEAN KAMBA - 36",10021-36-1-1-1-1,"Hay existencias",10
"BABUCHA SOZNA NEGRA - 30",10031-30,"Hay existencias",10
"JEAN FENAT - 32",10021-32-1-1-1,"Hay existencias",10
"PARKA TROYAT NEGRA - Talle 1",10026,"Hay existencias",11
"JEAN PUKOF - 26",10001-26,"Hay existencias",11
"JEAN PEKUR - 38",10021-38-1-1-1-1-1-1,"Hay existencias",11
"PONCHO RÚSTICO GRIS CLARO - Talle 1",10015-1-1-3,"Hay existencias",11
"PANTALÓN ZELIK MENTA - 36",10038-36,"Hay existencias",11
"REMERÓN GRIS - Talle 2",10033-2,"Hay existencias",11
"PANTALÓN ZELIK MENTA - 30",10038-30,"Hay existencias",11
"PANTALÓN ZELIK MENTA - 34",10038-34,"Hay existencias",12
"PONCHO RÚSTICO GRAFITO - Talle 2",10015-2-1-3-1,"Hay existencias",12
"JEAN POLET - 34",10020-34-1,"Hay existencias",12
"PONCHO RÚSTICO GRAFITO - Talle 1",10015-1-1-3-1,"Hay existencias",12
"JEAN KABÚ - 32",1009,"Hay existencias",12
"JEAN JUFRÉ - 36",10021-36-1-1,"Hay existencias",12
"PONCHO RÚSTICO GRIS CLARO - Talle 2",10015-2-1-3,"Hay existencias",12
"BABUCHA SOZNA NEGRA - 36",10031-36,"Hay existencias",12
"JEAN KABÚ - 30",10021-30-1-1-1-1-1-2,"Hay existencias",13
"JEAN FRENÚ - 28",10017-28,"Hay existencias",13
"JEAN FENAT - 36",10021-36-1-1-1,"Hay existencias",13
"JEAN KABÚ - 28",10021-28-1-1-1-1-1-2,"Hay existencias",13
"JEAN FRENÚ - 32",10017-32,"Hay existencias",13
"JEAN FENAT - 34",10021-34-1-1-1,"Hay existencias",13
"JEAN FRENÚ - 30",10017-30,"Hay existencias",13
"PANTALÓN ZELIK MENTA - 28",10038-28,"Hay existencias",14
"JEAN POTKAT - 34",10016-34,"Hay existencias",14
"JEAN KABÚ - 34",10021-34-1-1-1-1-1-2,"Hay existencias",14
"JEAN POLET - 28",10020-28-1,"Hay existencias",14
"JEAN PUKOF - 32",10001-32,"Hay existencias",14
"BUZO SABAK - Talle 2",10022-2-1,"Hay existencias",14
"JEAN KABÚ - 36",10021-36-1-1-1-1-1-2,"Hay existencias",15
"JEAN POLET - 36",10020-36-1,"Hay existencias",15
"JEAN POLET - 30",10020-30-1,"Hay existencias",15
"CAMPERA MILAT - Talle 3",10048-3,"Hay existencias",15
"PARKA TROYAT GRIS - Talle 2",10026-1-1,"Hay existencias",15
"JEAN FENAT - 28",10021-28-1-1-1,"Hay existencias",15
"JEAN KAMBA - 34",10021-34-1-1-1-1,"Hay existencias",16
"JEAN FENAT - 30",10021-30-1-1-1,"Hay existencias",16
"JEAN SKINNY KOBE - 32",1009-1,"Hay existencias",16
"JEAN POTKAT - 26",10016-26,"Hay existencias",16
"PANTALÓN ZELIK NEGRO - 26",10004-26,"Hay existencias",17
"JEAN POTKAT - 38",10016-38,"Hay existencias",17
"PANTALÓN ZELIK NEGRO - 36",10004-36,"Hay existencias",17
"PARKA TROYAT GRIS - Talle 1",10026-1-1,"Hay existencias",17
"PANTALÓN ZELIK NEGRO - 34",10004-34,"Hay existencias",17
"JEAN FRENÚ - 36",10017-36,"Hay existencias",17
"JEAN PUKOF - 30",10001-30,"Hay existencias",17
"JEAN KAMBA - 32",10021-32-1-1-1-1,"Hay existencias",18
"JEAN POTKAT - 30",10016-30,"Hay existencias",18
"MUSCULOSA ITKA - Talle 2",10029-2,"Hay existencias",19
"JEAN FRENÚ - 34",10017-34,"Hay existencias",20
"JEAN SKINNY KOBE - 34",10021-34-1-1-1-1-1-2-1,"Hay existencias",20
"RIÑONERA NEGRA",10057-1,"Hay existencias",21
"JEAN PEKUR - 36",10021-36-1-1-1-1-1-1,"Hay existencias",21
"JEAN PEKUR - 30",10021-30-1-1-1-1-1-1,"Hay existencias",21
"REMERÓN GRIS - Talle 1",10033-1,"Hay existencias",23
"JEAN POTKAT - 36",10016-36,"Hay existencias",23
"BUZO WOLEK GRAFITO - Talle 2",10015-2-1-1,"Hay existencias",24
"TABAQUERA NEGRA",10057-1-1-1-1-1-1-1,"Hay existencias",25
"RIÑONERA MARRON",10057-1-1,"Hay existencias",25
"BUZO WOLEK GRAFITO - Talle 1",10015-1-1-1,"Hay existencias",25
"PANTALÓN ZELIK NEGRO - 30",10004-30,"Hay existencias",25
"SOBRE MARRON",10057-1-1-1-1-1-4,"Hay existencias",25
"TABAQUERA MARRON",10057-1-1-1-1-1-1,"Hay existencias",25
"SACO MARRON - Talle 2",10015-2-1-2,"Hay existencias",26
"SACO NEGRO - Talle 2",10015-2-1-2-1,"Hay existencias",26
"SACO MARRON - Talle 1",10015-1-1-2,"Hay existencias",26
"BUZO WOLEK ALMENDRA - Talle 2",10015-2-1,"Hay existencias",26
"SACO NEGRO - Talle 1",10015-1-1-2-1,"Hay existencias",26
"BUZO WOLEK ALMENDRA - Talle 1",10015-1-1,"Hay existencias",26
"PANTALÓN ZELIK NEGRO - 28",10004-28,"Hay existencias",27
"CAMPERA MILAT - Talle 2",10048-2,"Hay existencias",33
"JEAN POTKAT - 28",10016-28,"Hay existencias",34
"JEAN PEKUR - 34",10021-34-1-1-1-1-1-1,"Hay existencias",34
"CAMPERA MILAT - Talle 1",10048-1,"Hay existencias",36
"JEAN PEKUR - 32",10021-32-1-1-1-1-1-1,"Hay existencias",42
"SHORT FALTEN",10043,Agotado,0
"CAMPERA MALAI CELESTE",10019,Agotado,0
"SHORT DUNKEL",10045,Agotado,0
"SHORT GLAT",10044,Agotado,0
"SHORT DUNKEL - 34",10045-34,Agotado,'-1
"REMERA VENK GRIS - Talle 3",10046-3,Agotado,'-1
"CAMPERA MALAI CELESTE - Extra large",10019-4,Agotado,'-1
"JEAN MELOK - 32",10002-32,Agotado,'-1
"JEAN JUFRÉ - 30",10021-30-1-1,Agotado,'-1
"JEAN BILEK - 30",10027-30,Agotado,0
"REMERA VENK NEGRA - Talle 3",10047-3,Agotado,0
"BUZO WOLEK GRIS - Talle 2",10011-2,Agotado,0
"SHORT DUNKEL - 28",10045-28,Agotado,0
"SHORT GLAT - 34",10044-34,Agotado,0
"CAMPERA MALAI CELESTE - Large",10019-3,Agotado,0
"SHORT GLAT - 28",10044-28,Agotado,0
"SHORT FALTEN - 34",10042-34,Agotado,0
"JEAN MARBLE - 28",10000-28,Agotado,0
"SHORT FALTEN - 28",10042-28,Agotado,0
"PANTALÓN ZELIK ROSA - 36",10003,Agotado,0
"PANTALÓN ZELIK ROSA - 30",10003-30,Agotado,0
"JEAN MELOK - 28",10002-28,Agotado,0
"JEAN BILEK - 34",10027-34,Agotado,0
"JEAN BILEK - 28",10027-28,Agotado,0
"PANTALÓN ZELIK LIMÓN - 26",10035-26,Agotado,0
"PARKA TROYAT NEGRA - Talle 2",10026,Agotado,0
"JEAN SKINNY KOBE - 26",100321-1,Agotado,0
"SHORT DUNKEL - 38",10045-38,Agotado,0
"PANTALÓN ZELIK MENTA - 26",10038-26,Agotado,0
"SHORT DUNKEL - 32",10045-32,Agotado,0
"SHORT GLAT - 38",10044-38,Agotado,0
"CAMPERA MALAI CELESTE - Small",10019-1,Agotado,0
"SHORT GLAT - 32",10044-32,Agotado,0
"SHORT FALTEN - 38",10042-38,Agotado,0
"SHORT FALTEN - 32",10042-32,Agotado,0
"JEAN MELOK - 38",10002-38,Agotado,0
"REMERÓN DIONISOS NEGRO - Talle 2",10032-2-1,Agotado,0
"PANTALÓN ZELIK ROSA - 34",10003-34,Agotado,0
"PANTALÓN ZELIK ROSA - 28",10003-28,Agotado,0
"JEAN BILEK - 38",10027-38,Agotado,0
"JEAN BILEK - 32",10027-32,Agotado,0
"PANTALÓN ZELIK LIMÓN - 24",10035-24,Agotado,0
"REMERA VENK GRIS - Talle 2",10046-2,Agotado,0
"SHORT DUNKEL - 36",10045-36,Agotado,0
"SHORT DUNKEL - 30",10045-30,Agotado,0
"JEAN LORT - 30",10005-30,Agotado,0
"SHORT GLAT - 36",10044-36,Agotado,0
"CAMPERA MALAI CELESTE - Medium",10019-2,Agotado,0
"SHORT GLAT - 30",10044-30,Agotado,0
"SHORT FALTEN - 36",10042-36,Agotado,0
"JEAN MARBLE - 30",10000-30,Agotado,0
"SHORT FALTEN - 30",10042-30,Agotado,0
"JEAN MELOK - 30",10002-30,Agotado,0
