"Jean Kabú",10028-1-1-1-1-1-2,"Hay existencias",0
,0,"Hay existencias",0
"Pantalón Albán Arena",10235,"Hay existencias",0
"Jean Polet",10016-1,"Hay existencias",0
"Musculosa Itka Terra",10231,"Hay existencias",0
"Pantalón Zelik Limón",10035,"Hay existencias",0
"Bermuda Chaina Azul",10024,"Hay existencias",20
"Jean Tayib",10100,"Hay existencias",0
"Pantalón Zelik Negro",10004,"Hay existencias",0
"Campera Tival",10021-1-2,"Hay existencias",0
"Pantalón Corderoy Arena",10218,"Hay existencias",0
"Jean Pukof",10001,"Hay existencias",0
"Jean Pekur",10028-1-1-1-1-1-1,"Hay existencias",0
"Jean Kamba",10028-1-1-1-1,"Hay existencias",0
,0,"Hay existencias",0
"Pantalón Albán Crudo",10237,"Hay existencias",0
"Pantalón Albán Terra",10234,"Hay existencias",0
"Musculosa Itka Oliva",10230,"Hay existencias",0
"Musculosa Itka Perla",10029,"Hay existencias",0
"Remerón Dionisos Cactus",10223,"Hay existencias",0
"Jean Potkat",10016,"Hay existencias",0
"Remeron Chicle",10033-3,"Hay existencias",0
"Buzo Oscar",10220,"Hay existencias",0
"Pantalón Zelik Rosa",10003,"Hay existencias",0
"Campera Tolem",10021-1,"Hay existencias",0
"Jean Fenat",10028-1-1-1,"Hay existencias",0
,0,"Hay existencias",0
"Pantalón Albán Negro",10236,"Hay existencias",0
"Jean Jufré",10021-1-1,"Hay existencias",0
"Musculosa Itka Curry",10232,"Hay existencias",0
"Campera Malai",10019,"Hay existencias",0
"Remerón Dionisos Negro",10222,"Hay existencias",0
"Campera Temra",10021-1-2-1,"Hay existencias",0
"Pantalón Corderoy Terra",10219,"Hay existencias",0
"Jean Melok",10002,"Hay existencias",0
"Campera Milat Black",10181,"Hay existencias",0
"Collar Chennai",10212,"Hay existencias",1
"Remera Lino Ladrillo - Talle 1",10187-1,"Hay existencias",1
"Bermuda Libet - 26",10158-26,"Hay existencias",1
"Túnica Gaia Naranja - Verde",10233,"Hay existencias",1
"Jean Fenat - 26",10021-26-1-1-1,"Hay existencias",1
"Jean Gamat - 38",10216-38,"Hay existencias",1
"Jean Gamat - 26",10216-26,"Hay existencias",1
"Campera Temra - Talle 4",10021-1-2-1,"Hay existencias",1
"Pantalón Zelik Rosa - 30",10003-30,"Hay existencias",1
"Remera Lino Beige - Talle 1",10188-1,"Hay existencias",1
"Remerón Lino Terra - Talle 2",10254-2,"Hay existencias",1
"Short Índigo - 26",10176-26,"Hay existencias",1
"Collar Maraví",10049,"Hay existencias",1
"Jean Tayib - 36, Black",10100-36-01,"Hay existencias",1
"Pantalón Zelik Haba - 38",10180-38,"Hay existencias",1
"Collar Pampa",1060,"Hay existencias",1
"Pantalón Zelik Limón - 36",10035-36,"Hay existencias",1
"Pantalón Egipto - Talle 2",10155-2,"Hay existencias",1
"Pantalón Zelik Cielo - 38",10107-38,"Hay existencias",1
"Jean Gamat - 36",10216-36,"Hay existencias",1
"Remera Aure - Talle 1",10229-1,"Hay existencias",1
"Jean Frenú - 36",10017-36,"Hay existencias",1
"Camisa Dante - Talle 2",10409-2,"Hay existencias",1
"Poncho Lavié",PONCHOPARCHES,"Hay existencias",1
"Remerón Lino Terra - Talle 1",10254-1,"Hay existencias",1
"Remerón Baggy Rosa - Talle 2",10011-2,"Hay existencias",2
"Jean Pukof - 36",10001-36,"Hay existencias",2
"Campera Tival - Talle 3",10021-1-2,"Hay existencias",2
"Short Ontario Cielo - 26",10175-26,"Hay existencias",2
"Camisa Índigo - Talle 3",10411-3,"Hay existencias",2
"Pantalón Barna - 26",10224-26,"Hay existencias",2
"Bermuda Libet - 38",10158-38,"Hay existencias",2
"Pantalón Zelik Negro - 38",10004-38,"Hay existencias",2
"Bermuda Cefán - 26",10172-26,"Hay existencias",2
"Pantalón Zelik Haba",10180,"Hay existencias",2
"Collar Agra",10214,"Hay existencias",2
"Remerón Flamé Negro - Talle 1",10034-1,"Hay existencias",2
"Bermuda Yambé - 26",10156-26,"Hay existencias",2
"Short Ontario - 26",10170-26,"Hay existencias",2
"Short Índigo - 38",10176-38,"Hay existencias",2
"Remeron Chicle - Talle 2",10033-2-1,"Hay existencias",2
"Jean Jufré - 26",10021-26-1-1,"Hay existencias",2
"Campera Tival - Talle 4",10021-1-2,"Hay existencias",2
"Pantalón Zelik Pardo - 36",10179-36,"Hay existencias",2
"Campera Cielo - Talle 2",11039-2,"Hay existencias",2
"Bermuda Chaina Azul - 28",10024-28,"Hay existencias",2
"Pantalón Corderoy Terra - Talle 3",10219-3,"Hay existencias",2
"Bermuda Kuban - 34",10177-34,"Hay existencias",2
"Pantalón Zelik Limón - 34",10035-34,"Hay existencias",2
"Jean Jufré - 36",10021-36-1-1,"Hay existencias",2
"Parka Troyat Gris",10026-1-1,"Hay existencias",3
"Pantalón Zelik Pardo - 38",10179-38,"Hay existencias",3
"Pantalón Corderoy Arena - Talle 3",10218-3,"Hay existencias",3
"Short Ontario - 28",10170-28,"Hay existencias",3
"Jean Kuma - 38",10182-38,"Hay existencias",3
"Campera Temra - Talle 1",10021-1-2-1,"Hay existencias",3
"Jean Polet - 36",10020-36-1,"Hay existencias",3
"Pantalón Zelik Limón - 38",10035-38,"Hay existencias",3
"Bermuda Chaina Negra - 28",10023-28,"Hay existencias",3
"Camisa Goet - Talle 1",10410-1,"Hay existencias",3
"Musculosa Itka Terra - Talle 3",10231-3,"Hay existencias",3
"Jean Bilek - 36",10027-36,"Hay existencias",3
"Bermuda Chaina Negra - 38",10023-38,"Hay existencias",3
"Jean Kabú - 38",10021-38-1-1-1-1-1-2,"Hay existencias",3
"Short Ontario Cielo - 38",10175-38,"Hay existencias",3
"Collar Mudrah",10244,"Hay existencias",4
"Remerón Dionisos Cactus - Talle 2",10223-2,"Hay existencias",4
"Bermuda Chaina Azul - 38",10024-38,"Hay existencias",4
"Bermuda Yambé - 36",10156-36,"Hay existencias",4
"Jean Potkat - 28",10016-28,"Hay existencias",4
"Poncho Érebo",10221,"Hay existencias",4
"Jean Kabú - 36",10021-36-1-1-1-1-1-2,"Hay existencias",4
"Jean Kabú - 30",10021-30-1-1-1-1-1-2,"Hay existencias",4
"Buzo Famma - Talle 1",10159-1,"Hay existencias",4
"Remerón Flamé Lila - Talle 2",10008-2,"Hay existencias",4
"Bermuda Toré - 28",10171-28,"Hay existencias",4
"Collar Blakay",10240,"Hay existencias",4
"Camisa Dante",10409,"Hay existencias",4
"Pantalón Zelik Rosa - 36",10003,"Hay existencias",4
"Buzo Oscar - Talle 2",10220-2,"Hay existencias",4
"Short Ontario - 38",10170-38,"Hay existencias",4
"Jean Kabú - 34",10021-34-1-1-1-1-1-2,"Hay existencias",4
"Buzo Famma - Talle 3",10159-3,"Hay existencias",4
"Campera Temra - Talle 3",10021-1-2-1,"Hay existencias",4
"Bermuda Toré - 38",10171-38,"Hay existencias",4
"Media Polera Blanca - Talle 2",10190-2,"Hay existencias",4
"Pantalón Barna - 38",10224-38,"Hay existencias",4
"Collar Pondicherry",10239,"Hay existencias",4
"Remerón Dionisos Negro - Talle 2",10222-2,"Hay existencias",4
"Musculosa Itka Curry - Talle 3",10232-3,"Hay existencias",4
"Musculosa Itka Oliva - Talle 3",10230-3,"Hay existencias",4
"Jean Melok - 38",10002-38,"Hay existencias",4
"Jean Jufré - 30",10021-30-1-1,"Hay existencias",4
"Buzo Famma - Talle 2",10159-2,"Hay existencias",4
"Bermuda Toré - 30",10171-30,"Hay existencias",5
"Jean Polet - 26",10020-26-1,"Hay existencias",5
"Collar Nek",10238,"Hay existencias",5
"Jean Tayib - 28, Blue",10100-28-02,"Hay existencias",5
"Campera Cielo - Talle 1",11039-1,"Hay existencias",5
"Jean Frenú",10017,"Hay existencias",5
"Pantalón Zelik Lavanda - 38",10106-38,"Hay existencias",5
"Pantalón Zelik Rosa - 38",10003-38,"Hay existencias",5
"Campera Milat Black - Talle 3",10181-3,"Hay existencias",5
"Camisa Goet - Talle 2",10410-2,"Hay existencias",5
"Media Polera Gris - Talle 2",10189-2,"Hay existencias",5
"Jean Tayib - 28, Black",10100-28-01,"Hay existencias",5
"Pantalón Corderoy Arena - Talle 2",10218-2,"Hay existencias",5
"Jean Bilek - 32",10027-32,"Hay existencias",5
"Bermuda Chaina Negra - 34",10023-34,"Hay existencias",5
"Bermuda Toré - 32",10171-32,"Hay existencias",5
"Short Ontario Cielo - 28",10175-28,"Hay existencias",5
"Bermuda Libet - 34",10158-34,"Hay existencias",5
"Bermuda Cefán - 28",10172-28,"Hay existencias",5
"Jean Fenat - 28",10021-28-1-1-1,"Hay existencias",5
"Dollman Ladrillo - Talle 2",10184-2,"Hay existencias",5
"Jean Polet - 38",10020-38-1,"Hay existencias",6
"Jean Pecat - 26",10056-26,"Hay existencias",6
"Collar Chandra",10241,"Hay existencias",6
"Pantalón Corderoy Terra - Talle 2",10219-2,"Hay existencias",6
"Short Ontario - 34",10170-34,"Hay existencias",6
"Jean Pecat - 36",10056-36,"Hay existencias",6
"Jean Melok - 36",10002-36,"Hay existencias",6
"Short Índigo - 28",10176-28,"Hay existencias",6
"Pantalón Zelik Lavanda - 36",10106-36,"Hay existencias",6
"Short Ontario Cielo - 36",10175-36,"Hay existencias",6
"Collar Goute",10243,"Hay existencias",6
"Jean Melok - 26",10002-26,"Hay existencias",6
"Jean Pecat - 28",10056-28,"Hay existencias",6
"Musculosa Itka Perla - Talle 3",10029-3,"Hay existencias",6
"Jean Tayib - 38, Blue",10100-38-02,"Hay existencias",6
"Collar Portal",10242,"Hay existencias",6
"Bermuda Yambé - 38",10156-38,"Hay existencias",6
"Jean Potkat - 36",10016-36,"Hay existencias",6
"Pantalón Zelik Lavanda - 32",10106-32,"Hay existencias",6
"Jean Kuma - 36",10182-36,"Hay existencias",6
"Bermuda Toré - 36",10171-36,"Hay existencias",7
"Media Polera Blanca - Talle 1",10190-1,"Hay existencias",7
"Bermuda Cefán - 38",10172-38,"Hay existencias",7
"Bermuda Kuban - 38",10177-38,"Hay existencias",7
"Bermuda Chaina Negra - 30",10023-30,"Hay existencias",7
"Bermuda Cefán - 36",10172-36,"Hay existencias",7
"Pantalón Corderoy Terra - Talle 1",10219-1,"Hay existencias",7
"Musculosa Itka Terra - Talle 2",10231-2,"Hay existencias",7
"Túnica Gaia - Verde",10025-2,"Hay existencias",7
"Bermuda Yambé - 28",10156-28,"Hay existencias",7
"Musculosa Itka Oliva - Talle 2",10230-2,"Hay existencias",7
"Dollman Verde - Talle 2",10183-2,"Hay existencias",7
"Jean Frenú - 32",10017-32,"Hay existencias",7
"Short Ontario Cielo - 34",10175-34,"Hay existencias",7
"Jean Kamba - 26",10028,"Hay existencias",7
"Pantalón Corderoy Arena - Talle 1",10218-1,"Hay existencias",7
"Bermuda Chaina Negra - 32",10023-32,"Hay existencias",7
"Short Índigo - 36",10176-36,"Hay existencias",7
"Jean Pecat - 38",10056-38,"Hay existencias",7
"Camisa Goet",10410,"Hay existencias",7
"Jean Kabú - 26",100321,"Hay existencias",7
"Campera Temra - Talle 2",10021-1-2-1,"Hay existencias",7
"Túnica Gaia",10025,"Hay existencias",7
"Remerón Felipe Marino",10209,"Hay existencias",8
"Jean Polet - 32",10020-32-1,"Hay existencias",8
"Campera Tolem - Talle 1",10021-1,"Hay existencias",8
"Jean Tayib - 34, Blue",10100-34-02,"Hay existencias",8
"Remera Lino Beige - Talle 2",10188-2,"Hay existencias",8
"Bermuda Chaina Azul - 32",10024-32,"Hay existencias",8
"Musculosa Itka Curry - Talle 1",10232-1,"Hay existencias",8
"Musculosa Itka Terra - Talle 1",10231-1,"Hay existencias",8
"Bermuda Chaina Negra - 36",10023-36,"Hay existencias",8
"Musculosa Itka Oliva - Talle 1",10230-1,"Hay existencias",8
"Remerón Felipe Bordó",10208,"Hay existencias",8
"Pantalón Albán Crudo - Talle 2",10237-2,"Hay existencias",8
"Camisa Índigo - Talle 2",10411-2,"Hay existencias",8
"Remerón Dionisos Cactus - Talle 1",10223-1,"Hay existencias",8
"Pantalón Albán Terra - Talle 2",10234-2,"Hay existencias",8
"Remera Lino Verde - Talle 2",10186-2,"Hay existencias",8
"Musculosa Itka Curry - Talle 2",10232-2,"Hay existencias",8
"Media Polera Gris",10189,"Hay existencias",8
"Short Índigo - 32",10176-32,"Hay existencias",8
"Jean Kabú - 28",10021-28-1-1-1-1-1-2,"Hay existencias",8
"Remera Lino Ladrillo - Talle 2",10187-2,"Hay existencias",8
"Jean Tayib - 26, Blue",10100-26-02,"Hay existencias",8
"Bermuda Yambé - 32",10156-32,"Hay existencias",8
"Campera Lavanda - Talle 1",11038-2,"Hay existencias",8
"Bermuda Kuban - 28",10177-28,"Hay existencias",8
"Pantalón Albán Crudo (copia) - Talle 2",10237-2-1,"Hay existencias",8
"Jean Kuma - 28",10182-28,"Hay existencias",8
"Kimono Corto Crudo - Talle 2",10247-2,"Hay existencias",9
"Kimono Corto Almendra - Talle 1",10246-1,"Hay existencias",9
"Jean Bilek - 28",10027-28,"Hay existencias",9
"Kimono Corto Negro - Talle 2",10248-2,"Hay existencias",9
"Bermuda Toré - 34",10171-34,"Hay existencias",9
"Kimono Corto Crudo - Talle 1",10247-1,"Hay existencias",9
"Bermuda Chaina Azul - 36",10024-36,"Hay existencias",9
"Bermuda Chaina Azul - 30",10024-30,"Hay existencias",9
"Bermuda Kuban - 36",10177-36,"Hay existencias",9
"Camisa Aure - Talle 2",10215-2,"Hay existencias",9
"Kimono Corto Negro - Talle 1",10248-1,"Hay existencias",9
"Kimono Corto Almendra - Talle 2",10246-2,"Hay existencias",9
"Remerón Flamé Lila",10008,"Hay existencias",9
"Bermuda Chaina Azul - 34",10024-34,"Hay existencias",9
"Camisa Aure - Talle 1",10215-1,"Hay existencias",9
"Jean Pukof - 26",10001-26,"Hay existencias",9
"Saco Jaipur - Talle 1",10206-1,"Hay existencias",10
"Short Ontario Cielo - 32",10175-32,"Hay existencias",10
"Remerón Baggy Rosa",10011,"Hay existencias",10
"Pantalón Zelik Pardo - 34",10179-34,"Hay existencias",10
"Pantalón Zelik Negro - 28",10004-28,"Hay existencias",10
"Remerón Dionisos Negro - Talle 1",10222-1,"Hay existencias",10
"Remerón Kaló Crudo",10227,"Hay existencias",10
"Bermuda Yambé - 30",10156-30,"Hay existencias",10
"Remera Lino Ladrillo",10187,"Hay existencias",10
"Jean Kuma - 34",10182-34,"Hay existencias",10
"Jean Pekur - 38",10021-38-1-1-1-1-1-1,"Hay existencias",10
"Jean Potkat - 26",10016-26,"Hay existencias",10
"Bermuda Yambé - 34",10156-34,"Hay existencias",10
"Remerón Kaló Arena",10226,"Hay existencias",10
"Bermuda Kuban - 30",10177-30,"Hay existencias",10
"Jean Frenú - 38",10017-38,"Hay existencias",10
"Jean Kuma - 32",10182-32,"Hay existencias",10
"Jean Pukof - 32",10001-32,"Hay existencias",10
"Remerón Kaló Negra",10228,"Hay existencias",10
"Short Ontario - 36",10170-36,"Hay existencias",10
"Remerón Kaló Oliva",10225,"Hay existencias",10
"Short Índigo - 30",10176-30,"Hay existencias",10
"Musculosa Itka Perla - Talle 2",10029-2,"Hay existencias",11
"Media Polera Blanca",10190,"Hay existencias",11
"Short Índigo - 34",10176-34,"Hay existencias",11
"Short Ontario Cielo - 30",10175-30,"Hay existencias",11
"Pantalón Barna - 30",10224-30,"Hay existencias",11
"Campera Cielo",11039,"Hay existencias",11
"Jean Frenú - 26",10017-26,"Hay existencias",11
"Bermuda Cefán - 30",10172-30,"Hay existencias",11
"Pantalón Zelik Cielo",10007,"Hay existencias",11
"Campera Roxa - Talle 1",10037-1,"Hay existencias",11
"Pantalón Barna - 28",10224-28,"Hay existencias",11
"Musculosa Itka Negra - Talle 1",10173-1,"Hay existencias",11
"Pantalón Zelik Rosa - 32",10003-32,"Hay existencias",11
"Pantalón Albán Negro - Talle 2",10236-2,"Hay existencias",12
"Bermuda Kuban - 32",10177-32,"Hay existencias",12
"Túnica Perséfone Blanca",10018,"Hay existencias",12
"Musculosa Itka Perla - Talle 1",10029-1,"Hay existencias",12
"Jean Pekur - 26",10028-1-1,"Hay existencias",12
"Pantalón Barna - 36",10224-36,"Hay existencias",12
"Jean Kamba - 28",10021-28-1-1-1-1,"Hay existencias",12
"Pantalón Zelik Lavanda - 34",10106-34,"Hay existencias",12
"Jean Bilek - 26",10027-26,"Hay existencias",12
"Anillo Persefone",1020,"Hay existencias",12
"Camisa Aure",10215,"Hay existencias",12
"Sobre Marron",10057-1-1-1-1-1-4,"Hay existencias",13
"Musculosa Itka Negra - Talle 2",10173-2,"Hay existencias",13
"Campera Roxa",10037,"Hay existencias",13
"Sobre Negro",10057-1-1-1-1-1-4-1,"Hay existencias",13
"Jean Melok - 28",10002-28,"Hay existencias",13
"Jean Potkat - 32",10016-32,"Hay existencias",13
"Short Ontario - 32",10170-32,"Hay existencias",13
"Pantalón Zelik Rosa - 34",10003-34,"Hay existencias",13
"Pantalón Barna - 34",10224-34,"Hay existencias",13
"Jean Polet - 28",10020-28-1,"Hay existencias",13
"Jean Kamba - 38",10021-38-1-1-1-1,"Hay existencias",13
"Campera Tolem - Talle 2",10021-1,"Hay existencias",13
"Campera Lavanda",11038,"Hay existencias",13
"Short Ontario - 30",10170-30,"Hay existencias",13
"Jean Bilek - 30",10027-30,"Hay existencias",13
"Remera Lino Beige",10188,"Hay existencias",13
"Jean Pukof - 34",10001-34,"Hay existencias",14
"Pantalón Zelik Pardo - 32",10179-32,"Hay existencias",14
"Jean Pecat - 34",10056-34,"Hay existencias",14
"Tabaquera Negra",10057-1-1-1-1-1-1-1,"Hay existencias",14
"Pantalón Albán Terra - Talle 1",10234-1,"Hay existencias",14
"Campera Malai - Talle 2",10019,"Hay existencias",14
"Bermuda Cefán - 32",10172-32,"Hay existencias",15
"Jean Potkat - 34",10016-34,"Hay existencias",15
"Pantalón Albán Crudo (copia) - Talle 1",10237-1-1,"Hay existencias",15
"Jean Polet - 30",10020-30-1,"Hay existencias",15
"Jean Pukof - 28",10001-28,"Hay existencias",15
"Musculosa Itka Negra - Talle 3",10173-3,"Hay existencias",15
"Jean Bilek - 38",10027-38,"Hay existencias",15
"Pantalón Albán Crudo - Talle 1",10237-1,"Hay existencias",15
"Musculosa Itka Negra",10173,"Hay existencias",15
"Pantalón Albán Arena - Talle 2",10235-2,"Hay existencias",15
"Bermuda Cefán - 34",10172-34,"Hay existencias",15
"Jean Frenú - 30",10017-30,"Hay existencias",15
"Collar Persefone",10050,"Hay existencias",16
"Camisa Índigo",10411,"Hay existencias",16
"Tabaquera Marrón",10057-1-1-1-1-1-1,"Hay existencias",16
"Campera Milat Black - Talle 2",10181-2,"Hay existencias",16
"Jean Pekur - 28",10021-28-1-1-1-1-1-1,"Hay existencias",17
"Bermuda Kuban - 26",10177-26,"Hay existencias",17
"Jean Kuma - 30",10182-30,"Hay existencias",17
"Jean Pukof - 38",10001-38,"Hay existencias",17
"Jean Pecat - 32",10056-32,"Hay existencias",17
"Dollman Negro",10178,"Hay existencias",18
"Remerón Flamé Negro",10034,"Hay existencias",18
"Dollman Ladrillo",10184,"Hay existencias",18
"Jean Potkat - 38",10016-38,"Hay existencias",18
"Dollman Verde",10183,"Hay existencias",18
"Buzo Oscar - Talle 1",10220-1,"Hay existencias",18
"Dollman Beige",10185,"Hay existencias",18
"Remerón Kaló Crudo - Talle 1",10227-1,"Hay existencias",19
"Pantalón Albán Negro - Talle 1",10236-1,"Hay existencias",19
"Remerón Flamé Blanco",10009,"Hay existencias",19
"Jean Melok - 34",10002-34,"Hay existencias",19
"Bermuda Toré - 26",10171-26,"Hay existencias",19
"Buzo Famma",10159,"Hay existencias",19
"Bermuda Chaina Negra",10023,"Hay existencias",20
"Short Ontario Cielo",10175,"Hay existencias",20
"Short Ontario",10170,"Hay existencias",20
"Jean Bilek - 34",10027-34,"Hay existencias",20
"Jean Tayib - 30, Blue",10100-30-02,"Hay existencias",20
"Bermuda Chaina Azul",10024,"Hay existencias",20
"Short Índigo",10176,"Hay existencias",20
"Jean Melok - 32",10002-32,"Hay existencias",20
"Pantalón Barna - 32",10224-32,"Hay existencias",21
"Jean Polet - 34",10020-34-1,"Hay existencias",21
"Jean Kamba - 36",10021-36-1-1-1-1,"Hay existencias",22
"Campera Malai - Talle 1",10019,"Hay existencias",22
"Campera Tolem - Talle 3",10021-1,"Hay existencias",22
"Jean Pekur - 36",10021-36-1-1-1-1-1-1,"Hay existencias",22
"Jean Potkat - 30",10016-30,"Hay existencias",22
"Remerón Kaló Crudo - Talle 2",10227-2,"Hay existencias",22
"Campera Milat Black - Talle 1",10181-1,"Hay existencias",22
"Jean Pecat - 30",10056-30,"Hay existencias",23
"Pantalón Zelik Negro - 36",10004-36,"Hay existencias",23
"Jean Frenú - 28",10017-28,"Hay existencias",24
"Remera Lino Verde",10186,"Hay existencias",24
"Remerón Kaló Oliva - Talle 1",10225-1,"Hay existencias",24
"Jean Tayib - 32, Blue",10100-32-02,"Hay existencias",24
"Jean Pukof - 30",10001-30,"Hay existencias",25
"Remerón Kaló Negra - Talle 2",10228-2,"Hay existencias",25
"Jean Melok - 30",10002-30,"Hay existencias",25
"Remerón Kaló Arena - Talle 1",10226-1,"Hay existencias",25
"Jean Frenú - 34",10017-34,"Hay existencias",26
"Pantalón Albán Arena - Talle 1",10235-1,"Hay existencias",27
"Remerón Kaló Oliva - Talle 2",10225-2,"Hay existencias",27
"Remerón Kaló Arena - Talle 2",10226-2,"Hay existencias",27
"Pantalón Zelik Negro - 34",10004-34,"Hay existencias",30
"Bermuda Toré",10171,"Hay existencias",30
"Bermuda Kuban",10177,"Hay existencias",30
"Bermuda Yambé",10156,"Hay existencias",30
"Kimono Cleo",KIMCLEOTU,"Hay existencias",32
"Remerón Kaló Negra - Talle 1",10228-1,"Hay existencias",32
"Jean Kamba - 32",10021-32-1-1-1-1,"Hay existencias",32
"Jean Pekur - 32",10021-32-1-1-1-1-1-1,"Hay existencias",33
"Jean Bilek",10027,"Hay existencias",34
"Jean Kamba - 34",10021-34-1-1-1-1,"Hay existencias",37
"Jean Pekur - 34",10021-34-1-1-1-1-1-1,"Hay existencias",39
"Jean Pekur - 30",10021-30-1-1-1-1-1-1,"Hay existencias",40
"Jean Kamba - 30",10021-30-1-1-1-1,"Hay existencias",42
"Pantalón Zelik Negro - 32",10004-32,"Hay existencias",42
"Pantalón Zelik Negro - 30",10004-30,"Hay existencias",43
"Jean Pecat",10056,"Hay existencias",45
"Pantalón Zelik Pardo",10179,"Hay existencias",70
"Pantalón Zelik Lavanda",10006,"Hay existencias",70
"Jean Gamat",10216,"Hay existencias",77
"L'autre - Parfum",PERFLAUTRE,"Hay existencias",78
"Pantalón Barna",10224,"Hay existencias",86
"Remeron Celeste",10033-3-1,Agotado,0
"Pantalón Lino Negro",10055,Agotado,0
"Buzo Sabak",10015-3,Agotado,0
"Campera Milat Blue",10048,Agotado,0
"Parka Troyat Negra",10026,Agotado,0
"Remeron Negro",10033-3-1-1-2,Agotado,0
"Buzo Wolek Grafito",10015-4-1,Agotado,0
"Babucha Sozna Verde",10030,Agotado,0
"Remeron Marino",10033-3-1-1,Agotado,0
"Remeron Gris",10033,Agotado,0
"Buzo Wolek Almendra",10015-4,Agotado,0
"Remeron Celeste - Talle 1",10033-1-1-1,Agotado,'-1
"Aros Goute",10245,Agotado,'-1
"Babucha Sozna Negra - 36",10031-36,Agotado,'-1
"Remeron Celeste - Talle 2",10033-2-1-1,Agotado,'-1
"SHORT GLAT - 34",10044-34,Agotado,0
"Remerón Elora Verde - Talle 2",10223-2-1,Agotado,0
"Pantalón Zelik Rosa - 26",10003-26,Agotado,0
"Sweater Media Polera - lila-y-rosa",100101-02,Agotado,0
"Pantalón Zelik Haba - 32",10180-32,Agotado,0
"SHORT GLAT - 28",10044-28,Agotado,0
"Remerón Flamé Blanco - Talle 1",10009-1,Agotado,0
"Remera Lino Negra - Talle 2",10191-2,Agotado,0
"Pantalón Lino Negro - Talle 3",10055-3,Agotado,0
"Campera Tolem - Talle 4",10021-1,Agotado,0
"Remerón Dionisios Blanco - Talle 1",10032-1,Agotado,0
"Jean Tayib - 38, Black",10100-38-01,Agotado,0
"Pantalón Zelik Haba - 26",10180-26,Agotado,0
"Remerón Flamé Negro - Talle 2",10034-2,Agotado,0
"Saco Jaipur",10206,Agotado,0
"Riñonera Marrón",10057-1-1,Agotado,0
"Babucha Sozna Verde - 34",10030-34,Agotado,0
"Short Falten - 34",10042-34,Agotado,0
"Pantalón Zelik Cielo - 32",10107-32,Agotado,0
"Sacón Sinaí Camel",10203,Agotado,0
"Buzo Sabak - Talle 1",10022-1-1,Agotado,0
"Bermuda Libet - 32",10158-32,Agotado,0
"Campera Malai - Talle 4",10019,Agotado,0
"Babucha Sozna Verde - 28",10030-28,Agotado,0
"Jean Tayib - 32, Black",10100-32-01,Agotado,0
"Pantalón Zelik Pardo - 28",10179-28,Agotado,0
"Short Falten - 28",10042-28,Agotado,0
"Sweater Media Polera Combinado",10200,Agotado,0
"Jean Fenat - 38",10021-38-1-1-1,Agotado,0
"Jean Lort - 34",10005-34,Agotado,0
"Babucha Sozna Negra - 34",10031-34,Agotado,0
"Collar Golat",1056,Agotado,0
"Pantalon Lino Crudo - Talle 2",10040-2,Agotado,0
"Pantalón Zelik Cielo - 26",10107-26,Agotado,0
"Dollman Beige - Talle 2",10184-2-1,Agotado,0
"Polerón Negro",10197,Agotado,0
"Campera Milat Blue - Talle 1",10048-1,Agotado,0
"Jean Fenat - 32",10021-32-1-1-1,Agotado,0
"Jean Lort - 28",10005-28,Agotado,0
"Poncho Rustico Gris Claro - Talle 2",10015-2-1-3,Agotado,0
"Babucha Sozna Negra - 28",10031-28,Agotado,0
"Jean Tayib - 26, Black",10100-26-01,Agotado,0
"Anillo Piedra Turquesa",1017,Agotado,0
"Pantalón Zelik Menta - 38",10038-38,Agotado,0
"Polerón Aqua",10194,Agotado,0
"Remera Venk Negra - Talle 2",10047-2,Agotado,0
"Sacon Negro - Talle 1",10015-1-1-2-1,Agotado,0
"Remeron Negro - Talle 1",10033-1-1-1-1-2,Agotado,0
"Pulsera Dasha",1049,Agotado,0
"Pantalón Zelik Limón - 32",10035-32,Agotado,0
"Campera Roxa - Talle 2",10037-2,Agotado,0
"Dollman Ladrillo - Talle 1",10184-1,Agotado,0
"Remera Venk Gris - Talle 3",10046-3,Agotado,0
"Parka Troyat Negra - Talle 1",10026,Agotado,0
"Pantalón Egipto - Talle 1",10155-1,Agotado,0
"Buzo Wolek Almendra - Talle 2",10015-2-1,Agotado,0
"Remeron Marino - Talle 2",10033-2-1-1-1,Agotado,0
"Pulsera Zodiaco",1053,Agotado,0
"Pantalón Zelik Limón - 26",10035-26,Agotado,0
"SHORT DUNKEL - 38",10045-38,Agotado,0
"Jean Gamat - 34",10216-34,Agotado,0
"Parka Troyat Verde - Talle 1",10026-1,Agotado,0
"Camisa Snowy - Talle 2",10408-2,Agotado,0
"Remera Shek Blanco - Talle 2",10012-2,Agotado,0
"Pantalón Zelik Menta - 32",10038-32,Agotado,0
"Pantalón Zelik Lavanda - 30",10106-30,Agotado,0
"SHORT DUNKEL - 32",10045-32,Agotado,0
"Remerón Baggy Blanco - Talle 1",10014-1,Agotado,0
"Jean Jufré - 34",10021-34-1-1,Agotado,0
"Camisa Dante - Talle 1",10409-1,Agotado,0
"Pantalón Zelik Menta - 26",10038-26,Agotado,0
"Jean Kuma - 26",10182-26,Agotado,0
"SHORT GLAT - 38",10044-38,Agotado,0
"Remerón Baggy Negro - Talle 2",10010-2,Agotado,0
"Campera Milat Blue - Talle 3",10048,Agotado,0
"Jean Jufré - 28",10021-28-1-1,Agotado,0
"Sweater Media Polera - Negro",100101-04,Agotado,0
"SHORT GLAT - 32",10044-32,Agotado,0
"Remerón Baggy Rosa - Talle 1",10011-1,Agotado,0
"Campera Francia - Talle 1",10201-1,Agotado,0
"Collar Surat",10211,Agotado,0
"Pantalón Lino Negro - Talle 2",10055-2,Agotado,0
"Remerón Elora Verde - Talle 1",10223-1-1,Agotado,0
"Pantalón Zelik Rosa - 24",10003-24,Agotado,0
"Campera Tival - Talle 2",10021-1-2,Agotado,0
"Pulsera Yage",10054-1,Agotado,0
"Sweater Media Polera - crudo-y-verde-menta",100101-01,Agotado,0
"Pantalón Zelik Haba - 30",10180-30,Agotado,0
"Short Falten - 38",10042-38,Agotado,0
"Remera Lino Negra - Talle 1",10191-1,Agotado,0
"Remerón Lino Negra - Talle 2",10174-2,Agotado,0
"Remerón Baggy Blanco",10014,Agotado,0
"Babucha Sozna Verde - 38",10030-38,Agotado,0
"Jean Tayib - 36, Blue",10100-36-02,Agotado,0
"Pantalón Zelik Haba - 36",10180-36,Agotado,0
"Remerón Lino Negra",10174,Agotado,0
"Sacón Sinaí Negro",10205,Agotado,0
"Buzo Sabak - Talle 3",10022-3,Agotado,0
"Bermuda Libet - 36",10158-36,Agotado,0
"Remera Shek Negra - Talle 2",10012-2-1,Agotado,0
"Babucha Sozna Verde - 32",10030-32,Agotado,0
"Jean Tayib - 34, Black",10100-34-01,Agotado,0
"Short Falten - 32",10042-32,Agotado,0
"Pantalón Zelik Cielo - 30",10107-30,Agotado,0
"Poncho Yané",10202,Agotado,0
"Bermuda Libet - 30",10158-30,Agotado,0
"Pantalón Zelik Negro - 26",10004-26,Agotado,0
"Campera Malai - Talle 3",10019,Agotado,0
"Babucha Sozna Negra - 38",10031-38,Agotado,0
"Pantalón Zelik Pardo - 26",10179-26,Agotado,0
"Remerón Dionisos Negro - Talle 2",10032-2-1,Agotado,0
"Sweater Media Polera Combinado",10199,Agotado,0
"Jean Fenat - 36",10021-36-1-1-1,Agotado,0
"Jean Lort - 32",10005-32,Agotado,0
"Poncho Rustico Grafito - Talle 2",10015-2-1-3-1,Agotado,0
"Babucha Sozna Negra - 32",10031-32,Agotado,0
"Dollman Negro - Talle 2",10178-2,Agotado,0
"Anillo Piedra Roja",1016,Agotado,0
"Pantalon Lino Crudo - Talle 1",10040-1,Agotado,0
"Pantalón Zelik Cielo - 36",10107-36,Agotado,0
"Polerón Verde",10196,Agotado,0
"Jean Fenat - 30",10021-30-1-1-1,Agotado,0
"Poncho Rustico Gris Claro - Talle 1",10015-1-1-3,Agotado,0
"Piloto Yofle",10103,Agotado,0
"Jean Tayib - 34",10021-34-1-1-1-1-1-2-2-1,Agotado,0
"Anillo Mistik",1019,Agotado,0
"Pantalón Zelik Menta - 36",10038-36,Agotado,0
"Campera Lavanda - Talle 2",11038-1,Agotado,0
"Dollman Beige - Talle 1",10184-1-1,Agotado,0
"Polerón Lavanda",10193,Agotado,0
"Remera Venk Negra - Talle 1",10047-1,Agotado,0
"Parka Troyat Gris - Talle 2",10026-1-1,Agotado,0
"Buzo Wolek Grafito - Talle 2",10015-2-1-1,Agotado,0
"Remeron Blanco - Talle 2",10033-2-1-1-1-1,Agotado,0
"Pulsera Curvi",1051,Agotado,0
"Pantalón Zelik Limón - 30",10035-30,Agotado,0
"Remera Venk Gris - Talle 2",10046-2,Agotado,0
"Jean Gamat - 32",10216-32,Agotado,0
"Parka Troyat Negra - Talle 2",10026,Agotado,0
"Remera Louis - Talle 2",1002-2,Agotado,0
"Remera Aure - Talle 2",10229-2,Agotado,0
"Buzo Wolek Almendra - Talle 1",10015-1-1,Agotado,0
"Remeron Gris - Talle 2",10033-2,Agotado,0
"Remeron Marino - Talle 1",10033-1-1-1-1,Agotado,0
"Pulsera Persefone",1055,Agotado,0
"Pantalón Zelik Limón - 24",10035-24,Agotado,0
"SHORT DUNKEL - 36",10045-36,Agotado,0
"Jean Gamat - 30",10216-30,Agotado,0
"Jean Jufré - 38",10021-38-1-1,Agotado,0
"Camisa Snowy - Talle 1",10408-1,Agotado,0
"Remera Shek Blanco - Talle 1",10012-1,Agotado,0
"Kimono Hades Cerro",10041,Agotado,0
"Pantalón Zelik Menta - 30",10038-30,Agotado,0
"Pantalón Zelik Lavanda - 28",10106-28,Agotado,0
"SHORT DUNKEL - 30",10045-30,Agotado,0
"Remerón Baggy Beige - Talle 2",10013-2,Agotado,0
"Jean Jufré - 32",10021-32-1-1,Agotado,0
"Túnica Perséfone Negra",10039,Agotado,0
"Pantalón Zelik Menta - 24",10038-24,Agotado,0
"SHORT GLAT - 36",10044-36,Agotado,0
"Remerón Baggy Negro - Talle 1",10010-1,Agotado,0
"Saco Jaipur - Talle 2",10206-2,Agotado,0
"Collar Thane",10213,Agotado,0
"Pantalón Zelik Rosa - 28",10003-28,Agotado,0
"Sweater Media Polera - mostaza-y-verde-agua",100101-03,Agotado,0
"Pantalón Zelik Haba - 34",10180-34,Agotado,0
"SHORT GLAT - 30",10044-30,Agotado,0
"Remerón Flamé Blanco - Talle 2",10009-2,Agotado,0
"Campera Francia - Talle 2",10201-2,Agotado,0
"Remerón Felipe Tostado",10210,Agotado,0
"Pantalón Lino Negro - Talle 1",10055-1,Agotado,0
"Riñonera Verde",10057-1-1-1-1-1,Agotado,0
"Campera Tival - Talle 1",10021-1-2,Agotado,0
"Remerón Dionisios Blanco - Talle 2",10032-2,Agotado,0
"Pantalón Zelik Haba - 28",10180-28,Agotado,0
"Remerón Flamé Lila - Talle 1",10008-1,Agotado,0
"Remerón Felipe Negro",10207,Agotado,0
"Riñonera Amarilla",10057-1-1-1,Agotado,0
"Remerón Lino Negra - Talle 1",10174-1,Agotado,0
"Remerón Baggy Negro",10010,Agotado,0
"Babucha Sozna Verde - 36",10030-36,Agotado,0
"Short Falten - 36",10042-36,Agotado,0
"Pantalón Zelik Cielo - 34",10107-34,Agotado,0
"Media Polera Gris - Talle 1",10189-1,Agotado,0
"Sacón Sinaí Army",10204,Agotado,0
"Buzo Sabak - Talle 2",10022-2-1,Agotado,0
"Camisa Índigo - Talle 1",10411-1,Agotado,0
"Remera Shek Negra - Talle 1",10012-1-1,Agotado,0
"Babucha Sozna Verde - 30",10030-30,Agotado,0
"Pantalón Zelik Pardo - 30",10179-30,Agotado,0
"Short Falten - 30",10042-30,Agotado,0
"Campera Francia",10201,Agotado,0
"Bermuda Libet - 28",10158-28,Agotado,0
"Jean Lort - 36",10005-36,Agotado,0
"Jean Tayib - 30, Black",10100-30-01,Agotado,0
"Remerón Dionisos Negro - Talle 1",10032-1-1,Agotado,0
"Pantalón Zelik Cielo - 28",10107-28,Agotado,0
"Remera Lino Verde - Talle 1",10186-1,Agotado,0
"Sweater Media Polera Combinado",10198,Agotado,0
"Campera Milat Blue - Talle 2",10048-2,Agotado,0
"Jean Fenat - 34",10021-34-1-1-1,Agotado,0
"Pantalon Lino Crudo",10040,Agotado,0
"Jean Lort - 30",10005-30,Agotado,0
"Poncho Rustico Grafito - Talle 1",10015-1-1-3-1,Agotado,0
"Babucha Sozna Negra - 30",10031-30,Agotado,0
"Dollman Negro - Talle 1",10178-1,Agotado,0
"Anillo Piedra Negra",1015,Agotado,0
"Pantalon Lino Crudo - Talle 3",10040-3,Agotado,0
"Polerón Rosa",10195,Agotado,0
"Sacon Negro - Talle 2",10015-2-1-2-1,Agotado,0
"Poncho Chané",PONCHO3,Agotado,0
"Remeron Negro - Talle 2",10033-2-1-1-1-2,Agotado,0
"Polerón Crudo",10192,Agotado,0
"Remera Venk Negra - Talle 3",10047-3,Agotado,0
"Parka Troyat Gris - Talle 1",10026-1-1,Agotado,0
"Buzo Wolek Grafito - Talle 1",10015-1-1-1,Agotado,0
"Remeron Blanco - Talle 1",10033-1-1-1-1-1,Agotado,0
"Pulsera Fauno",1052,Agotado,0
"Pantalón Zelik Limón - 28",10035-28,Agotado,0
"Dollman Verde - Talle 1",10183-1,Agotado,0
"Remera Venk Gris - Talle 1",10046-1,Agotado,0
"Parka Troyat Verde - Talle 2",10026-1,Agotado,0
"Remera Louis - Talle 1",1002-1,Agotado,0
"Camisa Snowy - Talle 3",10408-3,Agotado,0
"Remeron Gris - Talle 1",10033-1,Agotado,0
"Pantalón Zelik Menta - 34",10038-34,Agotado,0
"SHORT DUNKEL - 34",10045-34,Agotado,0
"Remerón Baggy Blanco - Talle 2",10014-2,Agotado,0
"Jean Gamat - 28",10216-28,Agotado,0
"Jean Kabú - 32",1009,Agotado,0
"Remeron Chicle - Talle 1",10033-1-1,Agotado,0
"Pantalón Zelik Menta - 28",10038-28,Agotado,0
"Pantalón Zelik Lavanda - 26",10106-26,Agotado,0
"SHORT DUNKEL - 28",10045-28,Agotado,0
"Remerón Baggy Beige - Talle 1",10013-1,Agotado,0
"Sweater Media Polera - Orquídea y verde menta",100101-05,Agotado,0
