"Campera Milat Blue - Talle 2",10048-2,12,316200.00,12,Agotado,0
"Jean Jufré - 32",10021-32-1-1,10,164670.00,10,"Hay existencias",15
"Camisa Índigo - Talle 1",10411-1,10,150480.00,9,Agotado,0
"Jean Kamba - 34",10021-34-1-1-1-1,6,96780.00,6,"Hay existencias",6
"Buzo Wolek Grafito - Talle 1",10015-1-1-1,6,22200.00,5,"Hay existencias",9
"Jean Jufré - 34",10021-34-1-1,6,95700.00,6,"Hay existencias",20
"Pantalón Zelik Haba - 32",10180-32,6,99690.00,6,"Hay existencias",7
"Jean Jufré - 30",10021-30-1-1,5,78705.00,5,"Hay existencias",29
"Campera Milat Blue - Talle 1",10048-1,5,130950.00,5,"Hay existencias",2
"Jean Kamba - 28",10021-28-1-1-1-1,5,80940.00,5,Agotado,0
"Buzo Famma - Talle 1",10159-1,5,12800.00,4,"Hay existencias",9
"Jean Gamat - 32",10216-32,5,80595.00,5,"Hay existencias",2
"Remerón Flamé Lila - Talle 1",10008-1,4,15300.00,4,Agotado,0
"Jean Kabú - 30",10021-30-1-1-1-1-1-2,4,67200.00,4,"Hay existencias",18
"Remerón Flamé Lila - Talle 2",10008-2,4,8500.00,4,"Hay existencias",8
"Campera Milat Black - Talle 3",10181-3,4,102810.00,4,"Hay existencias",8
"Campera Malai",10019,4,48200.00,3,"Hay existencias",4
"Jean Kabú - 32",1009,4,65490.00,4,"Hay existencias",10
"Jean Pecat - 30",10056-30,4,66000.00,4,"Hay existencias",25
"Jean Kabú - 34",10021-34-1-1-1-1-1-2,4,66690.00,4,"Hay existencias",18
"Jean Gamat - 34",10216-34,4,67200.00,4,"Hay existencias",18
"Buzo Famma - Talle 2",10159-2,4,50300.00,4,"Hay existencias",4
"Camisa Índigo - Talle 2",10411-2,4,67545.00,4,"Hay existencias",13
"Jean Jufré - 38",10021-38-1-1,4,66690.00,4,"Hay existencias",5
"Jean Kamba - 32",10021-32-1-1-1-1,4,67200.00,4,"Hay existencias",21
"Buzo Famma - Talle 3",10159-3,4,37120.00,4,"Hay existencias",6
"Camisa Índigo - Talle 3",10411-3,4,17100.00,4,"Hay existencias",3
"Remeron Negro - Talle 1",10033-1-1-1-1-2,3,23685.00,3,Agotado,0
"Pantalón Egipto - Talle 1",10155-1,3,71830.00,3,"Hay existencias",2
"Jean Polet - 32",10020-32-1,3,50100.00,3,"Hay existencias",13
"Campera Lavanda - Talle 2",11038-1,3,69575.00,3,"Hay existencias",1
"Jean Tayib - 34, Blue",10100-34-02,3,48105.00,3,"Hay existencias",12
"Jean Pukof - 32",10001-32,3,49590.00,3,"Hay existencias",17
"Jean Pecat - 28",10056-28,3,48500.00,3,"Hay existencias",7
"Remeron Negro - Talle 2",10033-2-1-1-1-2,3,22690.00,3,"Hay existencias",12
"Jean Kamba - 36",10021-36-1-1-1-1,3,48500.00,3,"Hay existencias",7
"Jean Tayib - 36, Blue",10100-36-02,3,47595.00,3,"Hay existencias",3
"Campera Milat Black - Talle 1",10181-1,3,77720.00,3,"Hay existencias",24
"Jean Frenú - 32",10017-32,3,47535.00,3,"Hay existencias",8
"Jean Pekur - 36",10021-36-1-1-1-1-1-1,3,50100.00,3,"Hay existencias",11
"Jean Gamat - 30",10216-30,3,48510.00,3,"Hay existencias",12
"Pantalón Zelik Negro - 26",10004-26,3,49305.00,3,Agotado,0
"Dollman Beige - Talle 2",10184-2-1,3,40500.00,3,"Hay existencias",3
"Pantalón Zelik Negro - 34",10004-34,3,48105.00,3,"Hay existencias",3
"Jean Kamba - 30",10021-30-1-1-1-1,3,48510.00,3,"Hay existencias",20
"Jean Jufré - 28",10021-28-1-1,3,47595.00,3,"Hay existencias",4
"Jean Kabú - 38",10021-38-1-1-1-1-1-2,2,32145.00,2,"Hay existencias",9
"Pantalón Corderoy Terra - Talle 1",10219-1,2,51400.00,2,"Hay existencias",1
"Dollman Negro - Talle 1",10178-1,2,26910.00,2,Agotado,0
"Camisa Aure - Talle 2",10215-2,2,45395.00,2,"Hay existencias",7
"Dollman Negro - Talle 2",10178-2,2,27600.00,2,"Hay existencias",4
"Campera Tolem - Talle 4",10021-1,2,48200.00,2,"Hay existencias",3
"Jean Kuma - 36",10182-36,2,34200.00,2,"Hay existencias",7
"Musculosa Itka Negra - Talle 1",10173-1,2,16150.00,2,Agotado,0
"Remera Lino Negra - Talle 2",10191-2,2,25600.00,2,"Hay existencias",4
"Campera Temra - Talle 2",10021-1-2-1,2,45000.00,2,"Hay existencias",7
"Dollman Beige - Talle 1",10184-1-1,2,26220.00,2,"Hay existencias",2
"Remerón Flamé Blanco - Talle 1",10009-1,2,16400.00,2,"Hay existencias",5
"Jean Kuma - 32",10182-32,2,32205.00,2,"Hay existencias",15
"Pantalón Zelik Haba - 30",10180-30,2,34200.00,2,"Hay existencias",1
"Pantalón Corderoy Arena - Talle 2",10218-2,2,49700.00,2,"Hay existencias",11
"Jean Potkat - 32",10016-32,2,33000.00,2,"Hay existencias",9
"Campera Francia - Talle 1",10201-1,2,45000.00,2,"Hay existencias",3
"Remerón Flamé Blanco - Talle 2",10009-2,2,16150.00,2,"Hay existencias",13
"Campera Milat Black - Talle 2",10181-2,2,53600.00,2,"Hay existencias",22
"Jean Frenú - 34",10017-34,2,33000.00,2,"Hay existencias",22
"Jean Pekur - 38",10021-38-1-1-1-1-1-1,2,33000.00,2,Agotado,0
"Pantalón Zelik Pardo - 30",10179-30,2,29700.00,2,"Hay existencias",7
"Jean Tayib - 30, Blue",10100-30-02,2,31635.00,2,"Hay existencias",22
"Jean Bilek - 34",10027-34,2,34200.00,2,"Hay existencias",25
"Remerón Flamé Negro - Talle 2",10034-2,2,15725.00,2,"Hay existencias",3
"Pantalón Zelik Cielo - 38",10107-38,2,33000.00,2,"Hay existencias",1
"Jean Pecat - 34",10056-34,2,31800.00,2,"Hay existencias",24
"Jean Frenú - 36",10017-36,2,34200.00,2,"Hay existencias",4
"Jean Tayib - 32, Blue",10100-32-02,2,33000.00,2,"Hay existencias",25
"Jean Pukof - 30",10001-30,2,33000.00,2,"Hay existencias",23
"Jean Kabú - 38",10021-38-1-1-1-1-1-2,2,32145.00,2,"Hay existencias",9
"Pantalón Corderoy Terra - Talle 1",10219-1,2,51400.00,2,"Hay existencias",1
"Dollman Negro - Talle 1",10178-1,2,26910.00,2,Agotado,0
"Camisa Aure - Talle 2",10215-2,2,45395.00,2,"Hay existencias",7
"Remera Lino Ladrillo - Talle 1",10187-1,2,23420.00,2,"Hay existencias",1
"Remerón Baggy Rosa - Talle 2",10011-2,2,11300.00,1,"Hay existencias",10
"Jean Gamat - 38",10216-38,1,17100.00,1,"Hay existencias",5
"Camisa Dante - Talle 2",10409-2,1,27300.00,1,"Hay existencias",4
"Remera Lino Negra - Talle 1",10191-1,1,11305.00,1,Agotado,0
"Campera Tival - Talle 4",10021-1-2,1,22500.00,1,"Hay existencias",4
"Babucha Sozna Verde - 36",10030-36,1,11700.00,1,Agotado,0
"Jean Frenú - 30",10017-30,1,17100.00,1,Agotado,0
"Jean Pekur - 34",10021-34-1-1-1-1-1-1,1,16245.00,1,"Hay existencias",2
"Pantalón Zelik Cielo - 26",10107-26,1,15390.00,1,Agotado,0
"Jean Gamat - 28",10216-28,1,16245.00,1,"Hay existencias",5
"Pantalón Zelik Rosa - 32",10003-32,1,15900.00,1,"Hay existencias",14
"Jean Kamba - 26",10028,1,15105.00,1,Agotado,0
"Pantalón Egipto - Talle 2",10155-2,1,25700.00,1,"Hay existencias",3
"Remera Lino Ladrillo - Talle 2",10187-2,1,12800.00,1,"Hay existencias",9
"Jean Polet - 34",10020-34-1,1,17100.00,1,"Hay existencias",20
"Túnica Gaia - Verde",10025-2,1,26640.00,1,"Hay existencias",7
"Campera Cielo - Talle 2",11039-2,1,24100.00,1,"Hay existencias",4
"Pantalón Zelik Haba - 26",10180-26,1,17100.00,1,Agotado,0
"Pantalón Corderoy Arena - Talle 1",10218-1,1,24415.00,1,"Hay existencias",13
"Jean Potkat - 30",10016-30,1,15900.00,1,"Hay existencias",19
"Jean Pukof - 34",10001-34,1,17100.00,1,"Hay existencias",22
"Buzo Wolek Grafito - Talle 2",10015-2-1-1,1,0.00,1,Agotado,0
"Pantalón Zelik Cielo - 28",10107-28,1,17100.00,1,Agotado,0
"Pantalón Zelik Pardo - 38",10179-38,1,17100.00,1,"Hay existencias",8
"Jean Tayib - 28, Blue",10100-28-02,1,17100.00,1,"Hay existencias",7
"Remera Lino Beige - Talle 1",10188-1,1,11900.00,1,"Hay existencias",3
"Jean Polet - 36",10020-36-1,1,17100.00,1,"Hay existencias",7
"Campera Tival - Talle 1",10021-1-2,1,24100.00,1,"Hay existencias",4
"Jean Bilek - 32",10027-32,1,15900.00,1,"Hay existencias",7
"Remerón Flamé Negro - Talle 1",10034-1,1,8500.00,1,"Hay existencias",14
"Jean Pekur - 28",10021-28-1-1-1-1-1-1,1,17100.00,1,"Hay existencias",6
"Pantalón Zelik Lavanda - 36",10106-36,1,15105.00,1,"Hay existencias",8
"Musculosa Itka Negra - Talle 2",10173-2,1,7900.00,1,"Hay existencias",6
"Jean Pukof - 36",10001-36,1,17100.00,1,"Hay existencias",4
"Campera Temra - Talle 4",10021-1-2-1,1,24100.00,1,"Hay existencias",2
"Jean Pecat - 32",10056-32,1,15390.00,1,"Hay existencias",22
"Campera Tolem - Talle 1",10021-1,1,21690.00,1,"Hay existencias",9
"Pantalón Zelik Cielo - 32",10107-32,1,17100.00,1,Agotado,0
"Remera Lino Beige - Talle 2",10188-2,1,12800.00,1,"Hay existencias",10
"Jean Polet - 38",10020-38-1,1,15390.00,1,"Hay existencias",6
"Campera Tival - Talle 2",10021-1-2,1,22500.00,1,"Hay existencias",8
"Dollman Verde - Talle 1",10183-1,1,12900.00,1,"Hay existencias",3
"Jean Kabú - 36",10021-36-1-1-1-1-1-2,1,17100.00,1,"Hay existencias",12
"Pantalón Corderoy Arena - Talle 3",10218-3,1,25700.00,1,"Hay existencias",6
"Jean Potkat - 34",10016-34,1,16245.00,1,"Hay existencias",19
"Jean Pekur - 30",10021-30-1-1-1-1-1-1,1,15900.00,1,"Hay existencias",4
"Remerón Lino Negra - Talle 1",10174-1,1,12800.00,1,"Hay existencias",5
"Camisa Aure - Talle 1",10215-1,1,24100.00,1,"Hay existencias",8
"Jean Melok - 32",10002-32,1,15390.00,1,"Hay existencias",22
"Remeron Chicle - Talle 1",10033-1-1,1,7900.00,1,"Hay existencias",9
"Remera Lino Verde - Talle 1",10186-1,1,12800.00,1,"Hay existencias",4
"Jean Polet - 30",10020-30-1,1,17100.00,1,"Hay existencias",20
"Campera Tolem - Talle 2",10021-1,1,22500.00,1,"Hay existencias",15
"Remerón Baggy Rosa - Talle 1",10011-1,1,9975.00,1,Agotado,0
"Jean Kuma - 26",10182-26,1,15900.00,1,Agotado,0
"Jean Kabú - 28",10021-28-1-1-1-1-1-2,1,15900.00,1,"Hay existencias",12
"Campera Roxa - Talle 1",10037-1,1,22500.00,1,"Hay existencias",13
"Pantalón Zelik Pardo - 34",10179-34,1,15390.00,1,"Hay existencias",18
"Pantalón Zelik Negro - 38",10004-38,1,17100.00,1,"Hay existencias",2
"Media Polera Gris - Talle 1",10189-1,1,16100.00,1,"Hay existencias",2
"Campera Tival - Talle 3",10021-1-2,1,22895.00,1,"Hay existencias",5
"Dollman Verde - Talle 2",10183-2,1,13800.00,1,"Hay existencias",8
"Jean Bilek - 26",10027-26,1,15390.00,1,"Hay existencias",14
"Pantalón Zelik Haba - 34",10180-34,1,17100.00,1,"Hay existencias",6
"Jean Potkat - 26",10016-26,1,14310.00,1,"Hay existencias",13
"Jean Pekur - 32",10021-32-1-1-1-1-1-1,1,17100.00,1,Agotado,0
"Pantalón Zelik Cielo - 36",10107-36,1,17100.00,1,"Hay existencias",3
"Pantalón Zelik Rosa - 30",10003-30,1,14310.00,1,"Hay existencias",5
"Jean Fenat - 36",10021-36-1-1-1,1,15900.00,1,"Hay existencias",2
"Campera Tolem - Talle 3",10021-1,1,24100.00,1,"Hay existencias",22
"Jean Kuma - 34",10182-34,1,15900.00,1,"Hay existencias",13
